0.19489,0.28712
0.19506,0.28635
0.19527,0.28728
0.19564,0.28851
0.19646,0.28977
0.19770,0.29172
0.19801,0.29345
0.19652,0.29048
0.19518,0.28712
0.19551,0.28826
0.19575,0.28907
0.19650,0.29033
0.19774,0.29242
0.19829,0.29408
0.19726,0.29322
0.19566,0.28900
0.19539,0.28776
0.19596,0.28911
0.19627,0.28973
0.19691,0.29112
0.19802,0.29392
0.19804,0.29408
0.19648,0.29075
0.19511,0.28803
0.19585,0.28866
0.19642,0.28981
0.19674,0.29062
0.19786,0.29281
0.19868,0.29545
0.19684,0.29138
0.19584,0.28864
0.19658,0.29004
0.19712,0.29085
0.19812,0.29163
0.19908,0.29469
0.19847,0.29450
0.19681,0.29028
0.19645,0.28901
0.19688,0.28991
0.19731,0.29073
0.19786,0.29176
0.19854,0.29353
0.19826,0.29358
0.19636,0.28956
0.19525,0.28736
0.19587,0.28856
0.19657,0.28876
0.19723,0.28974
0.19810,0.29256
0.19742,0.29153
0.19525,0.28633
0.19499,0.28611
0.19560,0.28707
0.19602,0.28743
0.19673,0.28898
0.19743,0.29083
0.19548,0.28721
0.19436,0.28463
0.19471,0.28514
0.19520,0.28621
0.19604,0.28713
0.19734,0.28931
0.19624,0.28795
0.19420,0.28444
0.19444,0.28400
0.19513,0.28503
0.19554,0.28561
0.19661,0.28748
0.19702,0.28862
0.19482,0.28497
0.19412,0.28279
0.19460,0.28300
0.19518,0.28397
0.19594,0.28529
0.19677,0.28735
0.19616,0.28693
0.19466,0.28399
0.19394,0.28179
0.19452,0.28247
0.19497,0.28336
0.19556,0.28435
0.19692,0.28678
0.19732,0.28789
0.19458,0.28320
0.19392,0.28106
0.19455,0.28209
0.19492,0.28329
0.19575,0.28425
0.19679,0.28646
0.19657,0.28757
0.19516,0.28504
0.19428,0.28163
0.19495,0.28245
0.19521,0.28335
0.19562,0.28429
0.19661,0.28628
0.19670,0.28700
0.19467,0.28327
0.19477,0.28259
0.19561,0.28404
0.19559,0.28457
0.19657,0.28597
0.19768,0.28865
0.19609,0.28617
0.19426,0.28195
0.19486,0.28225
0.19495,0.28343
0.19555,0.28453
0.19668,0.28682
0.19696,0.28842
0.19572,0.28612
0.19443,0.28294
0.19455,0.28295
0.19532,0.28444
0.19581,0.28513
0.19677,0.28727
0.19804,0.29064
0.19664,0.28839
0.19451,0.28357
0.19532,0.28408
0.19570,0.28502
0.19623,0.28645
0.19752,0.28913
0.19748,0.29029
0.19398,0.28634
0.19115,0.28155
0.19100,0.28082
0.19321,0.28423
0.19609,0.28837
0.19775,0.29138
0.19866,0.29381
0.19739,0.29188
0.19539,0.28777
0.19609,0.28865
0.19642,0.28987
0.19683,0.29065
0.19809,0.29294
0.19855,0.29476
0.19639,0.29099
0.19556,0.28854
0.19613,0.28905
0.19669,0.29030
0.19726,0.29138
0.19816,0.29344
0.19881,0.29550
0.19775,0.29353
0.19583,0.28899
0.19607,0.28946
0.19683,0.29053
0.19722,0.29147
0.19813,0.29380
0.19935,0.29592
0.19788,0.29339
0.19663,0.29045
0.19659,0.29027
0.19698,0.29164
0.19773,0.29220
0.19864,0.29367
0.19931,0.29642
0.19851,0.29553
0.19665,0.29050
0.19683,0.29122
0.19734,0.29237
0.19768,0.29278
0.19849,0.29466
0.19908,0.29624
0.19718,0.29245
0.19632,0.29059
0.19695,0.29191
0.19731,0.29251
0.19827,0.29378
0.19943,0.29663
0.19808,0.29464
0.19594,0.28985
0.19682,0.29047
0.19721,0.29139
0.19744,0.29232
0.19850,0.29463
0.19883,0.29542
0.19641,0.29070
0.19562,0.28910
0.19612,0.28993
0.19654,0.29079
0.19723,0.29251
0.19827,0.29460
0.19770,0.29372
0.19605,0.29062
0.19527,0.28886
0.19579,0.28991
0.19599,0.29077
0.19660,0.29217
0.19740,0.29385
0.19688,0.29309
0.19522,0.28926
0.19530,0.28906
0.19576,0.29022
0.19558,0.29065
0.19633,0.29299
0.19693,0.29361
0.19548,0.29034
0.19422,0.28800
0.19494,0.28964
0.19476,0.29011
0.19551,0.29125
0.19684,0.29379
0.19645,0.29324
0.19416,0.28771
0.19387,0.28694
0.19439,0.28820
0.19482,0.28912
0.19568,0.29090
0.19658,0.29296
0.19518,0.28995
0.19362,0.28659
0.19360,0.28643
0.19421,0.28754
0.19474,0.28891
0.19568,0.29053
0.19618,0.29171
0.19510,0.29056
0.19336,0.28703
0.19396,0.28685
0.19423,0.28793
0.19424,0.28880
0.19555,0.29034
0.19526,0.29082
0.19385,0.28807
0.19370,0.28669
0.19458,0.28810
0.19453,0.28835
0.19547,0.29009
0.19602,0.29202
0.19492,0.29031
0.19343,0.28644
0.19378,0.28751
0.19432,0.28838
0.19474,0.28881
0.19579,0.29106
0.19652,0.29280
0.19407,0.28812
0.19302,0.28603
0.19401,0.28775
0.19454,0.28875
0.19480,0.28966
0.19626,0.29215
0.19611,0.29207
0.19436,0.28884
0.19392,0.28693
0.19413,0.28806
0.19434,0.28954
0.19530,0.29102
0.19628,0.29224
0.19508,0.29100
0.19383,0.28822
0.19394,0.28775
0.19467,0.28927
0.19519,0.29047
0.19620,0.29228
0.19588,0.29226
0.19446,0.28976
0.19374,0.28779
0.19448,0.28888
0.19518,0.28955
0.19581,0.29100
0.19666,0.29347
0.19658,0.29348
0.19435,0.28884
0.19425,0.28783
0.19520,0.28903
0.19539,0.28950
0.19598,0.29111
0.19749,0.29405
0.19619,0.29209
0.19434,0.28840
0.19481,0.28838
0.19503,0.28954
0.19563,0.29040
0.19657,0.29218
0.19684,0.29362
0.19591,0.29204
0.19481,0.28922
0.19455,0.28934
0.19502,0.29055
0.19597,0.29131
0.19686,0.29328
0.19557,0.29216
0.19447,0.28973
0.19477,0.28909
0.19520,0.29028
0.19539,0.29139
0.19643,0.29371
0.19602,0.29309
0.19423,0.28919
0.19423,0.28783
0.19431,0.28856
0.19489,0.28931
0.19611,0.29092
0.19657,0.29277
0.19505,0.29048
0.19408,0.28761
0.19435,0.28722
0.19470,0.28837
0.19460,0.28896
0.19536,0.29029
0.19564,0.29147
0.19447,0.28948
0.19316,0.28596
0.19373,0.28691
0.19425,0.28787
0.19462,0.28858
0.19550,0.29058
0.19586,0.29182
0.19374,0.28805
0.19326,0.28622
0.19403,0.28707
0.19413,0.28781
0.19467,0.28910
0.19594,0.29121
0.19507,0.28931
0.19342,0.28604
0.19390,0.28677
0.19430,0.28783
0.19474,0.28888
0.19582,0.29117
0.19625,0.29209
0.19463,0.28844
0.19381,0.28654
0.19408,0.28714
0.19450,0.28832
0.19493,0.28940
0.19609,0.29140
0.19681,0.29321
0.19540,0.29066
0.19352,0.28670
0.19388,0.28758
0.19429,0.28849
0.19483,0.28974
0.19575,0.29178
0.19642,0.29354
0.19593,0.29338
0.19438,0.28940
0.19379,0.28784
0.19429,0.28944
0.19451,0.28987
0.19515,0.29153
0.19634,0.29446
0.19580,0.29346
0.19379,0.28906
0.19372,0.28883
0.19427,0.28979
0.19496,0.29068
0.19587,0.29248
0.19635,0.29424
0.19522,0.29214
0.19390,0.28915
0.19380,0.28871
0.19462,0.29014
0.19515,0.29085
0.19566,0.29275
0.19619,0.29549
0.19565,0.29412
0.19414,0.28889
0.19397,0.28875
0.19454,0.28975
0.19506,0.29069
0.19559,0.29247
0.19636,0.29451
0.19662,0.29501
0.19498,0.29154
0.19379,0.28882
0.19456,0.29003
0.19483,0.29070
0.19542,0.29199
0.19655,0.29467
0.19661,0.29575
0.19488,0.29290
0.19404,0.29025
0.19426,0.29057
0.19465,0.29183
0.19503,0.29250
0.19575,0.29397
0.19568,0.29463
0.19462,0.29207
0.19379,0.28972
0.19407,0.29097
0.19455,0.29147
0.19520,0.29244
0.19651,0.29500
0.19660,0.29542
0.19387,0.29071
0.19332,0.28909
0.19394,0.28979
0.19444,0.29066
0.19517,0.29185
0.19601,0.29363
0.19592,0.29458
0.19455,0.29177
0.19341,0.28814
0.19390,0.28879
0.19425,0.28955
0.19478,0.29043
0.19577,0.29234
0.19615,0.29348
0.19480,0.29101
0.19334,0.28797
0.19328,0.28747
0.19400,0.28874
0.19428,0.28945
0.19508,0.29062
0.19656,0.29309
0.19578,0.29220
0.19331,0.28799
0.19366,0.28742
0.19402,0.28827
0.19423,0.28897
0.19514,0.29044
0.19586,0.29182
0.19449,0.28910
0.19367,0.28708
0.19397,0.28747
0.19427,0.28861
0.19445,0.28965
0.19561,0.29141
0.19535,0.29027
0.19373,0.28730
0.19305,0.28632
0.19371,0.28707
0.19418,0.28761
0.19462,0.28906
0.19514,0.29064
0.19462,0.28920
0.19277,0.28568
0.19262,0.28487
0.19335,0.28591
0.19334,0.28623
0.19405,0.28750
0.19475,0.28977
0.19353,0.28709
0.19187,0.28285
0.19223,0.28412
0.19247,0.28468
0.19269,0.28539
0.19380,0.28769
0.19424,0.28820
0.19187,0.28372
0.19110,0.28274
0.19152,0.28376
0.19191,0.28416
0.19260,0.28534
0.19345,0.28785
0.19205,0.28476
0.19100,0.28178
0.19173,0.28313
0.19187,0.28388
0.19227,0.28471
0.19323,0.28739
0.19268,0.28694
0.19051,0.28194
0.19050,0.28149
0.19081,0.28270
0.19115,0.28364
0.19217,0.28547
0.19297,0.28743
0.19139,0.28429
0.18993,0.28125
0.19002,0.28114
0.19062,0.28234
0.19065,0.28340
0.19147,0.28456
0.19270,0.28714
0.19209,0.28682
0.18955,0.28143
0.18937,0.28101
0.18977,0.28193
0.19011,0.28286
0.19077,0.28454
0.19132,0.28601
0.19217,0.28810
0.19098,0.28555
0.18901,0.28152
0.18909,0.28206
0.18975,0.28283
0.19022,0.28415
0.19068,0.28550
0.19158,0.28726
0.19225,0.28928
0.19057,0.28601
0.18912,0.28312
0.18919,0.28335
0.18982,0.28433
0.19038,0.28512
0.19104,0.28638
0.19181,0.28853
0.19132,0.28809
0.18931,0.28365
0.18965,0.28401
0.19045,0.28515
0.19098,0.28570
0.19187,0.28750
0.19246,0.28965
