0.30535,0.69617
0.30300,0.69437
0.30164,0.69494
0.30277,0.69667
0.30482,0.69734
0.30481,0.69522
0.30432,0.69262
0.30248,0.69151
0.30216,0.69156
0.30409,0.69250
0.30333,0.69541
0.30633,0.69741
0.30572,0.69402
0.30154,0.68903
0.30272,0.68882
0.30264,0.68773
0.30215,0.68973
0.30281,0.69405
0.30304,0.69556
0.30145,0.69260
0.30257,0.68783
0.30265,0.68699
0.30151,0.68893
0.30188,0.68814
0.29977,0.68631
0.30027,0.68867
0.30177,0.68979
0.30087,0.68667
0.29989,0.68559
0.30083,0.68466
0.30077,0.68558
0.30015,0.68884
0.30099,0.69065
0.30042,0.68675
0.29792,0.68115
0.29752,0.67963
0.30021,0.68178
0.30160,0.68268
0.30019,0.68365
0.30104,0.68795
0.30218,0.68737
0.29964,0.67884
0.29737,0.67658
0.29732,0.67621
0.29607,0.67543
0.29594,0.67688
0.30079,0.68177
0.30112,0.68498
0.29781,0.68273
0.29602,0.67701
0.29761,0.67283
0.29916,0.67323
0.29752,0.67690
0.29591,0.67820
0.29721,0.68021
0.30029,0.68717
0.30245,0.68869
0.30194,0.68495
0.29946,0.68117
0.29773,0.68066
0.29929,0.68197
0.30293,0.68197
0.30227,0.68435
0.30164,0.69068
0.30506,0.69519
0.30215,0.69080
0.30126,0.68589
0.30225,0.68490
0.30202,0.68686
0.30212,0.68957
0.30223,0.69191
0.30468,0.69951
0.30529,0.70009
0.30183,0.68864
0.30143,0.68712
0.30102,0.68614
0.30012,0.68664
0.30086,0.68984
0.30435,0.69253
0.30811,0.69867
0.30413,0.69602
0.30066,0.68859
0.30350,0.68726
0.30212,0.68929
0.30111,0.68907
0.30198,0.69075
0.30386,0.69723
0.30532,0.70119
0.30409,0.69283
0.30394,0.68973
0.30444,0.69250
0.30435,0.69317
0.30511,0.69374
0.30553,0.69746
0.30657,0.70365
0.30712,0.70465
0.30521,0.69842
0.30321,0.69700
0.30656,0.69774
0.30804,0.69910
0.30606,0.70310
0.30818,0.70819
0.30788,0.70541
0.30545,0.70110
0.30508,0.70040
0.30704,0.70166
0.30665,0.70254
0.30567,0.70443
0.30666,0.70664
0.30702,0.70484
0.30351,0.69821
0.30166,0.69567
0.30280,0.69374
0.30409,0.69393
0.30368,0.69827
0.30381,0.70088
0.30650,0.69946
0.30505,0.69588
0.30276,0.69341
0.30530,0.69274
0.30187,0.69135
0.30169,0.69349
0.30413,0.69590
0.30504,0.69807
0.30656,0.70314
0.30507,0.69759
0.30299,0.69397
0.30225,0.69369
0.30256,0.69067
0.30436,0.69525
0.30579,0.69873
0.30699,0.70141
0.30613,0.70334
0.30246,0.69939
0.30457,0.69552
0.30426,0.69593
0.30303,0.69670
0.30583,0.69625
0.30583,0.70040
0.30559,0.70021
0.30528,0.69632
0.30424,0.69361
0.30321,0.69286
0.30259,0.69230
0.30359,0.69409
0.30544,0.69887
0.30712,0.70252
0.30797,0.69976
0.30399,0.69393
0.30163,0.69152
0.30196,0.69126
0.30062,0.68932
0.30115,0.69114
0.30317,0.69610
0.30433,0.70039
0.30384,0.69837
0.30330,0.68984
0.30353,0.68964
0.30161,0.68906
0.30018,0.68834
0.30220,0.69296
0.30248,0.69315
0.30309,0.69786
0.30400,0.69862
0.30348,0.69147
0.30199,0.68824
0.30226,0.68905
0.30165,0.68930
0.30178,0.68981
0.30421,0.69393
0.30487,0.69969
0.30711,0.70081
0.30650,0.69683
0.30350,0.69339
0.30435,0.69379
0.30552,0.69230
0.30501,0.69324
0.30461,0.69675
0.30588,0.69992
0.30712,0.70142
0.30674,0.69625
0.30509,0.69544
0.30292,0.69758
0.30154,0.69362
0.30312,0.69448
0.30536,0.69969
0.30629,0.69843
0.30411,0.69021
0.29960,0.68777
0.30129,0.68916
0.30342,0.68895
0.30228,0.68947
0.30178,0.69361
0.30406,0.69400
0.30316,0.68795
0.30037,0.68302
0.29981,0.68373
0.30074,0.68529
0.29895,0.68459
0.29977,0.68614
0.30272,0.69031
0.30249,0.68986
0.29965,0.68039
0.30020,0.67815
0.30073,0.67984
0.29867,0.67985
0.29771,0.68089
0.29987,0.68219
0.30211,0.68846
0.30221,0.68814
0.30105,0.67937
0.30032,0.68091
0.29856,0.67897
0.29873,0.67894
0.30038,0.68282
0.30128,0.68537
0.30414,0.69139
0.30298,0.68890
0.30086,0.68361
0.30156,0.68236
0.30179,0.67961
0.30209,0.68157
0.30117,0.68463
0.30124,0.68529
0.30324,0.68344
0.30169,0.67951
0.30108,0.68034
0.30079,0.68064
0.29953,0.67842
0.29968,0.68093
0.30124,0.68519
0.30093,0.68262
0.30018,0.67570
0.30059,0.67263
0.29879,0.67342
0.29753,0.67263
0.29797,0.67298
0.29971,0.67763
0.30156,0.68162
0.30104,0.67571
0.29763,0.66972
0.29560,0.67048
0.29734,0.67317
0.29875,0.67154
0.29798,0.67554
0.29823,0.68137
0.29956,0.68264
0.29938,0.67912
0.29934,0.67387
0.29968,0.67384
0.29881,0.67553
0.29848,0.67645
0.30177,0.68147
0.30222,0.68564
0.30018,0.68108
0.29885,0.67466
0.29850,0.67573
0.29702,0.67632
0.29827,0.67430
0.29997,0.67884
0.30130,0.68684
0.30371,0.68393
0.30011,0.67791
0.29729,0.67551
0.29909,0.67482
0.30081,0.67379
0.29820,0.67631
0.29784,0.67884
0.30046,0.68377
0.30136,0.68455
0.29826,0.67496
0.29619,0.67373
0.29692,0.67364
0.29796,0.67443
0.29825,0.67794
0.30027,0.67872
0.30224,0.68651
0.30133,0.68723
0.29863,0.67881
0.29763,0.67538
0.29849,0.67651
0.29889,0.67834
0.29870,0.67915
0.30002,0.68245
0.30337,0.69000
0.30407,0.68912
0.30197,0.68451
0.30036,0.68149
0.30027,0.67995
0.29869,0.68072
0.29893,0.68200
0.30040,0.68747
0.30226,0.69496
0.30454,0.69509
0.30274,0.68929
0.30253,0.68771
0.30364,0.68869
0.30228,0.68709
0.30138,0.68828
0.30380,0.69110
0.30345,0.69062
0.30083,0.68607
0.30167,0.68240
0.29980,0.68320
0.29917,0.68330
0.29988,0.68389
0.30082,0.68836
0.30346,0.69209
0.30053,0.68626
0.29852,0.67925
0.29967,0.67761
0.29888,0.67766
0.29796,0.67687
0.29886,0.68170
0.29978,0.68391
0.29824,0.67784
0.29524,0.67300
0.29514,0.67223
0.29654,0.67281
0.29715,0.67370
0.29774,0.67709
0.30020,0.68232
0.30010,0.67815
0.29692,0.67279
0.29494,0.67268
0.29662,0.67116
0.29686,0.67067
0.29721,0.67587
0.29762,0.67945
0.29617,0.67488
0.29447,0.67084
0.29618,0.67091
0.29683,0.66984
0.29577,0.66872
0.29739,0.67307
0.29870,0.67547
0.29792,0.67086
0.29511,0.66609
0.29317,0.66646
0.29473,0.66653
0.29387,0.66761
0.29409,0.67169
0.29568,0.67194
0.29437,0.66387
0.29273,0.66031
0.29339,0.66018
0.29445,0.66023
0.29437,0.66080
0.29457,0.66420
0.29445,0.66946
0.29504,0.66845
0.29413,0.66203
0.29172,0.65894
0.29391,0.66145
0.29289,0.66187
0.29203,0.66243
0.29492,0.66748
0.29684,0.67320
0.29657,0.67167
0.29585,0.66690
0.29667,0.66576
0.29729,0.66723
0.29437,0.66451
0.29560,0.66598
0.29732,0.67048
0.29771,0.67192
0.29913,0.66887
0.29536,0.66588
0.29398,0.66631
0.29561,0.66664
0.29547,0.66541
0.29464,0.66819
0.29779,0.67261
0.29755,0.66807
0.29361,0.66068
0.29399,0.66186
0.29700,0.66041
0.29405,0.66165
0.29372,0.66692
0.29810,0.67009
0.29461,0.66646
0.29355,0.66091
0.29412,0.65963
0.29405,0.66101
0.29430,0.66105
0.29495,0.66315
0.29787,0.66980
0.29785,0.67191
0.29458,0.66568
0.29431,0.66114
0.29390,0.66518
0.29403,0.66493
0.29498,0.66389
0.29672,0.67183
0.29985,0.67847
0.29971,0.67241
0.29762,0.66786
0.29621,0.66992
0.29556,0.66886
0.29585,0.67185
0.29876,0.67839
0.30062,0.67772
0.29816,0.66983
0.29496,0.66934
0.29509,0.66838
0.29661,0.66799
0.29828,0.67223
0.29983,0.67622
0.29789,0.66964
0.29627,0.66652
0.29638,0.66643
0.29613,0.66482
0.29469,0.66672
0.29598,0.66934
0.29680,0.66798
0.29486,0.66304
0.29328,0.65922
0.29544,0.65921
0.29493,0.65955
0.29345,0.66051
0.29441,0.66460
0.29597,0.66846
0.29608,0.66096
0.29277,0.65470
0.29111,0.65562
0.29355,0.65774
0.29289,0.65800
0.29258,0.66076
0.29554,0.66505
0.29724,0.66518
0.29375,0.65976
0.29342,0.65762
0.29300,0.65854
0.29213,0.65999
0.29321,0.66273
0.29509,0.66843
0.29616,0.67083
0.29509,0.66679
0.29388,0.66342
0.29466,0.66625
0.29481,0.66565
0.29575,0.66574
0.29868,0.66946
0.29957,0.66974
0.29511,0.66098
0.29589,0.66046
0.29451,0.66189
0.29204,0.66224
0.29544,0.66645
0.29783,0.67030
0.29700,0.66706
0.29495,0.66148
0.29416,0.65853
0.29446,0.65728
0.29330,0.65980
0.29440,0.66165
0.29786,0.66763
0.29865,0.67343
0.29466,0.65982
0.29473,0.65325
0.29376,0.65493
0.29129,0.65646
0.29361,0.65836
0.29422,0.66123
0.29756,0.66839
0.29866,0.66877
0.29450,0.65875
0.29414,0.65558
0.29402,0.65941
0.29272,0.66073
0.29322,0.65945
0.29658,0.66388
0.29748,0.67258
0.29666,0.66930
0.29577,0.66164
0.29596,0.66069
0.29670,0.66106
0.29435,0.66247
0.29626,0.66733
0.29873,0.66966
0.29552,0.66521
0.29592,0.66328
0.29483,0.66145
0.29467,0.66133
0.29644,0.66307
0.29604,0.66433
0.29790,0.66949
0.29784,0.66758
0.29522,0.66137
0.29322,0.65951
0.29229,0.65782
0.29274,0.65878
0.29214,0.66031
0.29404,0.66373
0.29989,0.66935
0.29505,0.66463
0.29142,0.65906
0.29220,0.65724
0.29220,0.65664
0.29250,0.65721
