0.28128,0.39718
0.28503,0.40015
0.28185,0.39719
0.27948,0.39751
0.28087,0.39989
0.28214,0.39837
0.27903,0.40168
0.28261,0.40305
0.28705,0.40225
0.28386,0.40223
0.28389,0.39955
0.28400,0.40419
0.28349,0.40518
0.28442,0.40066
0.28654,0.40190
0.28633,0.40153
0.28541,0.40070
0.28346,0.39865
0.28158,0.39665
0.28350,0.40054
0.28378,0.40404
0.28153,0.40111
0.28105,0.39673
0.28303,0.39734
0.28043,0.39634
0.28047,0.39649
0.28266,0.39906
0.28362,0.40123
0.28343,0.40030
0.27794,0.39773
0.27988,0.39452
0.28250,0.39211
0.27665,0.39280
0.28104,0.39706
0.28283,0.39896
0.28118,0.39852
0.28115,0.39789
0.28103,0.39672
0.27989,0.39541
0.27925,0.39610
0.27941,0.39863
0.28063,0.40026
0.28386,0.39919
0.28459,0.39843
0.28421,0.40111
0.28407,0.40187
0.28254,0.39742
0.28105,0.40200
0.28460,0.40518
0.28815,0.40596
0.28664,0.40724
0.28491,0.40445
0.28449,0.40657
0.28705,0.40665
0.28970,0.40454
0.28973,0.40777
0.29133,0.41064
0.28764,0.40954
0.28413,0.40466
0.28587,0.40125
0.28715,0.40404
0.28872,0.40582
0.28788,0.40695
0.28547,0.40588
0.28424,0.40176
0.28308,0.40160
0.28421,0.40337
0.28471,0.40443
0.28378,0.40652
0.28438,0.40973
0.28350,0.40469
0.28376,0.40346
0.28530,0.40375
0.28596,0.39957
0.28601,0.40243
0.28602,0.40779
0.28548,0.40768
0.28459,0.40335
0.28339,0.40179
0.28018,0.40184
0.28006,0.40074
0.28273,0.40045
0.28412,0.40362
0.28366,0.40715
0.28395,0.40463
0.28399,0.40559
0.28306,0.40722
0.28296,0.40237
0.28520,0.40595
0.28600,0.40594
0.28614,0.40619
0.28593,0.41103
0.28270,0.40890
0.28084,0.39978
0.28241,0.39760
0.28396,0.40188
0.28333,0.40302
0.28455,0.40349
0.28342,0.40215
0.28112,0.40215
0.28008,0.40417
0.27959,0.40415
0.27978,0.40287
0.27966,0.40411
0.27971,0.40486
0.28046,0.40215
0.28087,0.40114
0.28229,0.40207
0.28230,0.40148
0.28172,0.40048
0.28290,0.40327
0.28105,0.40716
0.28140,0.40720
0.27936,0.40258
0.27560,0.39996
0.28087,0.40481
0.27677,0.40308
0.27555,0.40323
0.28069,0.40444
0.28121,0.39797
0.28256,0.39674
0.27915,0.40124
0.27874,0.40422
0.28357,0.40445
0.28164,0.40522
0.27872,0.39703
0.27481,0.39337
0.27134,0.39594
0.27158,0.39421
0.27399,0.39096
0.27593,0.39293
0.27454,0.39334
0.27250,0.39165
0.27455,0.39465
0.27545,0.39084
0.27499,0.39248
0.27414,0.39729
0.27441,0.39721
0.27765,0.39969
0.27913,0.39603
0.27549,0.39140
0.27136,0.39048
0.27322,0.38996
0.27662,0.39118
0.27718,0.39471
0.27627,0.39401
0.27670,0.38953
0.27727,0.39188
0.27541,0.39290
0.27627,0.39141
0.27655,0.39169
0.27225,0.39483
0.27587,0.39591
0.28008,0.39461
0.27806,0.39510
0.27487,0.39502
0.27875,0.39014
0.28092,0.39596
0.27904,0.39856
0.27643,0.39658
0.27580,0.39805
0.27646,0.39350
0.27820,0.39373
0.27797,0.39716
0.27689,0.39857
0.27915,0.39990
0.28018,0.40095
0.27996,0.39710
0.27887,0.39352
0.27769,0.39461
0.27835,0.39348
0.27719,0.39507
0.27570,0.39523
0.27610,0.39447
0.27713,0.39719
0.27652,0.39427
0.27568,0.39020
0.27571,0.38974
0.27671,0.39158
0.27770,0.39235
0.27556,0.39383
0.27615,0.39453
0.27736,0.39294
0.27315,0.39050
0.27136,0.38994
0.27322,0.39053
0.27467,0.39023
0.27385,0.38995
0.27381,0.39283
0.27591,0.39622
0.27613,0.39312
0.27494,0.38956
0.27483,0.39208
0.27350,0.39078
0.27423,0.39178
0.27513,0.39409
0.27538,0.39510
0.27692,0.39628
0.27575,0.39572
0.27363,0.39528
0.27562,0.39646
0.28005,0.39675
0.27853,0.39402
0.27937,0.39853
0.28063,0.40118
0.27984,0.39828
0.27958,0.39830
0.27848,0.39844
0.27741,0.39968
0.27864,0.39958
0.28098,0.39914
0.28008,0.40268
0.27850,0.39743
0.27763,0.39415
0.27634,0.39703
0.27549,0.39740
0.27906,0.39716
0.27785,0.39981
0.27552,0.39972
0.27671,0.39512
0.27622,0.39393
0.27550,0.39600
0.27366,0.39743
0.27503,0.39770
0.28057,0.39845
0.27973,0.39761
0.27857,0.39087
0.27622,0.38862
0.27391,0.39259
0.27630,0.39191
0.27503,0.39287
0.27772,0.39458
0.27980,0.39701
0.27562,0.39913
0.27596,0.39628
0.27547,0.39520
0.27467,0.39522
0.27453,0.39437
0.27356,0.39472
0.27495,0.39713
0.27858,0.39665
0.28016,0.39938
0.27763,0.40385
0.27523,0.39718
0.27675,0.39990
0.28039,0.40361
0.28229,0.40431
0.28078,0.40687
0.27800,0.40025
0.27734,0.39773
0.27928,0.40005
0.28124,0.40236
0.28128,0.40502
0.28181,0.40049
0.27964,0.39993
0.27828,0.40333
0.28037,0.40154
0.27769,0.39946
0.27870,0.40286
0.28076,0.40456
0.27858,0.40055
0.27535,0.39692
0.27568,0.39510
0.27768,0.39771
0.27746,0.39911
0.27575,0.39601
0.27746,0.39673
0.27872,0.39882
0.27636,0.40078
0.27284,0.39837
0.27203,0.39220
0.27206,0.39713
0.27491,0.39568
0.27668,0.39284
0.27401,0.39704
0.27173,0.39489
0.27393,0.39339
0.27570,0.39279
0.27435,0.39233
0.27291,0.39389
0.27347,0.39676
0.27467,0.39951
0.27524,0.39770
0.27552,0.39251
0.27613,0.39166
0.27572,0.39396
0.27711,0.39571
0.27746,0.39725
0.27558,0.39895
0.27914,0.39758
0.27660,0.40019
0.27449,0.39955
0.27743,0.39490
0.27723,0.39588
0.27724,0.39459
0.27873,0.39787
0.27985,0.40027
0.27760,0.39545
0.27276,0.39496
0.27581,0.39689
0.27649,0.39608
0.27450,0.39482
0.27933,0.39737
0.27707,0.39707
0.27691,0.39563
0.27709,0.39367
0.27418,0.38994
0.27636,0.38712
0.27583,0.39262
0.27445,0.39751
0.27390,0.39424
0.27238,0.38902
0.27205,0.39254
0.27244,0.39310
0.27445,0.39138
0.27642,0.39229
0.27499,0.39284
0.27481,0.39507
0.27221,0.39422
0.27180,0.39172
0.27694,0.39238
0.27541,0.39299
0.27431,0.39202
0.27829,0.39282
0.28204,0.39710
0.27968,0.39982
0.27805,0.39425
0.27579,0.39142
0.27521,0.39409
0.27764,0.39620
0.27729,0.39690
0.27940,0.39775
0.27848,0.39613
0.27632,0.39360
0.27966,0.39438
0.27763,0.39429
0.27881,0.39413
0.28078,0.39416
0.27833,0.39472
0.27757,0.39606
0.27649,0.39226
0.27556,0.39242
0.27518,0.39533
0.27491,0.39221
0.27550,0.39123
0.27360,0.39427
0.27317,0.39532
0.27561,0.39000
0.27550,0.38414
0.27613,0.38951
0.27617,0.39113
0.27618,0.38834
0.27673,0.39180
0.27475,0.39402
0.27685,0.39147
0.27617,0.38931
0.27179,0.38900
0.27284,0.38682
0.27182,0.38748
0.27242,0.39043
0.27439,0.39350
0.27330,0.39407
0.27031,0.39036
0.26984,0.38882
0.27215,0.38937
0.27483,0.39024
0.27610,0.39226
0.27642,0.39531
0.27873,0.39492
0.27795,0.39380
0.27395,0.39526
0.27589,0.39507
0.27451,0.39087
0.27464,0.39248
0.27756,0.39786
0.27760,0.39776
0.27641,0.39808
0.27249,0.39357
0.27321,0.38833
0.27821,0.38993
0.27627,0.39506
0.27497,0.39185
0.27627,0.39403
0.27636,0.39771
0.27300,0.39092
0.27032,0.38742
0.27348,0.38753
0.27401,0.38741
0.27156,0.38872
0.27519,0.39335
0.27431,0.39087
0.27266,0.38653
0.27270,0.38634
0.27270,0.38878
0.27322,0.39015
0.27353,0.39447
0.27308,0.39277
0.27257,0.38786
0.27348,0.39070
0.27550,0.38927
0.27345,0.38931
0.27289,0.39120
0.27645,0.39076
0.27500,0.38929
0.27325,0.38790
0.27501,0.38901
0.27622,0.39008
0.27434,0.38952
0.27740,0.39368
0.27747,0.39118
0.27584,0.39079
0.27605,0.39447
0.27528,0.38779
0.27628,0.38855
0.27569,0.39102
0.27456,0.39348
0.27560,0.39837
0.27472,0.39531
0.27369,0.39080
0.27174,0.39107
0.27181,0.39249
0.27649,0.39031
0.27442,0.39391
0.27611,0.39520
0.27884,0.39338
0.27523,0.39295
0.27465,0.39040
0.27563,0.38777
0.27570,0.38769
0.27501,0.39101
0.27461,0.39463
0.27376,0.39209
0.27330,0.38815
0.27473,0.38757
0.27594,0.38890
0.27385,0.38878
0.27659,0.39224
0.27705,0.39154
0.27510,0.39035
0.27653,0.39586
0.27392,0.39354
0.27280,0.39032
0.27464,0.38990
0.27636,0.39213
0.27699,0.39716
0.27866,0.39835
0.28161,0.39887
0.28240,0.39941
0.28018,0.39789
0.28018,0.39747
0.27886,0.39900
0.27910,0.39907
0.28000,0.39881
0.27780,0.40235
0.28274,0.40340
0.28391,0.39991
0.28139,0.39720
0.28189,0.40004
0.28100,0.40474
0.28180,0.40458
0.28145,0.40563
0.28076,0.40684
0.28252,0.40235
0.27993,0.40414
0.28304,0.40550
0.28434,0.40236
0.27840,0.40046
0.27969,0.40518
0.28279,0.40760
0.28131,0.40489
0.27666,0.39939
0.27283,0.39275
0.26773,0.38436
0.26201,0.37894
0.25872,0.37678
0.25928,0.37658
0.26086,0.37850
0.25882,0.37924
0.25674,0.37673
0.25519,0.37412
0.25408,0.37430
0.25883,0.37445
0.26321,0.37716
0.26081,0.37677
0.25734,0.37492
0.26171,0.37962
0.26319,0.38038
0.26308,0.37932
0.26568,0.38252
0.26728,0.38766
0.26128,0.38599
0.26186,0.38379
0.26404,0.38202
0.26238,0.38234
0.26165,0.38557
0.26191,0.38246
0.26330,0.38262
0.26222,0.38117
0.25753,0.37328
0.25594,0.37581
