0.05776,0.12156
0.05797,0.12113
0.05784,0.12114
0.05759,0.12105
0.05754,0.12096
0.05794,0.12140
0.05829,0.12203
0.05780,0.12171
0.05719,0.12103
0.05745,0.12099
0.05796,0.12117
0.05807,0.12175
0.05780,0.12193
0.05773,0.12147
0.05808,0.12109
0.05800,0.12105
0.05766,0.12145
0.05755,0.12143
0.05777,0.12124
0.05789,0.12210
0.05752,0.12139
0.05737,0.12077
0.05764,0.12096
0.05781,0.12083
0.05786,0.12139
0.05776,0.12171
0.05749,0.12139
0.05735,0.12088
0.05768,0.12074
0.05791,0.12129
0.05775,0.12185
0.05762,0.12173
0.05774,0.12125
0.05754,0.12133
0.05770,0.12115
0.05766,0.12118
0.05736,0.12158
0.05765,0.12166
0.05762,0.12204
0.05739,0.12162
0.05742,0.12107
0.05778,0.12130
0.05808,0.12128
0.05780,0.12212
0.05752,0.12188
0.05763,0.12084
0.05772,0.12130
0.05754,0.12119
0.05736,0.12163
0.05758,0.12221
0.05792,0.12178
0.05766,0.12110
0.05738,0.12127
0.05751,0.12136
0.05776,0.12110
0.05775,0.12118
0.05768,0.12123
0.05749,0.12110
0.05735,0.12054
0.05744,0.12021
0.05768,0.12111
0.05780,0.12164
0.05773,0.12153
0.05745,0.12091
0.05720,0.12035
0.05747,0.12086
0.05737,0.12069
0.05735,0.12076
0.05759,0.12112
0.05745,0.12036
0.05741,0.12086
0.05734,0.12068
0.05738,0.12038
0.05765,0.12122
0.05759,0.12116
0.05726,0.12107
0.05712,0.12063
0.05731,0.12009
0.05743,0.12051
0.05720,0.12107
0.05729,0.12146
0.05754,0.12082
0.05741,0.11967
0.05706,0.12008
0.05708,0.12069
0.05726,0.12053
0.05733,0.12048
0.05726,0.12105
0.05706,0.12043
0.05732,0.12027
0.05757,0.12012
0.05736,0.12008
0.05724,0.12155
0.05752,0.12121
0.05737,0.12040
0.05712,0.12021
0.05738,0.12033
0.05720,0.12115
0.05730,0.12091
0.05751,0.12074
0.05743,0.12113
0.05725,0.12071
0.05711,0.12070
0.05720,0.12034
0.05743,0.12061
0.05747,0.12156
0.05710,0.12036
0.05702,0.12001
0.05722,0.12006
0.05727,0.12008
0.05716,0.12088
0.05739,0.12091
0.05729,0.12031
0.05695,0.11983
0.05684,0.11998
0.05687,0.12047
0.05706,0.11998
0.05711,0.11988
0.05690,0.12011
0.05667,0.11947
0.05671,0.11929
0.05693,0.11908
0.05699,0.11933
0.05689,0.12004
0.05699,0.11985
0.05698,0.11917
0.05689,0.11905
0.05688,0.11959
0.05694,0.11994
0.05684,0.11965
0.05687,0.11929
0.05688,0.11921
0.05673,0.11915
0.05664,0.11890
0.05681,0.11914
0.05701,0.11972
0.05694,0.11983
0.05663,0.11919
0.05648,0.11871
0.05695,0.11902
0.05683,0.11938
0.05628,0.11938
0.05665,0.11928
0.05692,0.11877
0.05667,0.11900
0.05631,0.11898
0.05645,0.11828
0.05702,0.11884
0.05707,0.11952
0.05659,0.11943
0.05637,0.11855
0.05662,0.11801
0.05641,0.11922
0.05650,0.11938
0.05687,0.11912
0.05689,0.11924
0.05651,0.11845
0.05649,0.11903
0.05672,0.11893
0.05679,0.11853
0.05670,0.11960
0.05685,0.12004
0.05696,0.11970
0.05698,0.11899
0.05686,0.11893
0.05668,0.11992
0.05706,0.11978
0.05706,0.11960
0.05668,0.11935
0.05678,0.11905
0.05732,0.12031
0.05737,0.12033
0.05763,0.12126
0.05833,0.12310
0.05868,0.12301
0.05888,0.12320
0.05902,0.12321
0.05908,0.12355
0.05905,0.12431
0.05899,0.12381
0.05888,0.12305
0.05864,0.12177
0.05840,0.12112
0.05831,0.12204
0.05834,0.12192
0.05876,0.12275
0.05883,0.12320
0.05835,0.12255
0.05835,0.12305
0.05873,0.12281
0.05890,0.12279
0.05880,0.12309
0.05878,0.12274
0.05887,0.12241
0.05883,0.12199
0.05870,0.12217
0.05859,0.12254
0.05841,0.12192
0.05821,0.12171
0.05817,0.12173
0.05826,0.12182
0.05825,0.12188
0.05809,0.12144
0.05829,0.12152
0.05841,0.12198
0.05824,0.12203
0.05818,0.12155
0.05828,0.12165
0.05860,0.12251
0.05849,0.12262
0.05798,0.12155
0.05817,0.12118
0.05842,0.12165
0.05823,0.12204
0.05808,0.12202
0.05845,0.12195
0.05851,0.12206
0.05844,0.12230
0.05831,0.12211
0.05836,0.12187
0.05887,0.12268
0.05888,0.12340
0.05857,0.12299
0.05837,0.12207
0.05833,0.12198
0.05845,0.12267
0.05843,0.12286
0.05849,0.12250
0.05853,0.12208
0.05819,0.12192
0.05817,0.12245
0.05812,0.12191
0.05812,0.12163
0.05828,0.12262
0.05804,0.12204
0.05807,0.12171
0.05817,0.12121
0.05808,0.12101
0.05807,0.12228
0.05836,0.12219
0.05830,0.12149
0.05785,0.12095
0.05762,0.12086
0.05796,0.12149
0.05809,0.12127
0.05809,0.12163
0.05810,0.12216
0.05802,0.12144
0.05800,0.12170
0.05807,0.12153
0.05818,0.12132
0.05828,0.12178
0.05822,0.12183
0.05782,0.12123
0.05764,0.12076
0.05779,0.12098
0.05795,0.12160
0.05813,0.12186
0.05808,0.12154
0.05786,0.12119
0.05765,0.12142
0.05759,0.12205
0.05795,0.12184
0.05840,0.12141
0.05824,0.12163
0.05768,0.12190
0.05793,0.12082
0.05812,0.12043
0.05793,0.12075
0.05785,0.12141
0.05808,0.12198
0.05794,0.12061
0.05788,0.12045
0.05799,0.12118
0.05805,0.12122
0.05817,0.12167
0.05823,0.12144
0.05802,0.12120
0.05778,0.12110
0.05774,0.12066
0.05745,0.12072
0.05779,0.12069
0.05814,0.12103
0.05790,0.12140
0.05784,0.12051
0.05784,0.12051
0.05780,0.12070
0.05771,0.12077
0.05771,0.12107
0.05796,0.12079
0.05789,0.12038
0.05782,0.12055
0.05800,0.12097
0.05803,0.12079
0.05816,0.12072
0.05814,0.12103
0.05802,0.12148
0.05801,0.12138
0.05800,0.12048
0.05802,0.12083
0.05818,0.12158
0.05858,0.12185
0.05891,0.12192
0.05845,0.12119
0.05812,0.12159
0.05816,0.12207
0.05829,0.12153
0.05850,0.12164
0.05814,0.12118
0.05808,0.12123
0.05837,0.12172
0.05821,0.12141
0.05816,0.12138
0.05854,0.12202
0.05870,0.12231
0.05832,0.12167
0.05805,0.12095
0.05812,0.12098
0.05831,0.12155
0.05833,0.12208
0.05814,0.12212
0.05803,0.12151
0.05814,0.12095
0.05809,0.12130
0.05796,0.12178
0.05817,0.12127
0.05826,0.12179
0.05834,0.12194
0.05839,0.12175
0.05831,0.12199
0.05823,0.12152
0.05836,0.12146
0.05851,0.12207
0.05840,0.12253
0.05805,0.12221
0.05794,0.12186
0.05802,0.12154
0.05816,0.12190
0.05826,0.12270
0.05820,0.12226
0.05806,0.12157
0.05798,0.12136
0.05811,0.12186
0.05830,0.12250
0.05820,0.12215
0.05843,0.12253
0.05855,0.12244
0.05819,0.12163
0.05794,0.12219
0.05797,0.12176
0.05812,0.12148
0.05808,0.12207
0.05775,0.12213
0.05750,0.12082
0.05779,0.12051
0.05801,0.12095
0.05785,0.12127
0.05793,0.12173
0.05832,0.12185
0.05808,0.12135
0.05787,0.12109
0.05837,0.12176
0.05853,0.12252
0.05865,0.12266
0.05855,0.12227
0.05835,0.12205
0.05853,0.12226
0.05859,0.12208
0.05832,0.12193
0.05834,0.12216
0.05867,0.12256
0.05834,0.12250
0.05797,0.12165
0.05814,0.12157
0.05860,0.12200
0.05879,0.12189
0.05882,0.12271
0.05854,0.12238
0.05845,0.12172
0.05861,0.12198
0.05840,0.12223
0.05834,0.12298
0.05848,0.12305
0.05854,0.12210
0.05844,0.12163
0.05845,0.12273
0.05869,0.12251
0.05884,0.12251
0.05870,0.12319
0.05848,0.12240
0.05848,0.12280
0.05891,0.12313
0.05907,0.12293
0.05875,0.12314
0.05901,0.12353
0.05905,0.12345
0.05886,0.12338
0.05883,0.12324
0.05899,0.12275
0.05896,0.12345
0.05897,0.12375
0.05863,0.12332
0.05816,0.12278
0.05859,0.12228
0.05852,0.12288
0.05847,0.12353
0.05873,0.12356
0.05876,0.12325
0.05870,0.12242
0.05838,0.12255
0.05830,0.12319
0.05862,0.12320
0.05870,0.12280
0.05867,0.12291
0.05848,0.12287
0.05838,0.12262
0.05860,0.12257
0.05874,0.12243
0.05881,0.12343
0.05872,0.12340
0.05860,0.12212
0.05856,0.12223
0.05822,0.12202
0.05844,0.12257
0.05887,0.12342
0.05869,0.12333
0.05841,0.12308
0.05873,0.12277
0.05888,0.12302
0.05861,0.12345
0.05860,0.12312
0.05870,0.12303
0.05857,0.12301
0.05830,0.12267
0.05829,0.12222
0.05864,0.12226
0.05892,0.12255
0.05883,0.12330
0.05845,0.12313
0.05818,0.12162
0.05839,0.12233
0.05843,0.12307
0.05871,0.12337
0.05920,0.12340
0.05889,0.12260
0.05855,0.12313
0.05868,0.12319
0.05891,0.12265
0.05879,0.12291
0.05867,0.12311
0.05901,0.12344
0.05915,0.12301
0.05877,0.12239
0.05852,0.12311
0.05867,0.12323
0.05904,0.12361
0.05906,0.12351
0.05866,0.12255
0.05857,0.12297
0.05856,0.12262
0.05853,0.12241
0.05853,0.12271
0.05860,0.12241
0.05855,0.12255
0.05837,0.12214
0.05839,0.12199
0.05864,0.12261
0.05866,0.12265
0.05870,0.12345
0.05869,0.12305
0.05857,0.12208
0.05853,0.12268
0.05871,0.12250
0.05875,0.12248
0.05891,0.12284
0.05902,0.12303
0.05852,0.12295
0.05860,0.12249
0.05881,0.12250
0.05883,0.12290
0.05882,0.12327
0.05856,0.12396
0.05859,0.12304
0.05863,0.12250
0.05856,0.12312
0.05870,0.12288
0.05871,0.12331
0.05886,0.12361
0.05896,0.12360
0.05884,0.12344
0.05892,0.12260
0.05881,0.12331
0.05897,0.12394
0.05927,0.12372
0.05895,0.12384
0.05867,0.12317
0.05888,0.12334
0.05914,0.12367
0.05908,0.12314
0.05909,0.12369
