0.09151,0.22649
0.08802,0.21019
0.08731,0.21685
0.09250,0.22331
0.09722,0.22090
0.09291,0.21715
0.09056,0.21739
0.09094,0.21935
0.09080,0.21830
0.09179,0.21616
0.09700,0.22079
0.09415,0.22452
0.09067,0.21758
0.09059,0.21291
0.08785,0.22197
0.08873,0.21418
0.09377,0.21361
0.09544,0.22123
0.09167,0.21630
0.09048,0.20339
0.08983,0.21754
0.08854,0.21848
0.08969,0.20451
0.09327,0.21358
0.09115,0.22033
0.08918,0.20464
0.08908,0.20402
0.08876,0.22026
0.08872,0.20451
0.09044,0.20601
0.08908,0.21714
0.08733,0.20950
0.08907,0.19490
0.08808,0.21388
0.08922,0.20986
0.09087,0.20122
0.08903,0.21226
0.08576,0.21287
0.08706,0.19545
0.08850,0.20173
0.08992,0.21074
0.09264,0.19765
0.09169,0.20757
0.08825,0.21315
0.08723,0.20102
0.08882,0.19592
0.08948,0.21063
0.08992,0.19944
0.08741,0.20049
0.08561,0.21232
0.08755,0.20721
0.08866,0.19599
0.08836,0.20264
0.08957,0.20350
0.08976,0.19811
0.08601,0.20760
0.08555,0.21182
0.08808,0.20228
0.08820,0.19924
0.08740,0.20574
0.09081,0.20066
0.08703,0.20557
0.08468,0.21107
0.08688,0.20789
0.08732,0.20172
0.08696,0.19943
0.08960,0.20337
0.08783,0.20813
0.08306,0.20718
0.08593,0.20417
0.08709,0.21216
0.08730,0.20353
0.08898,0.19672
0.08938,0.21144
0.08545,0.20809
0.08574,0.19757
0.08783,0.20718
0.08791,0.21560
0.08850,0.19590
0.09117,0.20596
0.08810,0.21236
0.08455,0.20072
0.08614,0.19838
0.08643,0.21702
0.08885,0.20940
0.08958,0.20349
0.08727,0.20978
0.08618,0.20347
0.08750,0.19827
0.08673,0.20936
0.08662,0.21404
0.08775,0.20376
0.08565,0.20332
0.08763,0.20022
0.08950,0.20331
0.08751,0.20553
0.08558,0.20179
0.08776,0.21490
0.08384,0.20667
0.08418,0.19381
0.09073,0.20183
0.08914,0.21086
0.08732,0.19518
0.08788,0.20630
0.08643,0.21818
0.08396,0.19605
0.08842,0.19900
0.08823,0.20835
0.08621,0.20602
0.08645,0.20132
0.08598,0.20681
0.08526,0.20717
0.08295,0.20698
0.08240,0.20262
0.08568,0.19901
0.08800,0.21003
0.08691,0.20007
0.08677,0.19935
0.08720,0.21370
0.08529,0.20959
0.08554,0.19471
0.08477,0.20587
0.08350,0.21152
0.08465,0.19747
0.08722,0.20522
0.08623,0.20474
0.08460,0.19942
0.08429,0.19778
0.08409,0.20129
0.08453,0.21247
0.08781,0.20668
0.08910,0.19035
0.08610,0.19037
0.08341,0.20584
0.08264,0.19025
0.08282,0.19752
0.08486,0.21067
0.08727,0.19319
0.08476,0.19364
0.08266,0.19572
0.08288,0.20000
0.08450,0.20214
0.08582,0.19304
0.08414,0.19713
0.08202,0.20585
0.08277,0.19876
0.08517,0.18790
0.08540,0.20382
0.08704,0.20119
0.08177,0.19592
0.07631,0.19604
0.08164,0.19084
0.08231,0.19984
0.08342,0.19029
0.08414,0.18930
0.08316,0.20547
0.08497,0.19245
0.08444,0.18407
0.08368,0.18777
0.08285,0.19343
0.08024,0.19240
0.07939,0.18417
0.08239,0.18422
0.08340,0.19200
0.08135,0.18959
0.08131,0.17400
0.07930,0.18283
0.07928,0.18409
0.07936,0.17985
0.07636,0.18380
0.07519,0.17228
0.07582,0.18286
0.07632,0.17995
0.07812,0.16563
0.08139,0.18211
0.07851,0.18190
0.07726,0.17797
0.07766,0.17494
0.07713,0.17321
0.07884,0.18368
0.07675,0.17602
0.07737,0.16789
0.08033,0.17611
0.07872,0.18433
0.07726,0.17245
0.07754,0.16764
0.07792,0.17322
0.07656,0.17970
0.07473,0.18414
0.07687,0.17112
0.07778,0.17415
0.07696,0.18150
0.07719,0.16902
0.07581,0.17349
0.07826,0.16884
0.07921,0.17393
0.07642,0.18282
0.07596,0.16357
0.07528,0.17468
0.07692,0.17736
0.07826,0.17020
0.07764,0.17665
0.08020,0.17640
0.07914,0.18905
0.08090,0.18703
0.08425,0.17496
0.08096,0.18742
0.08117,0.19142
0.08202,0.19282
0.08230,0.18736
0.08394,0.17949
0.08477,0.19212
0.07918,0.19221
0.07835,0.18334
0.08268,0.18510
0.08283,0.19694
0.08328,0.19610
0.08095,0.18637
0.08221,0.18165
0.08691,0.18852
0.08455,0.19779
0.08470,0.19206
0.08575,0.18597
0.08363,0.18814
0.08054,0.19341
0.08179,0.19807
0.08325,0.18735
0.08419,0.18817
0.08447,0.20182
0.08361,0.19506
0.08639,0.19016
0.08766,0.18327
0.08510,0.18749
0.08272,0.20152
0.08398,0.18864
0.08497,0.18924
0.08476,0.19164
0.08410,0.18949
0.08385,0.19606
0.08553,0.18582
0.08596,0.19360
0.08633,0.19936
0.08483,0.18476
0.07727,0.18788
0.07966,0.18405
0.08245,0.19064
0.08137,0.19557
0.08259,0.17914
0.08048,0.18893
0.08137,0.18774
0.08457,0.18318
0.08553,0.18753
0.08404,0.18193
0.08117,0.19521
0.07932,0.19370
0.08093,0.18194
0.08377,0.18895
0.08167,0.19153
0.08187,0.19172
0.08249,0.18510
0.08328,0.18161
0.08663,0.19496
0.08091,0.19168
0.07936,0.18147
0.08131,0.18221
0.07935,0.19192
0.08115,0.19477
0.08239,0.19135
0.08348,0.18222
0.08330,0.18170
0.08048,0.19475
0.08269,0.18423
0.08338,0.18371
0.08146,0.19227
0.08057,0.19325
0.08071,0.19617
0.08170,0.18450
0.08340,0.18844
0.08382,0.19722
0.08221,0.18349
0.08237,0.19092
0.08239,0.19011
0.08312,0.18944
0.08418,0.19311
0.08189,0.17961
0.07918,0.19479
0.08484,0.19794
0.09012,0.18876
0.08511,0.19462
0.08327,0.18638
0.08240,0.19526
0.08190,0.19526
0.08345,0.18248
0.08582,0.19614
0.08541,0.20349
0.08426,0.20095
0.08497,0.19492
0.08766,0.19414
0.08980,0.20706
0.08783,0.21014
0.08779,0.20585
0.08917,0.20626
0.08670,0.21135
0.08797,0.21278
0.08640,0.20673
0.08794,0.20115
0.09496,0.20834
0.09385,0.22233
0.09150,0.20417
0.08995,0.19796
0.08834,0.21032
0.08730,0.20816
0.08774,0.21518
0.08950,0.20843
0.09077,0.20645
0.08965,0.21450
0.08751,0.20248
0.09021,0.20733
0.09249,0.20604
0.09096,0.20430
0.08835,0.21377
0.08724,0.19519
0.08782,0.20454
0.08979,0.21195
0.09025,0.20120
0.08746,0.20992
0.08818,0.20090
0.08834,0.20514
0.08832,0.20849
0.08926,0.19324
0.08605,0.20474
0.08529,0.21171
0.08678,0.20753
0.08788,0.20127
0.08871,0.19834
0.08911,0.20575
0.08686,0.20566
0.08645,0.19709
0.08886,0.19704
0.08745,0.20918
0.08835,0.20152
0.08468,0.19550
0.08372,0.19784
0.09332,0.19766
0.09110,0.21304
0.08988,0.20118
0.08899,0.19537
0.08434,0.20941
0.08378,0.19441
0.08486,0.19866
0.08543,0.20333
0.08567,0.20304
0.08601,0.20652
0.08590,0.19126
0.08737,0.19562
0.08585,0.20709
0.08248,0.20040
0.08420,0.19060
0.08494,0.20590
0.08481,0.20664
0.08510,0.19526
0.08569,0.19497
0.08612,0.19054
0.08499,0.20106
0.08345,0.19823
0.08244,0.18953
0.08120,0.20433
0.07989,0.19015
0.08304,0.18257
0.08483,0.18937
0.08272,0.19148
0.08477,0.19092
0.08262,0.18764
0.07926,0.18564
0.07818,0.19164
0.07871,0.19693
0.08218,0.17978
0.08359,0.19023
0.08314,0.19595
0.08123,0.17794
0.07687,0.18762
0.07829,0.19417
0.08071,0.18548
0.08214,0.18125
0.08378,0.19091
0.08138,0.18863
0.07947,0.18500
0.07979,0.17954
0.08077,0.17940
0.08094,0.19085
0.08039,0.17706
0.07996,0.18288
0.08062,0.19447
0.08161,0.17707
0.08051,0.16904
0.07855,0.18311
0.07700,0.18179
0.07599,0.17284
0.07699,0.18894
0.08308,0.17939
0.08296,0.17287
0.07953,0.17733
0.07962,0.17912
0.07840,0.18133
0.07698,0.17916
0.08047,0.17718
0.08355,0.18292
0.08015,0.18781
0.08076,0.17239
0.08059,0.18305
0.08142,0.19154
0.08439,0.17683
0.08357,0.18255
0.08179,0.19271
0.08147,0.18272
0.08198,0.17584
0.08332,0.19058
0.08656,0.18464
0.08161,0.18327
0.07877,0.18478
0.08205,0.18153
0.08121,0.18177
0.08445,0.17839
0.08822,0.18151
0.08480,0.18663
0.07672,0.18054
0.07627,0.17090
0.07868,0.18460
0.08028,0.18210
0.08205,0.16926
0.08344,0.18743
0.07931,0.18218
0.07934,0.16767
0.08100,0.17318
0.07976,0.18607
0.08178,0.17340
0.08260,0.17900
0.08134,0.18237
0.07937,0.17357
0.07773,0.17384
0.07746,0.17758
0.07870,0.18027
0.07909,0.18014
0.08030,0.17719
0.08515,0.17550
0.08335,0.18245
0.08098,0.17730
0.08088,0.17514
0.07906,0.18903
0.07762,0.17651
0.08298,0.17077
0.08521,0.18155
0.08077,0.18349
0.08063,0.17034
0.08388,0.19226
0.08379,0.20063
0.08522,0.19066
0.09043,0.19515
0.08818,0.20177
0.08783,0.19426
0.08889,0.19234
0.08779,0.20067
0.08628,0.20144
0.08663,0.20211
0.08759,0.19938
0.08971,0.20053
0.09135,0.20529
0.08943,0.20032
0.09286,0.20866
0.09440,0.22359
0.09265,0.22315
0.09464,0.21291
0.09728,0.22823
0.09754,0.21968
0.09831,0.21487
0.09923,0.23587
0.09560,0.23301
0.09384,0.21394
0.09446,0.21843
0.09541,0.22486
0.09672,0.20962
0.09885,0.22577
0.09538,0.23027
0.09247,0.21753
0.09385,0.21275
0.09353,0.21985
0.09262,0.21459
0.09451,0.21423
0.09467,0.21539
0.09045,0.20673
0.08919,0.20440
0.08810,0.20473
0.08837,0.20720
0.09141,0.21065
0.09394,0.20855
0.09123,0.19903
0.08746,0.20275
0.08654,0.20521
0.08854,0.19471
0.09120,0.20720
