0.01310,0.02483
0.01434,0.01760
0.01239,0.01316
0.01450,0.01737
0.01592,0.02315
0.00935,0.02041
0.01075,0.02397
0.01442,0.02676
0.01494,0.02147
0.01393,0.01397
0.01257,0.01551
0.01236,0.02212
0.01311,0.02094
0.01458,0.01796
0.01552,0.02635
0.01274,0.02758
0.01290,0.01598
0.01400,0.01015
0.01393,0.01816
0.01713,0.02115
0.01434,0.02109
0.01084,0.02299
0.01202,0.02592
0.01473,0.02294
0.01485,0.01130
0.01289,0.01274
0.01281,0.01586
0.01365,0.01226
0.01179,0.01949
0.01560,0.02689
0.01608,0.02715
0.01112,0.02001
0.01066,0.01314
0.01749,0.01587
0.01467,0.01263
0.00979,0.01350
0.01231,0.02403
0.01471,0.02822
0.01262,0.02357
0.01461,0.01623
0.01789,0.01463
0.01595,0.01679
0.01487,0.01256
0.01603,0.01778
0.01519,0.02724
0.01293,0.02766
0.01386,0.02005
0.01489,0.01897
0.01199,0.01797
0.01008,0.01292
0.01301,0.01241
0.01451,0.02374
0.01089,0.02699
0.01052,0.02048
0.01359,0.01850
0.01320,0.02405
0.01273,0.01674
0.01257,0.01193
0.01299,0.01969
0.01481,0.02778
0.01642,0.02187
0.01253,0.02105
0.01109,0.02377
0.01402,0.01824
0.01534,0.00904
0.01398,0.01790
0.01252,0.02560
0.01126,0.02288
0.01042,0.02088
0.01166,0.02717
0.01464,0.02162
0.01384,0.01251
0.01103,0.01642
0.01158,0.02787
0.01416,0.02358
0.01378,0.02220
0.01268,0.02405
0.01360,0.01851
0.01433,0.00982
0.01249,0.01865
0.01624,0.02654
0.01569,0.02384
0.00768,0.02131
0.01097,0.02631
0.01624,0.01928
0.01548,0.01235
0.01275,0.01775
0.01333,0.02603
0.01118,0.02366
0.01072,0.02548
0.01281,0.02721
0.01384,0.01908
0.01234,0.01106
0.01247,0.01965
0.01526,0.02557
0.01444,0.02208
0.00971,0.02165
0.01365,0.02438
0.01566,0.01630
0.01362,0.01298
0.01287,0.02203
0.01418,0.02505
0.01150,0.01950
0.00959,0.02238
0.01180,0.02574
0.01370,0.01620
0.01046,0.01032
0.01236,0.02139
0.01516,0.02797
0.01385,0.02249
0.01217,0.02181
0.01259,0.02332
0.01302,0.01777
0.01206,0.01329
0.01261,0.01855
0.01650,0.02375
0.01276,0.02061
0.01029,0.02206
0.01334,0.02734
0.01471,0.02169
0.01361,0.01086
0.01325,0.01758
0.01248,0.02520
0.01166,0.02157
0.01400,0.02555
0.01419,0.02775
0.01254,0.01785
0.01135,0.01080
0.01202,0.01981
0.01410,0.02404
0.01108,0.02141
0.00919,0.02252
0.01297,0.02550
0.01558,0.01865
0.01254,0.01278
0.01298,0.01894
0.01400,0.02383
0.01099,0.02024
0.01295,0.02709
0.01414,0.02478
0.01322,0.01289
0.01264,0.01088
0.01364,0.02444
0.01496,0.02473
0.01352,0.02228
0.01224,0.02338
0.01399,0.02079
0.01494,0.01344
0.01247,0.01801
0.01364,0.02420
0.01486,0.02179
0.01007,0.01797
0.01201,0.02214
0.01433,0.02010
0.01363,0.01394
0.01226,0.01624
0.01165,0.02527
0.01106,0.02126
0.01290,0.02216
0.01419,0.02640
0.01254,0.01809
0.01409,0.01147
0.01452,0.01942
0.01537,0.02628
0.01606,0.02310
0.01282,0.02192
0.01272,0.02138
0.01486,0.01359
0.01437,0.01216
0.01166,0.02413
0.01257,0.02550
0.01162,0.01961
0.00983,0.02097
0.01105,0.02378
0.01393,0.01471
0.01266,0.01296
0.01218,0.02312
0.01368,0.02824
0.01345,0.02192
0.01091,0.02142
0.01198,0.02262
0.01391,0.01528
0.01438,0.01207
0.01556,0.02438
0.01720,0.02506
0.01197,0.02155
0.00852,0.02214
0.01313,0.02306
0.01612,0.01777
0.01404,0.01238
0.01256,0.01980
0.01272,0.02565
0.01147,0.01825
0.01076,0.02340
0.01323,0.02452
0.01439,0.01587
0.01278,0.01183
0.01349,0.02115
0.01580,0.02275
0.01162,0.02137
0.00862,0.02330
0.01414,0.02472
0.01604,0.01995
0.01444,0.01280
0.01496,0.01512
0.01531,0.02299
0.01119,0.02335
0.01184,0.02432
0.01250,0.02549
0.01193,0.02132
0.01248,0.01422
0.01260,0.01474
0.01080,0.01879
0.01173,0.01844
0.01351,0.01798
0.01209,0.02399
0.01391,0.02544
0.01406,0.01795
0.01294,0.01353
0.01377,0.01840
0.01566,0.02119
0.01639,0.01678
0.01243,0.01897
0.00955,0.02636
0.01286,0.02437
0.01388,0.01391
0.01382,0.01243
0.01458,0.01601
0.01477,0.01630
0.01306,0.01729
0.01319,0.02281
0.01410,0.02540
0.01229,0.02079
0.01018,0.01484
0.01444,0.01543
0.01409,0.01418
0.01261,0.01241
0.01366,0.01746
0.01321,0.02725
0.01253,0.02557
0.01517,0.01821
0.01692,0.01767
0.01466,0.02138
0.01384,0.01535
0.01510,0.01238
0.01381,0.02011
0.01191,0.02672
0.01301,0.02133
0.01116,0.01920
0.01214,0.02163
0.01460,0.02115
0.01375,0.01529
0.01130,0.01254
0.01269,0.02113
0.01275,0.02528
0.01089,0.02309
0.01179,0.02479
0.01424,0.02601
0.01287,0.02224
0.01112,0.01605
0.01227,0.01477
0.01325,0.02030
0.01268,0.02131
0.01457,0.02169
0.01530,0.02507
0.01261,0.02558
0.01433,0.01658
0.01621,0.01198
0.01622,0.01627
0.01552,0.01946
0.01483,0.01559
0.01351,0.01971
0.01366,0.02548
0.01472,0.02244
0.01394,0.01491
0.01182,0.01651
0.01536,0.01756
0.01758,0.01608
0.01452,0.01772
0.01223,0.02423
0.01450,0.02669
0.01248,0.01894
0.01283,0.01436
0.01689,0.01710
0.01289,0.01351
0.01244,0.01367
0.01426,0.02057
0.01440,0.02676
0.01404,0.02500
0.01541,0.01891
0.01545,0.01805
0.01366,0.01764
0.01255,0.01436
0.01356,0.01620
0.01372,0.02577
0.01140,0.02554
0.01038,0.01726
0.01298,0.01629
0.01449,0.02158
0.01445,0.01663
0.01381,0.01525
0.01287,0.02359
0.01280,0.02593
0.01600,0.01990
0.01449,0.02153
0.01204,0.02290
0.01425,0.01465
0.01520,0.01227
0.01310,0.02115
0.01231,0.02562
0.01147,0.02173
0.00821,0.02086
0.01070,0.02300
0.01571,0.01458
0.01537,0.01037
0.01152,0.02074
0.01270,0.02699
0.01125,0.02138
0.01067,0.02201
0.01296,0.02521
0.01427,0.01700
0.01302,0.01243
0.01334,0.02184
0.01587,0.02725
0.01537,0.02224
0.00973,0.02237
0.01053,0.02162
0.01458,0.01438
0.01491,0.01462
0.01201,0.02654
0.01227,0.02544
0.01216,0.01816
0.01166,0.01921
0.01299,0.02212
0.01477,0.01482
0.01195,0.01682
0.01176,0.02583
0.01461,0.02627
0.01562,0.01989
0.01457,0.02421
0.01463,0.01868
0.01514,0.01234
0.01433,0.01788
0.01285,0.02739
0.01308,0.02410
0.01166,0.01917
0.01171,0.01891
0.01437,0.01712
0.01402,0.01175
0.01203,0.02097
0.01108,0.02676
0.01209,0.02122
0.01381,0.01788
0.01437,0.02167
0.01360,0.01593
0.01392,0.01364
0.01503,0.02357
0.01477,0.02829
0.01642,0.01996
0.01566,0.01921
0.01297,0.02135
0.01260,0.01438
0.01408,0.01430
0.01357,0.02297
0.01145,0.02622
0.01092,0.02091
0.01297,0.01846
0.01370,0.01977
0.01374,0.01420
0.01461,0.01400
0.01456,0.02530
0.01195,0.02618
0.01492,0.01822
0.01626,0.01844
0.01355,0.02046
0.01292,0.01233
0.01359,0.01675
0.01467,0.02642
0.01387,0.02660
0.01151,0.01966
0.01139,0.01945
0.01338,0.01778
0.01371,0.01387
0.01282,0.01554
0.01242,0.02397
0.01030,0.02556
0.01140,0.01876
0.01334,0.01876
0.01301,0.02212
0.01264,0.01353
0.01379,0.01760
0.01312,0.02751
0.01395,0.02683
0.01639,0.01846
0.01163,0.02073
0.01188,0.01926
0.01468,0.01306
0.01460,0.01425
0.01347,0.02479
0.01245,0.02442
0.01168,0.01940
0.01150,0.02008
0.01290,0.02245
0.01508,0.01584
0.01248,0.01382
0.01147,0.02068
0.01431,0.02690
0.01491,0.02483
0.01190,0.02296
0.01353,0.02436
0.01560,0.01895
0.01454,0.01160
0.01630,0.02049
0.01727,0.02540
0.01386,0.02142
0.01116,0.02009
0.01380,0.02448
0.01507,0.01877
0.01418,0.01450
0.01280,0.01870
0.01175,0.02350
0.01103,0.02153
0.01195,0.02550
0.01339,0.02682
0.01255,0.01845
0.01102,0.01017
0.01468,0.01699
0.01720,0.02499
0.01503,0.02346
0.01228,0.02078
0.01322,0.02692
0.01287,0.02558
0.01355,0.01406
0.01670,0.01086
0.01747,0.02028
0.01174,0.02113
0.01157,0.02283
0.01322,0.02487
0.01252,0.02350
0.01180,0.01846
0.01100,0.01141
0.01071,0.01584
0.01241,0.01952
0.01506,0.01656
0.01531,0.02280
0.01399,0.02687
0.01335,0.01970
0.01457,0.01206
0.01629,0.01566
0.01603,0.01933
0.01573,0.01712
0.01412,0.02080
0.01258,0.02936
0.01430,0.02504
0.01370,0.01365
0.01300,0.01424
0.01362,0.01847
0.01377,0.01420
0.01280,0.01665
0.01319,0.02495
0.01340,0.02743
0.01172,0.02060
0.01100,0.01442
0.01597,0.01688
0.01736,0.01420
0.01385,0.01142
0.01275,0.01919
0.01590,0.02821
0.01220,0.02510
0.01276,0.01724
0.01702,0.01555
0.01430,0.01718
0.01418,0.01130
0.01480,0.01706
0.01402,0.02778
0.01255,0.02674
0.01184,0.01829
0.01307,0.01855
0.01379,0.01968
0.01265,0.01529
0.01209,0.01401
0.01455,0.02449
0.01259,0.02602
0.01215,0.01996
0.01407,0.01912
0.01110,0.02262
0.01342,0.01603
0.01424,0.01109
0.01190,0.01825
0.01287,0.02766
0.01729,0.02247
0.01377,0.02113
0.01116,0.02436
0.01427,0.02122
0.01495,0.01262
0.01375,0.01624
0.01413,0.02281
0.01424,0.02428
