0.07427,0.15879
0.07495,0.15861
0.07590,0.16325
0.07539,0.16220
0.07405,0.15741
0.07396,0.15801
0.07409,0.15778
0.07405,0.15929
0.07441,0.16124
0.07500,0.16121
0.07443,0.16207
0.07328,0.15854
0.07295,0.15773
0.07349,0.16001
0.07388,0.15852
0.07461,0.16113
0.07649,0.16543
0.07729,0.16670
0.07626,0.16503
0.07647,0.16449
0.07698,0.16528
0.07691,0.16644
0.07730,0.16927
0.07829,0.17174
0.07678,0.16568
0.07546,0.16268
0.07525,0.16386
0.07545,0.16416
0.07602,0.16438
0.07659,0.16577
0.07584,0.16407
0.07463,0.16122
0.07451,0.16094
0.07470,0.15941
0.07484,0.16037
0.07522,0.16259
0.07519,0.16197
0.07407,0.15806
0.07413,0.15542
0.07440,0.15632
0.07439,0.15761
0.07476,0.15757
0.07529,0.15890
0.07445,0.15523
0.07359,0.15360
0.07365,0.15523
0.07393,0.15354
0.07465,0.15501
0.07558,0.15700
0.07545,0.15676
0.07435,0.15428
0.07431,0.15131
0.07477,0.15242
0.07502,0.15357
0.07528,0.15430
0.07560,0.15597
0.07490,0.15249
0.07455,0.15191
0.07475,0.15244
0.07494,0.15144
0.07512,0.15311
0.07558,0.15320
0.07637,0.15588
0.07638,0.15663
0.07504,0.15118
0.07409,0.15069
0.07445,0.15043
0.07512,0.15172
0.07550,0.15402
0.07607,0.15316
0.07617,0.15582
0.07623,0.15489
0.07593,0.15205
0.07532,0.15226
0.07572,0.15091
0.07584,0.15311
0.07620,0.15528
0.07685,0.15605
0.07677,0.15799
0.07648,0.15618
0.07590,0.15509
0.07562,0.15454
0.07598,0.15338
0.07635,0.15484
0.07688,0.15562
0.07712,0.15729
0.07699,0.15809
0.07662,0.15543
0.07572,0.15494
0.07519,0.15458
0.07542,0.15528
0.07618,0.15674
0.07702,0.15624
0.07750,0.15916
0.07796,0.16079
0.07747,0.15878
0.07599,0.15607
0.07617,0.15440
0.07602,0.15605
0.07596,0.15690
0.07640,0.15656
0.07663,0.15951
0.07821,0.16129
0.07755,0.16019
0.07591,0.15660
0.07609,0.15400
0.07598,0.15651
0.07667,0.15693
0.07669,0.15752
0.07637,0.15947
0.07731,0.15966
0.07672,0.16054
0.07614,0.15741
0.07607,0.15510
0.07609,0.15722
0.07672,0.15723
0.07710,0.15907
0.07759,0.16041
0.07759,0.16001
0.07641,0.15914
0.07582,0.15635
0.07615,0.15644
0.07651,0.15734
0.07672,0.15768
0.07749,0.16062
0.07791,0.16085
0.07735,0.15897
0.07658,0.15715
0.07652,0.15637
0.07659,0.15705
0.07677,0.15702
0.07726,0.15921
0.07806,0.16241
0.07840,0.16054
0.07705,0.15709
0.07657,0.15631
0.07700,0.15782
0.07699,0.15839
0.07740,0.15758
0.07772,0.16035
0.07717,0.16090
0.07644,0.15743
0.07669,0.15593
0.07696,0.15626
0.07728,0.15804
0.07779,0.16023
0.07790,0.16017
0.07705,0.15665
0.07678,0.15613
0.07683,0.15693
0.07667,0.15680
0.07699,0.15736
0.07858,0.15951
0.07790,0.15898
0.07650,0.15599
0.07651,0.15400
0.07651,0.15462
0.07724,0.15618
0.07740,0.15761
0.07708,0.15741
0.07693,0.15534
0.07590,0.15396
0.07603,0.15341
0.07648,0.15329
0.07653,0.15323
0.07730,0.15410
0.07791,0.15772
0.07716,0.15566
0.07618,0.15138
0.07607,0.15188
0.07572,0.15245
0.07627,0.15422
0.07709,0.15498
0.07746,0.15484
0.07738,0.15571
0.07648,0.15377
0.07629,0.15272
0.07656,0.15257
0.07662,0.15285
0.07721,0.15624
0.07757,0.15757
0.07697,0.15533
0.07638,0.15277
0.07675,0.15311
0.07653,0.15450
0.07661,0.15388
0.07703,0.15460
0.07758,0.15738
0.07802,0.15675
0.07611,0.15434
0.07536,0.15224
0.07617,0.15283
0.07627,0.15540
0.07678,0.15527
0.07704,0.15685
0.07716,0.15680
0.07690,0.15442
0.07589,0.15439
0.07600,0.15242
0.07639,0.15366
0.07658,0.15630
0.07700,0.15694
0.07739,0.15935
0.07653,0.15589
0.07592,0.15415
0.07618,0.15578
0.07634,0.15405
0.07709,0.15611
0.07761,0.15786
0.07726,0.15761
0.07639,0.15598
0.07590,0.15286
0.07620,0.15474
0.07680,0.15616
0.07721,0.15586
0.07755,0.15801
0.07797,0.15895
0.07708,0.15732
0.07634,0.15419
0.07645,0.15269
0.07590,0.15477
0.07659,0.15595
0.07729,0.15751
0.07746,0.15814
0.07738,0.15608
0.07624,0.15545
0.07637,0.15465
0.07705,0.15438
0.07724,0.15554
0.07769,0.15751
0.07795,0.16037
0.07705,0.15795
0.07629,0.15410
0.07668,0.15501
0.07665,0.15625
0.07715,0.15665
0.07775,0.15720
0.07804,0.15848
0.07795,0.15894
0.07642,0.15614
0.07603,0.15435
0.07667,0.15520
0.07704,0.15707
0.07766,0.15893
0.07822,0.16042
0.07799,0.15796
0.07720,0.15513
0.07679,0.15674
0.07696,0.15604
0.07743,0.15659
0.07784,0.15911
0.07785,0.16068
0.07742,0.15940
0.07714,0.15611
0.07738,0.15645
0.07779,0.15844
0.07801,0.15801
0.07838,0.15973
0.07887,0.16037
0.07840,0.15939
0.07734,0.15778
0.07727,0.15632
0.07728,0.15781
0.07809,0.15909
0.07880,0.16045
0.07822,0.16101
0.07751,0.15600
0.07729,0.15655
0.07785,0.15807
0.07818,0.15774
0.07757,0.15983
0.07793,0.15905
0.07738,0.15770
0.07674,0.15604
0.07701,0.15437
0.07666,0.15565
0.07749,0.15626
0.07821,0.15783
0.07769,0.15704
0.07677,0.15195
0.07636,0.15357
0.07660,0.15410
0.07674,0.15407
0.07693,0.15605
0.07773,0.15578
0.07690,0.15447
0.07583,0.15200
0.07595,0.15081
0.07651,0.15203
0.07629,0.15172
0.07668,0.15451
0.07648,0.15409
0.07559,0.15039
0.07591,0.15207
0.07613,0.15187
0.07586,0.15224
0.07557,0.15266
0.07540,0.15125
0.07482,0.15109
0.07421,0.14901
0.07387,0.14806
0.07390,0.14882
0.07436,0.14904
0.07499,0.15256
0.07468,0.15138
0.07383,0.14821
0.07387,0.14876
0.07507,0.14967
0.07527,0.15159
0.07560,0.15232
0.07625,0.15254
0.07602,0.15355
0.07571,0.15151
0.07531,0.15162
0.07548,0.15220
0.07634,0.15254
0.07688,0.15620
0.07709,0.15540
0.07664,0.15322
0.07633,0.15256
0.07675,0.15296
0.07678,0.15527
0.07723,0.15628
0.07709,0.15529
0.07622,0.15400
0.07623,0.15411
0.07675,0.15563
0.07715,0.15553
0.07771,0.15680
0.07803,0.15930
0.07678,0.15494
0.07663,0.15415
0.07700,0.15468
0.07701,0.15484
0.07725,0.15768
0.07720,0.15692
0.07633,0.15426
0.07610,0.15300
0.07680,0.15399
0.07642,0.15553
0.07680,0.15511
0.07693,0.15492
0.07654,0.15446
0.07642,0.15228
0.07567,0.15257
0.07582,0.15234
0.07673,0.15380
0.07699,0.15606
0.07621,0.15310
0.07559,0.15158
0.07595,0.15172
0.07656,0.15282
0.07674,0.15444
0.07714,0.15389
0.07631,0.15293
0.07532,0.15177
0.07522,0.15102
0.07528,0.15150
0.07559,0.15070
0.07617,0.15350
0.07594,0.15425
0.07476,0.14903
0.07448,0.14872
0.07463,0.14888
0.07469,0.14978
0.07489,0.15140
0.07527,0.15117
0.07466,0.15100
0.07439,0.14940
0.07441,0.14881
0.07432,0.15033
0.07490,0.15058
0.07553,0.15336
0.07581,0.15391
0.07528,0.15155
0.07433,0.15089
0.07481,0.15116
0.07529,0.15268
0.07570,0.15314
0.07629,0.15337
0.07619,0.15602
0.07568,0.15334
0.07552,0.15179
0.07574,0.15300
0.07591,0.15343
0.07613,0.15597
0.07645,0.15674
0.07610,0.15455
0.07531,0.15243
0.07530,0.15294
0.07568,0.15337
0.07597,0.15334
0.07673,0.15523
0.07725,0.15744
0.07542,0.15410
0.07524,0.15215
0.07579,0.15297
0.07582,0.15446
0.07646,0.15592
0.07702,0.15710
0.07671,0.15554
0.07600,0.15411
0.07579,0.15478
0.07614,0.15429
0.07636,0.15527
0.07668,0.15757
0.07674,0.15863
0.07615,0.15694
0.07615,0.15477
0.07660,0.15639
0.07695,0.15779
0.07738,0.15761
0.07804,0.15978
0.07723,0.15676
0.07637,0.15557
0.07629,0.15644
0.07628,0.15501
0.07641,0.15696
0.07771,0.15913
0.07772,0.15833
0.07637,0.15558
0.07663,0.15473
0.07669,0.15733
0.07707,0.15774
0.07759,0.15807
0.07722,0.15988
0.07632,0.15626
0.07641,0.15661
0.07693,0.15732
0.07724,0.15711
0.07754,0.16015
0.07737,0.15940
0.07670,0.15718
0.07647,0.15637
0.07684,0.15737
0.07677,0.15951
0.07717,0.16056
0.07714,0.15872
0.07651,0.15668
0.07640,0.15748
0.07678,0.15778
0.07699,0.15760
0.07754,0.15971
0.07775,0.16165
0.07617,0.15784
0.07589,0.15530
0.07618,0.15631
0.07630,0.15804
0.07693,0.15886
0.07778,0.16041
0.07689,0.15720
0.07596,0.15532
0.07618,0.15693
0.07623,0.15584
0.07645,0.15717
0.07688,0.15876
0.07644,0.15778
0.07532,0.15504
0.07568,0.15365
0.07609,0.15547
0.07644,0.15631
0.07636,0.15506
0.07525,0.15415
0.07485,0.15147
0.07471,0.15165
0.07464,0.15155
0.07465,0.14979
0.07436,0.15218
0.07432,0.14938
0.07377,0.14677
0.07312,0.14649
0.07323,0.14525
0.07302,0.14776
0.07365,0.14844
0.07346,0.14674
0.07217,0.14496
0.07244,0.14355
0.07266,0.14502
0.07280,0.14461
0.07332,0.14435
0.07367,0.14690
0.07289,0.14468
0.07243,0.14344
0.07225,0.14272
0.07210,0.14241
0.07245,0.14516
0.07280,0.14486
0.07255,0.14361
0.07242,0.14334
0.07284,0.14391
0.07297,0.14552
0.07375,0.14566
0.07464,0.14805
0.07490,0.15164
0.07474,0.15077
0.07455,0.14875
0.07485,0.14881
0.07535,0.15077
0.07570,0.15277
0.07631,0.15337
