0.46881,0.47305
0.46926,0.47364
0.47006,0.47494
0.46909,0.47377
0.46727,0.47135
0.46714,0.47128
0.46706,0.47113
0.46709,0.47137
0.46783,0.47273
0.46841,0.47367
0.46717,0.47190
0.46584,0.47004
0.46513,0.46913
0.46496,0.46904
0.46527,0.46966
0.46585,0.47050
0.46681,0.47203
0.46633,0.47159
0.46446,0.46891
0.46427,0.46847
0.46412,0.46826
0.46404,0.46834
0.46478,0.46951
0.46583,0.47091
0.46555,0.47057
0.46438,0.46905
0.46377,0.46821
0.46405,0.46854
0.46434,0.46902
0.46504,0.47011
0.46556,0.47092
0.46496,0.47012
0.46372,0.46835
0.46368,0.46833
0.46370,0.46864
0.46393,0.46910
0.46485,0.47041
0.46568,0.47183
0.46513,0.47099
0.46397,0.46949
0.46302,0.46848
0.46264,0.46808
0.46296,0.46869
0.46280,0.46885
0.46326,0.46968
0.46382,0.47045
0.46262,0.46899
0.46153,0.46758
0.46130,0.46739
0.46171,0.46803
0.46235,0.46890
0.46300,0.46994
0.46333,0.47053
0.46257,0.46955
0.46160,0.46822
0.46173,0.46839
0.46192,0.46877
0.46251,0.46970
0.46348,0.47109
0.46360,0.47121
0.46210,0.46905
0.46158,0.46835
0.46164,0.46840
0.46176,0.46857
0.46234,0.46952
0.46333,0.47091
0.46440,0.47251
0.46406,0.47204
0.46254,0.46969
0.46185,0.46859
0.46174,0.46852
0.46193,0.46888
0.46241,0.46956
0.46320,0.47073
0.46399,0.47196
0.46367,0.47150
0.46272,0.46995
0.46197,0.46878
0.46167,0.46854
0.46204,0.46894
0.46260,0.46976
0.46353,0.47129
0.46407,0.47210
0.46276,0.46998
0.46206,0.46898
0.46197,0.46883
0.46197,0.46872
0.46250,0.46955
0.46354,0.47108
0.46308,0.47030
0.46184,0.46838
0.46127,0.46757
0.46123,0.46754
0.46175,0.46807
0.46249,0.46890
0.46348,0.47033
0.46408,0.47124
0.46268,0.46894
0.46156,0.46710
0.46126,0.46654
0.46126,0.46647
0.46165,0.46700
0.46230,0.46779
0.46323,0.46908
0.46302,0.46863
0.46143,0.46599
0.46091,0.46523
0.46072,0.46490
0.46093,0.46503
0.46164,0.46584
0.46243,0.46676
0.46311,0.46769
0.46201,0.46603
0.46060,0.46373
0.46048,0.46337
0.46045,0.46338
0.46084,0.46376
0.46190,0.46511
0.46242,0.46571
0.46140,0.46391
0.46046,0.46257
0.46048,0.46237
0.46083,0.46268
0.46124,0.46331
0.46222,0.46440
0.46254,0.46463
0.46138,0.46303
0.46024,0.46141
0.46050,0.46152
0.46072,0.46174
0.46120,0.46234
0.46220,0.46367
0.46290,0.46459
0.46229,0.46361
0.46107,0.46183
0.46039,0.46086
0.46044,0.46089
0.46079,0.46126
0.46132,0.46194
0.46196,0.46287
0.46254,0.46367
0.46234,0.46323
0.46114,0.46140
0.46068,0.46083
0.46080,0.46099
0.46114,0.46143
0.46188,0.46258
0.46274,0.46388
0.46171,0.46222
0.46061,0.46058
0.46041,0.46041
0.46035,0.46033
0.46106,0.46130
0.46174,0.46234
0.46272,0.46385
0.46341,0.46483
0.46216,0.46295
0.46109,0.46150
0.46068,0.46092
0.46060,0.46080
0.46083,0.46128
0.46159,0.46236
0.46245,0.46361
0.46289,0.46424
0.46226,0.46335
0.46075,0.46133
0.46034,0.46095
0.46018,0.46090
0.46036,0.46132
0.46141,0.46290
0.46232,0.46413
0.46317,0.46551
0.46234,0.46448
0.46063,0.46207
0.46044,0.46193
0.46024,0.46180
0.46045,0.46221
0.46135,0.46365
0.46222,0.46506
0.46213,0.46497
0.46096,0.46339
0.46013,0.46233
0.46012,0.46242
0.46028,0.46276
0.46067,0.46350
0.46183,0.46527
0.46159,0.46493
0.45986,0.46246
0.45970,0.46238
0.45958,0.46223
0.45972,0.46261
0.46058,0.46400
0.46164,0.46539
0.46192,0.46588
0.46077,0.46419
0.45953,0.46235
0.45922,0.46190
0.45932,0.46194
0.45974,0.46255
0.46065,0.46389
0.46136,0.46488
0.46097,0.46418
0.45973,0.46214
0.45902,0.46116
0.45903,0.46119
0.45931,0.46149
0.45980,0.46227
0.46073,0.46353
0.46045,0.46300
0.45920,0.46111
0.45846,0.45995
0.45861,0.45997
0.45883,0.46023
0.45942,0.46102
0.46021,0.46195
0.46008,0.46157
0.45875,0.45966
0.45825,0.45886
0.45840,0.45899
0.45858,0.45915
0.45939,0.45997
0.45977,0.46059
0.45877,0.45916
0.45752,0.45718
0.45737,0.45684
0.45734,0.45675
0.45781,0.45717
0.45864,0.45827
0.45920,0.45910
0.45898,0.45840
0.45765,0.45644
0.45673,0.45506
0.45663,0.45475
0.45680,0.45490
0.45730,0.45547
0.45789,0.45624
0.45879,0.45735
0.45884,0.45719
0.45717,0.45474
0.45665,0.45379
0.45652,0.45347
0.45657,0.45347
0.45717,0.45418
0.45795,0.45505
0.45900,0.45655
0.45856,0.45576
0.45715,0.45346
0.45675,0.45291
0.45667,0.45269
0.45701,0.45311
0.45770,0.45404
0.45875,0.45538
0.45982,0.45676
0.45892,0.45548
0.45777,0.45381
0.45752,0.45339
0.45772,0.45364
0.45831,0.45426
0.45896,0.45516
0.45993,0.45669
0.46021,0.45717
0.45869,0.45492
0.45822,0.45411
0.45817,0.45416
0.45837,0.45461
0.45927,0.45577
0.46015,0.45692
0.46119,0.45857
0.46130,0.45882
0.46023,0.45722
0.45919,0.45585
0.45891,0.45544
0.45911,0.45579
0.45958,0.45659
0.46033,0.45773
0.46116,0.45899
0.46158,0.45939
0.46062,0.45801
0.45923,0.45628
0.45909,0.45613
0.45938,0.45649
0.45963,0.45707
0.46037,0.45830
0.46113,0.45923
0.46048,0.45807
0.45942,0.45665
0.45885,0.45606
0.45903,0.45636
0.45968,0.45716
0.46042,0.45822
0.46167,0.45998
0.46163,0.45985
0.46014,0.45771
0.45951,0.45687
0.45955,0.45688
0.45992,0.45739
0.46068,0.45848
0.46152,0.45963
0.46146,0.45945
0.46039,0.45788
0.45970,0.45691
0.45991,0.45729
0.46035,0.45794
0.46102,0.45873
0.46210,0.46034
0.46233,0.46061
0.46111,0.45858
0.46008,0.45729
0.45986,0.45700
0.46011,0.45734
0.46051,0.45801
0.46123,0.45903
0.46221,0.46040
0.46206,0.46007
0.46112,0.45854
0.46035,0.45742
0.45996,0.45707
0.46035,0.45746
0.46071,0.45800
0.46123,0.45897
0.46205,0.46009
0.46160,0.45929
0.46043,0.45770
0.45971,0.45676
0.45971,0.45675
0.45988,0.45715
0.46034,0.45783
0.46119,0.45910
0.46181,0.46001
0.46141,0.45933
0.46019,0.45766
0.45961,0.45692
0.45966,0.45709
0.45986,0.45752
0.46037,0.45843
0.46136,0.45993
0.46063,0.45883
0.45929,0.45689
0.45897,0.45660
0.45865,0.45630
0.45895,0.45677
0.45969,0.45788
0.46032,0.45880
0.46015,0.45850
0.45858,0.45645
0.45780,0.45554
0.45793,0.45572
0.45816,0.45597
0.45869,0.45683
0.45947,0.45810
0.46034,0.45934
0.46008,0.45888
0.45845,0.45654
0.45775,0.45560
0.45764,0.45554
0.45791,0.45593
0.45849,0.45673
0.45922,0.45787
0.46029,0.45950
0.45978,0.45883
0.45837,0.45680
0.45787,0.45601
0.45784,0.45590
0.45817,0.45644
0.45868,0.45733
0.45963,0.45875
0.46068,0.46013
0.45974,0.45875
0.45868,0.45725
0.45849,0.45693
0.45871,0.45720
0.45920,0.45799
0.45995,0.45905
0.46066,0.46004
0.46038,0.45963
0.45914,0.45781
0.45913,0.45780
0.45947,0.45821
0.45969,0.45859
0.46037,0.45967
0.46132,0.46066
0.46017,0.45894
0.45920,0.45765
0.45938,0.45784
0.45964,0.45803
0.46024,0.45889
0.46102,0.46007
0.46157,0.46076
0.46121,0.46003
0.45992,0.45804
0.45946,0.45726
0.45952,0.45728
0.45969,0.45753
0.46017,0.45825
0.46094,0.45923
0.46086,0.45899
0.46004,0.45753
0.45927,0.45624
0.45904,0.45605
0.45924,0.45615
0.45955,0.45656
0.46041,0.45781
0.46097,0.45845
0.45949,0.45625
0.45909,0.45545
0.45929,0.45541
0.45914,0.45509
0.45939,0.45556
0.46022,0.45663
0.45866,0.45472
0.45711,0.45259
0.45740,0.45257
0.45658,0.45159
0.45484,0.44970
0.45394,0.44890
0.45401,0.44887
0.45362,0.44771
0.45232,0.44555
0.45157,0.44425
0.45169,0.44417
0.45138,0.44382
0.45026,0.44254
0.45065,0.44247
0.44824,0.43893
0.44554,0.43519
0.44580,0.43513
0.44389,0.43283
0.44151,0.43026
0.44011,0.42891
0.43858,0.42712
0.43584,0.42347
0.43384,0.42083
0.43189,0.41849
0.42993,0.41634
0.42818,0.41466
0.42623,0.41277
0.42504,0.41095
0.42273,0.40774
0.41972,0.40412
0.41786,0.40197
0.41541,0.39941
0.41312,0.39700
0.41156,0.39522
0.40992,0.39311
0.40737,0.38978
0.40518,0.38725
0.40326,0.38518
0.40153,0.38339
0.40056,0.38254
0.40043,0.38222
0.39894,0.38018
0.39743,0.37822
0.39677,0.37749
0.39538,0.37624
0.39389,0.37489
0.39357,0.37451
0.39324,0.37378
0.39177,0.37183
0.39068,0.37073
0.38976,0.36986
0.38901,0.36917
0.38868,0.36920
0.38871,0.36973
0.38843,0.36901
0.38706,0.36713
0.38581,0.36577
0.38546,0.36550
0.38472,0.36502
0.38442,0.36507
0.38466,0.36585
0.38523,0.36682
0.38559,0.36696
0.38465,0.36564
0.38400,0.36493
0.38350,0.36466
0.38291,0.36432
0.38314,0.36491
0.38352,0.36593
0.38444,0.36744
0.38465,0.36767
0.38333,0.36596
0.38301,0.36577
0.38311,0.36614
0.38333,0.36680
0.38412,0.36832
0.38530,0.37009
0.38534,0.36990
0.38445,0.36882
0.38389,0.36841
0.38410,0.36883
0.38434,0.36954
0.38505,0.37090
0.38553,0.37162
0.38487,0.37068
0.38356,0.36901
0.38328,0.36872
0.38335,0.36907
0.38352,0.36961
