0.06368,0.10819
0.06275,0.10724
0.06193,0.10975
0.06211,0.10877
0.06352,0.10612
0.06451,0.10810
0.06204,0.10855
0.06175,0.10778
0.06356,0.10531
0.06407,0.10479
0.06420,0.11201
0.06106,0.10572
0.06095,0.10326
0.06436,0.10953
0.06430,0.10658
0.06283,0.10570
0.06196,0.10722
0.06148,0.10930
0.06131,0.10921
0.06212,0.10517
0.06119,0.10821
0.06066,0.11095
0.06140,0.10759
0.06156,0.10555
0.06138,0.11131
0.06181,0.10743
0.06271,0.10268
0.06231,0.10640
0.06021,0.10657
0.06145,0.10489
0.06237,0.10675
0.06142,0.10858
0.06073,0.10643
0.06015,0.10697
0.06081,0.10652
0.06211,0.10564
0.06239,0.10469
0.06175,0.10313
0.06263,0.10725
0.06103,0.10703
0.06062,0.10348
0.06401,0.10504
0.06344,0.10792
0.06305,0.10243
0.06147,0.10337
0.06008,0.11052
0.06256,0.10681
0.06281,0.10255
0.06190,0.10431
0.06120,0.10641
0.06151,0.10497
0.06327,0.10579
0.06194,0.10668
0.06124,0.10490
0.06231,0.10436
0.06252,0.10744
0.06345,0.10572
0.06214,0.10482
0.06138,0.10715
0.06275,0.10854
0.06235,0.10570
0.06157,0.10364
0.06241,0.10567
0.06318,0.10596
0.06181,0.10259
0.06099,0.10662
0.06360,0.10736
0.06448,0.10412
0.06185,0.10536
0.06143,0.11081
0.06379,0.10482
0.06420,0.10464
0.06315,0.10926
0.06270,0.10663
0.06066,0.10463
0.06025,0.10695
0.06248,0.10839
0.06343,0.10575
0.06118,0.10323
0.06252,0.10569
0.06116,0.10769
0.05991,0.10574
0.06260,0.10471
0.06300,0.10885
0.06185,0.10413
0.06103,0.10206
0.06135,0.10674
0.06198,0.10792
0.06126,0.10670
0.06086,0.10646
0.06164,0.10718
0.06253,0.10726
0.06256,0.10635
0.06317,0.10537
0.06346,0.10861
0.06303,0.10902
0.06249,0.10369
0.06198,0.10780
0.06244,0.10647
0.06145,0.10437
0.06025,0.10564
0.06250,0.10327
0.06284,0.10629
0.06215,0.10656
0.06329,0.10436
0.06470,0.10558
0.06193,0.10577
0.06070,0.10201
0.06185,0.10323
0.06211,0.10777
0.05999,0.10595
0.05874,0.10597
0.06109,0.10538
0.06270,0.10626
0.06089,0.10745
0.06059,0.10223
0.06165,0.10511
0.06028,0.10762
0.06021,0.10494
0.06448,0.10370
0.06258,0.10349
0.06069,0.10649
0.06180,0.10577
0.06322,0.10181
0.06287,0.10535
0.06152,0.10770
0.06055,0.10672
0.06135,0.10339
0.06281,0.10157
0.06140,0.10691
0.06050,0.10730
0.06143,0.10413
0.06195,0.10273
0.06123,0.10306
0.06336,0.10749
0.06166,0.10563
0.05959,0.10250
0.06132,0.10516
0.05921,0.10408
0.06074,0.10582
0.06277,0.10587
0.06257,0.10445
0.06296,0.10710
0.06173,0.10511
0.06015,0.10388
0.06175,0.10306
0.06430,0.10190
0.06120,0.10563
0.05941,0.10687
0.05975,0.10512
0.06112,0.10420
0.06217,0.10551
0.05955,0.10635
0.05978,0.10645
0.06109,0.10445
0.06135,0.10396
0.06355,0.10926
0.06252,0.10760
0.06217,0.10419
0.06297,0.10310
0.06194,0.10320
0.06152,0.10671
0.06241,0.10818
0.06317,0.10640
0.06342,0.10398
0.06350,0.10390
0.06150,0.10772
0.06093,0.10806
0.06177,0.10493
0.06199,0.10478
0.06252,0.10845
0.06189,0.10817
0.06121,0.10577
0.06174,0.10410
0.06245,0.10332
0.06171,0.10640
0.06268,0.10532
0.06309,0.10345
0.06200,0.10574
0.06386,0.10698
0.06327,0.10925
0.06170,0.10752
0.06142,0.10413
0.06214,0.10558
0.06388,0.10671
0.06274,0.10733
0.06112,0.10555
0.06153,0.10300
0.06200,0.10537
0.06373,0.10866
0.06380,0.10681
0.06236,0.10465
0.06198,0.10735
0.06212,0.10717
0.06303,0.10778
0.06262,0.10460
0.06144,0.10048
0.06216,0.10518
0.06201,0.10777
0.06278,0.10738
0.06268,0.10607
0.06096,0.10645
0.06236,0.10989
0.06199,0.10492
0.06029,0.10180
0.06103,0.10429
0.06396,0.10431
0.06318,0.10796
0.06194,0.10467
0.06134,0.10233
0.06126,0.10665
0.06288,0.10406
0.06169,0.10484
0.06241,0.10502
0.06356,0.10386
0.06100,0.10595
0.06268,0.10555
0.06264,0.10441
0.06154,0.10426
0.06274,0.10492
0.06422,0.10582
0.06418,0.10611
0.06159,0.10325
0.06078,0.10168
0.06337,0.10467
0.06168,0.10464
0.06039,0.10440
0.06177,0.10296
0.06316,0.10292
0.06183,0.10761
0.05979,0.10489
0.06043,0.10257
0.06125,0.10339
0.05952,0.10417
0.05924,0.10612
0.06232,0.10362
0.06370,0.10414
0.06234,0.10685
0.06167,0.10284
0.05964,0.10046
0.05999,0.10092
0.06161,0.10363
0.06149,0.10499
0.06066,0.10141
0.05961,0.10385
0.06032,0.10556
0.06183,0.10473
0.06164,0.10585
0.06113,0.10257
0.06085,0.10351
0.06066,0.10518
0.06102,0.10318
0.06215,0.10275
0.06167,0.10213
0.06193,0.10502
0.06202,0.10647
0.06024,0.10228
0.06053,0.10300
0.06222,0.10488
0.06287,0.10750
0.06255,0.10786
0.06280,0.10255
0.06149,0.10381
0.06037,0.10699
0.06134,0.10615
0.06295,0.10205
0.06219,0.09982
0.06212,0.10516
0.06163,0.10689
0.06192,0.10329
0.06342,0.10393
0.05774,0.10352
0.05906,0.10712
0.06350,0.10807
0.06279,0.10420
0.06403,0.10754
0.06223,0.10731
0.06144,0.10502
0.06241,0.10452
0.06206,0.10522
0.06375,0.10720
0.06195,0.10676
0.06101,0.10458
0.06371,0.10462
0.06311,0.10757
0.06044,0.10701
0.06001,0.10339
0.06093,0.10260
0.06025,0.10517
0.06007,0.10302
0.06127,0.10267
0.06144,0.10322
0.06091,0.10365
0.06264,0.10588
0.06362,0.10341
0.06128,0.10352
0.06030,0.10682
0.06335,0.10741
0.06363,0.10521
0.06152,0.10347
0.06212,0.10462
0.06388,0.10693
0.06200,0.10611
0.06187,0.10193
0.06218,0.10271
0.06240,0.10673
0.06189,0.10781
0.05888,0.10640
0.05858,0.10408
0.06064,0.10430
0.06211,0.10569
0.06271,0.10498
0.06480,0.10471
0.06395,0.10324
0.06186,0.10442
0.06132,0.10617
0.06090,0.10175
0.06151,0.10444
0.06073,0.10574
0.06048,0.10613
0.06330,0.10982
0.06421,0.10503
0.06115,0.10463
0.06065,0.10602
0.06267,0.10424
0.06042,0.10353
0.06007,0.10229
0.05943,0.10437
0.06042,0.10684
0.06428,0.10572
0.06374,0.10522
0.06035,0.10485
0.05970,0.10517
0.06142,0.10462
0.06182,0.10320
0.06412,0.10794
0.06269,0.10778
0.06106,0.10362
0.06280,0.10247
0.06217,0.10282
0.06184,0.10511
0.06052,0.10542
0.05987,0.10397
0.06253,0.10494
0.06343,0.10714
0.06128,0.10494
0.05997,0.10192
0.06151,0.10437
0.06248,0.10934
0.06085,0.10544
0.06174,0.10331
0.06429,0.10538
0.06371,0.10490
0.06193,0.10465
0.06162,0.10324
0.06129,0.10373
0.06063,0.10616
0.06167,0.10628
0.06215,0.10633
0.06011,0.10417
0.05878,0.10514
0.06038,0.10869
0.06088,0.10290
0.06071,0.10599
0.06023,0.10830
0.06072,0.10500
0.06268,0.10583
0.06259,0.10358
0.06203,0.10602
0.06170,0.10781
0.06192,0.10432
0.06368,0.10521
0.06372,0.10446
0.06280,0.10688
0.06126,0.10837
0.05982,0.10270
0.06242,0.10368
0.06265,0.10578
0.06008,0.10626
0.05866,0.10520
0.05981,0.10268
0.06202,0.10608
0.05949,0.10619
0.05796,0.10394
0.06289,0.10574
0.06300,0.10476
0.06141,0.10676
0.06160,0.10515
0.06289,0.10206
0.06280,0.10786
0.06099,0.10623
0.06155,0.10241
0.06294,0.10063
0.06205,0.10160
0.06156,0.10752
0.06193,0.10352
0.05992,0.10083
0.05838,0.10424
0.06119,0.10399
0.06008,0.10583
0.06058,0.10350
0.06118,0.10340
0.05951,0.10793
0.06086,0.10431
0.06138,0.10240
0.05990,0.10185
0.05994,0.10338
0.06281,0.10661
0.06257,0.10084
0.06177,0.10269
0.06172,0.10669
0.06107,0.10522
0.05955,0.10668
0.06021,0.10519
0.06207,0.10672
0.06208,0.10869
0.06052,0.10563
0.06186,0.10550
0.06324,0.10421
0.06270,0.10681
0.06108,0.10899
0.06071,0.10197
0.06303,0.10679
0.06232,0.11004
0.06051,0.10749
0.06158,0.10572
0.06170,0.10338
0.06203,0.10919
0.06273,0.10947
0.06221,0.10336
0.06042,0.10532
0.06077,0.10648
0.06149,0.10611
0.06108,0.10344
0.06083,0.10245
0.06240,0.10919
0.06312,0.10692
0.06282,0.10249
0.06132,0.10382
0.05923,0.10684
0.06027,0.10723
0.06234,0.10588
0.06322,0.10664
0.06206,0.10922
0.05979,0.10846
0.06031,0.10489
0.06107,0.10551
0.06262,0.10672
0.06498,0.10380
0.06186,0.10580
0.06029,0.10793
0.06038,0.10910
0.06093,0.10688
0.06264,0.10155
0.06028,0.10930
0.06159,0.10912
0.06352,0.10337
0.06129,0.10724
0.06285,0.11057
0.06293,0.10800
0.06156,0.10631
0.06086,0.10876
0.06134,0.10990
0.06371,0.10731
0.06184,0.10576
0.06071,0.10807
0.06348,0.10896
0.06188,0.10399
0.06101,0.10919
0.06105,0.11000
0.06171,0.10514
0.06260,0.10890
0.05984,0.11179
0.05946,0.10604
0.06212,0.10359
0.06309,0.10919
0.06062,0.10917
0.06036,0.10639
0.06229,0.10722
0.06300,0.10880
0.06217,0.10643
0.06299,0.10550
0.05959,0.10694
0.05885,0.10852
0.06225,0.10750
0.06165,0.10555
0.06334,0.10999
0.06254,0.10728
0.06034,0.10341
0.06124,0.10909
0.06193,0.11109
0.06031,0.10611
0.06206,0.10837
0.06460,0.11327
0.06165,0.10602
0.06298,0.10547
0.06244,0.10906
0.05932,0.11073
