0.39124,0.97924
0.39387,0.98443
0.39211,0.98722
0.39041,0.98687
0.39112,0.98631
0.39247,0.98818
0.38997,0.98550
0.38837,0.97940
0.38999,0.97634
0.39213,0.98081
0.39318,0.98853
0.39610,0.98570
0.39348,0.97654
0.38800,0.97235
0.38986,0.97415
0.39101,0.97238
0.39287,0.97918
0.39522,0.98711
0.39553,0.98348
0.39379,0.97620
0.39128,0.97509
0.39241,0.97929
0.39445,0.98186
0.39325,0.97996
0.39487,0.97965
0.39355,0.98004
0.39336,0.97775
0.39519,0.97810
0.39250,0.98720
0.39612,0.98604
0.39337,0.98209
0.38866,0.98173
0.39269,0.98096
0.39123,0.97974
0.39347,0.98330
0.39504,0.99115
0.39314,0.99416
0.39488,0.98761
0.39518,0.98693
0.39329,0.98726
0.39501,0.98968
0.39877,0.99498
0.39345,0.99110
0.39174,0.98449
0.39282,0.98106
0.39330,0.98007
0.39481,0.98102
0.39469,0.98918
0.39604,0.99086
0.39701,0.98411
0.39595,0.97849
0.39612,0.97866
0.39440,0.97967
0.39362,0.97713
0.39577,0.97953
0.39640,0.98719
0.39078,0.97486
0.39224,0.96870
0.39514,0.97068
0.39153,0.97196
0.38911,0.97690
0.39104,0.97655
0.39214,0.97240
0.39132,0.96955
0.39131,0.96835
0.39119,0.96670
0.39134,0.97340
0.39356,0.97625
0.39475,0.96915
0.39073,0.96502
0.38892,0.96626
0.38923,0.96895
0.39042,0.96751
0.39205,0.96647
0.39227,0.97542
0.39008,0.97000
0.38983,0.96021
0.39072,0.95841
0.38864,0.95946
0.38884,0.96332
0.39056,0.96542
0.39103,0.96815
0.38974,0.97001
0.38814,0.96298
0.38546,0.96031
0.38642,0.95932
0.38817,0.96079
0.38683,0.96789
0.39102,0.96820
0.39031,0.96472
0.38825,0.96108
0.38904,0.96011
0.38705,0.96261
0.38961,0.96045
0.39056,0.96683
0.38934,0.97483
0.39074,0.97042
0.39138,0.96769
0.39047,0.96563
0.39042,0.96842
0.39183,0.97303
0.39235,0.97122
0.39165,0.97456
0.39142,0.97414
0.39079,0.97255
0.38876,0.97543
0.38858,0.97402
0.39355,0.97715
0.39153,0.98216
0.38726,0.98138
0.39439,0.97558
0.39429,0.97448
0.39239,0.97534
0.39162,0.97537
0.39075,0.97556
0.39273,0.97836
0.39528,0.98550
0.39494,0.98611
0.39278,0.97796
0.39114,0.97207
0.38858,0.97410
0.39174,0.97083
0.39281,0.97325
0.38987,0.98517
0.39320,0.98609
0.39096,0.98043
0.38892,0.97448
0.38839,0.97286
0.38651,0.97367
0.38964,0.96991
0.39055,0.97451
0.39181,0.97936
0.39329,0.97807
0.39004,0.97722
0.39149,0.97077
0.38965,0.96918
0.38719,0.97026
0.38965,0.96952
0.38949,0.97512
0.39256,0.97150
0.39287,0.96491
0.38884,0.96471
0.38787,0.96803
0.38868,0.97020
0.38864,0.96659
0.38946,0.97020
0.39135,0.97862
0.39036,0.96679
0.38919,0.95888
0.38647,0.96117
0.38605,0.96761
0.39147,0.97235
0.39333,0.97150
0.39167,0.97244
0.38934,0.97200
0.38724,0.96513
0.38584,0.95741
0.38894,0.95703
0.38909,0.95877
0.38759,0.96159
0.39020,0.96562
0.39140,0.96291
0.39026,0.96312
0.38722,0.96144
0.38552,0.95663
0.38806,0.95786
0.38937,0.95989
0.38876,0.96503
0.38929,0.96849
0.38996,0.96457
0.38625,0.95954
0.38840,0.95922
0.38827,0.95999
0.38494,0.96131
0.38799,0.96697
0.38927,0.97200
0.38817,0.96950
0.38775,0.96450
0.38829,0.96477
0.38749,0.96756
0.38810,0.96553
0.38905,0.96957
0.39012,0.97765
0.39107,0.97619
0.38827,0.96979
0.38732,0.96464
0.38825,0.96526
0.38794,0.96788
0.38751,0.96560
0.39048,0.96716
0.39001,0.97076
0.38893,0.97422
0.39186,0.97386
0.38910,0.96303
0.38610,0.96100
0.38724,0.96400
0.38976,0.96361
0.38934,0.96490
0.38907,0.96906
0.38938,0.96727
0.38956,0.96395
0.38886,0.96497
0.38690,0.96213
0.38579,0.96054
0.38740,0.96069
0.39103,0.96403
0.39249,0.97017
0.38755,0.96698
0.38529,0.96101
0.38561,0.95818
0.38564,0.95872
0.38875,0.96180
0.38923,0.96529
0.38941,0.96463
0.38905,0.95951
0.38619,0.95559
0.38645,0.95743
0.38553,0.95797
0.38551,0.95914
0.38818,0.95954
0.38895,0.95363
0.38819,0.95827
0.38639,0.95812
0.38572,0.95206
0.38626,0.95138
0.38422,0.94875
0.38584,0.95008
0.38725,0.95728
0.38579,0.96117
0.38581,0.95452
0.38560,0.95079
0.38810,0.94794
0.38699,0.94687
0.38046,0.94871
0.38218,0.94642
0.38635,0.94545
0.38773,0.95451
0.38763,0.96078
0.38862,0.95204
0.38790,0.95685
0.38766,0.95503
0.39199,0.95320
0.39725,0.96263
0.39399,0.96476
0.38894,0.96489
0.38796,0.96409
0.38857,0.96316
0.38746,0.96628
0.38909,0.97421
0.38750,0.97806
0.38736,0.97790
0.38947,0.97556
0.38570,0.97133
0.38619,0.97711
0.38794,0.97844
0.38860,0.97498
0.38908,0.97899
0.38697,0.98500
0.38747,0.98467
0.38806,0.97568
0.38552,0.96606
0.38229,0.96642
0.38013,0.97227
0.37725,0.96808
0.37582,0.96713
0.37710,0.97758
0.37599,0.97346
0.37269,0.97168
0.37111,0.97045
0.37058,0.96248
0.36894,0.95558
0.37121,0.96189
0.37020,0.96067
0.36759,0.95366
0.36715,0.95304
0.36563,0.95438
0.36793,0.95887
0.36668,0.96347
0.36429,0.96269
0.36739,0.95531
0.36491,0.94921
0.36361,0.95359
0.36333,0.95731
0.36343,0.95468
0.36757,0.95500
0.36635,0.94771
0.36366,0.94486
0.36159,0.94799
0.35976,0.94599
0.36267,0.94123
0.36370,0.94712
0.36318,0.95135
0.36278,0.94648
0.36103,0.94272
0.36026,0.93716
0.35921,0.94237
0.35871,0.94859
0.36061,0.94462
0.36259,0.94461
0.35928,0.93869
0.35717,0.93842
0.35873,0.94077
0.35868,0.93156
0.35854,0.93270
0.35872,0.94055
0.35786,0.94396
0.35727,0.93961
0.35948,0.93372
0.35716,0.93376
0.35375,0.93958
0.35459,0.94142
0.35810,0.93521
0.35825,0.93478
0.35590,0.93452
0.35542,0.93233
0.35796,0.93179
0.35910,0.93387
0.35561,0.93573
0.35575,0.94325
0.35957,0.94562
0.35977,0.93548
0.35641,0.93468
0.35349,0.93467
0.35370,0.93548
0.35624,0.93564
0.35851,0.93193
0.35958,0.94149
0.35680,0.94179
0.35397,0.93302
0.35497,0.93338
0.35571,0.93947
0.35494,0.93981
0.35601,0.93786
0.35767,0.93767
0.35632,0.93698
0.35638,0.93698
0.35440,0.93639
0.35326,0.93334
0.35525,0.93216
0.35550,0.93894
0.35744,0.94085
0.35821,0.93792
0.35839,0.93847
0.35962,0.94192
0.35568,0.93531
0.35426,0.93237
0.35535,0.93246
0.35628,0.93394
0.35780,0.94282
0.35487,0.94263
0.35351,0.93705
0.35475,0.93613
0.35437,0.93948
0.35421,0.93740
0.35625,0.93415
0.35928,0.93899
0.35985,0.94765
0.35652,0.94677
0.35395,0.94104
0.35497,0.93635
0.35553,0.93820
0.35346,0.94176
0.35403,0.93574
0.35391,0.94001
0.35576,0.94666
0.35729,0.94423
0.35423,0.93696
0.35551,0.93091
0.35393,0.93347
0.35240,0.93696
0.35550,0.93708
0.35649,0.94209
0.35592,0.93957
0.35594,0.93677
0.35572,0.93748
0.35511,0.93703
0.35804,0.93963
0.35642,0.94307
0.35552,0.94675
0.35808,0.94800
0.35509,0.94228
0.35205,0.93669
0.35361,0.94333
0.35520,0.94718
0.35374,0.93719
0.35645,0.94019
0.35584,0.93912
0.35521,0.93935
0.35584,0.94116
0.35278,0.93173
0.35396,0.93221
0.35780,0.93712
0.35780,0.93863
0.35410,0.93535
0.35440,0.92857
0.35396,0.93106
0.35422,0.93582
0.35567,0.93669
0.35530,0.93614
0.35432,0.93025
0.35079,0.92908
0.35115,0.92989
0.35499,0.92718
0.35144,0.92704
0.35466,0.92908
0.35726,0.93292
0.35557,0.93558
0.35539,0.93242
0.35311,0.92486
0.35332,0.92656
0.35492,0.93274
0.35531,0.93425
0.35519,0.93276
0.35228,0.92817
0.35213,0.92961
0.35352,0.93199
0.35309,0.92886
0.35596,0.93236
0.35563,0.93104
0.35487,0.93043
0.35626,0.93344
0.35634,0.93012
0.35693,0.92526
0.35712,0.92695
0.35675,0.93522
0.35656,0.94087
0.35643,0.93496
0.35682,0.92551
0.35430,0.92814
0.35156,0.93337
0.35342,0.92648
0.35342,0.93414
0.35736,0.93925
0.36131,0.93973
0.35978,0.94159
0.35896,0.93536
0.36252,0.92587
0.36466,0.92846
0.36464,0.93879
0.36604,0.94002
0.36523,0.93462
0.36499,0.92942
0.36681,0.93308
0.36785,0.94216
0.36615,0.94302
0.36818,0.93962
0.36919,0.93747
0.36663,0.93822
0.36442,0.93735
0.36515,0.93042
0.36620,0.93463
0.36739,0.94110
0.36636,0.93904
0.36141,0.93531
0.36192,0.93333
0.36230,0.93303
0.36128,0.93551
0.36196,0.94059
0.36224,0.94226
0.36230,0.93349
0.36335,0.92636
0.36394,0.93019
0.36169,0.93601
0.35917,0.93072
0.36027,0.93271
0.36264,0.93654
0.36339,0.93342
0.36360,0.93447
0.36051,0.92571
0.35989,0.92293
0.36201,0.93074
0.36201,0.93431
0.36187,0.93228
0.35836,0.92687
0.36100,0.92608
0.36674,0.93131
0.36027,0.93477
0.36395,0.93742
0.36652,0.93549
0.36431,0.93278
0.36557,0.93638
0.36449,0.94214
0.36176,0.94093
0.36126,0.93861
0.36348,0.94167
0.36471,0.94625
0.36367,0.94720
0.36400,0.94003
0.36216,0.93552
0.35811,0.93984
0.36181,0.93937
0.36272,0.93991
0.36277,0.94215
0.36410,0.94216
0.36358,0.93970
0.36473,0.93897
0.36352,0.93343
0.36258,0.93210
0.36448,0.94223
0.36206,0.94873
