0.17218,0.19177
0.17171,0.19126
0.17127,0.19075
0.17084,0.19032
0.17071,0.19025
0.17109,0.19061
0.17128,0.19069
0.17155,0.19101
0.17170,0.19123
0.17156,0.19105
0.17176,0.19134
0.17163,0.19117
0.17162,0.19115
0.17135,0.19098
0.17007,0.18965
0.16949,0.18901
0.16965,0.18917
0.16964,0.18915
0.16919,0.18864
0.16909,0.18856
0.16944,0.18893
0.16964,0.18912
0.16962,0.18909
0.16973,0.18924
0.16995,0.18939
0.17028,0.18970
0.17075,0.19019
0.17086,0.19035
0.17015,0.18965
0.16964,0.18894
0.16933,0.18874
0.16948,0.18921
0.16976,0.18948
0.16866,0.18817
0.16858,0.18802
0.16892,0.18822
0.16866,0.18768
0.16870,0.18768
0.16935,0.18832
0.16975,0.18864
0.16951,0.18835
0.16934,0.18824
0.17000,0.18890
0.16985,0.18881
0.16971,0.18882
0.17019,0.18945
0.17040,0.18978
0.17014,0.18953
0.16899,0.18823
0.16859,0.18777
0.16920,0.18849
0.16825,0.18752
0.16721,0.18643
0.16712,0.18616
0.16735,0.18613
0.16718,0.18589
0.16749,0.18619
0.16775,0.18640
0.16733,0.18601
0.16693,0.18565
0.16746,0.18610
0.16723,0.18583
0.16700,0.18573
0.16736,0.18620
0.16778,0.18663
0.16806,0.18695
0.16812,0.18704
0.16847,0.18740
0.16885,0.18778
0.16848,0.18739
0.16817,0.18714
0.16797,0.18700
0.16771,0.18669
0.16754,0.18645
0.16783,0.18686
0.16859,0.18749
0.16870,0.18749
0.16851,0.18742
0.16903,0.18803
0.16875,0.18769
0.16865,0.18752
0.16893,0.18779
0.16901,0.18789
0.16903,0.18794
0.16928,0.18819
0.16952,0.18838
0.16944,0.18830
0.16922,0.18818
0.16943,0.18841
0.16990,0.18888
0.16985,0.18895
0.16998,0.18921
0.17135,0.19052
0.17064,0.18984
0.16952,0.18877
0.16957,0.18881
0.16977,0.18899
0.16905,0.18824
0.16919,0.18831
0.16949,0.18858
0.16930,0.18842
0.16958,0.18867
0.16974,0.18889
0.16964,0.18883
0.16958,0.18869
0.16973,0.18877
0.16970,0.18888
0.16918,0.18844
0.16950,0.18861
0.16999,0.18888
0.16905,0.18788
0.16881,0.18770
0.16849,0.18744
0.16817,0.18715
0.16828,0.18731
0.16821,0.18729
0.16858,0.18765
0.16879,0.18782
0.16871,0.18773
0.16877,0.18780
0.16857,0.18758
0.16854,0.18756
0.16849,0.18750
0.16822,0.18714
0.16809,0.18697
0.16817,0.18711
0.16843,0.18741
0.16884,0.18779
0.16924,0.18815
0.16947,0.18833
0.16962,0.18845
0.16971,0.18860
0.16984,0.18875
0.17020,0.18899
0.17055,0.18945
0.17068,0.18957
0.17061,0.18945
0.17044,0.18941
0.17033,0.18936
0.17088,0.18997
0.17111,0.19022
0.17087,0.19004
0.17105,0.19033
0.17092,0.19015
0.17046,0.18962
0.17007,0.18921
0.16984,0.18895
0.16950,0.18858
0.16929,0.18829
0.16911,0.18807
0.16891,0.18780
0.16869,0.18745
0.16828,0.18715
0.16810,0.18706
0.16822,0.18714
0.16822,0.18709
0.16782,0.18672
0.16774,0.18668
0.16804,0.18706
0.16873,0.18781
0.16944,0.18849
0.16916,0.18816
0.16894,0.18785
0.16879,0.18759
0.16879,0.18760
0.16943,0.18837
0.16963,0.18847
0.16955,0.18845
0.16976,0.18880
0.17025,0.18921
0.17049,0.18944
0.17067,0.18968
0.17104,0.19000
0.17129,0.19019
0.17119,0.19014
0.17147,0.19036
0.17158,0.19048
0.17150,0.19045
0.17164,0.19060
0.17182,0.19086
0.17157,0.19065
0.17168,0.19074
0.17207,0.19112
0.17189,0.19098
0.17155,0.19060
0.17131,0.19044
0.17105,0.19015
0.17083,0.18981
0.17100,0.19009
0.17123,0.19030
0.17149,0.19045
0.17152,0.19042
0.17113,0.19001
0.17076,0.18963
0.17052,0.18930
0.17031,0.18910
0.17026,0.18914
0.17050,0.18931
0.17059,0.18935
0.17076,0.18952
0.17102,0.18982
0.17124,0.19011
0.17154,0.19046
0.17147,0.19037
0.17133,0.19021
0.17127,0.19014
0.17109,0.18992
0.17098,0.18986
0.17060,0.18944
0.17042,0.18918
0.17046,0.18918
0.16981,0.18841
0.16974,0.18829
0.16994,0.18854
0.17011,0.18877
0.17043,0.18912
0.17047,0.18930
0.17066,0.18940
0.17091,0.18959
0.17109,0.18987
0.17132,0.19007
0.17104,0.18982
0.17092,0.18968
0.17097,0.18963
0.17066,0.18926
0.17022,0.18880
0.16960,0.18820
0.16928,0.18799
0.16962,0.18848
0.17031,0.18920
0.17066,0.18955
0.16990,0.18880
0.16972,0.18860
0.17094,0.18977
0.17111,0.18995
0.17127,0.19014
0.17155,0.19050
0.17157,0.19061
0.17148,0.19049
0.17143,0.19037
0.17113,0.19005
0.17076,0.18972
0.17071,0.18968
0.17088,0.18982
0.17087,0.18978
0.17058,0.18952
0.17089,0.18995
0.17200,0.19123
0.17211,0.19139
0.17259,0.19197
0.17351,0.19304
0.17412,0.19372
0.17437,0.19397
0.17422,0.19389
0.17465,0.19427
0.17549,0.19513
0.17526,0.19515
0.17350,0.19351
0.17341,0.19350
0.17452,0.19469
0.17502,0.19519
0.17492,0.19504
0.17502,0.19530
0.17536,0.19564
0.17557,0.19572
0.17550,0.19563
0.17537,0.19542
0.17534,0.19547
0.17618,0.19643
0.17689,0.19719
0.17647,0.19678
0.17747,0.19782
0.17736,0.19774
0.17749,0.19791
0.17861,0.19907
0.17745,0.19785
0.17785,0.19825
0.17803,0.19847
0.17786,0.19836
0.17888,0.19939
0.17809,0.19844
0.17790,0.19811
0.17743,0.19745
0.17630,0.19601
0.17693,0.19642
0.17692,0.19617
0.17657,0.19568
0.17674,0.19585
0.17690,0.19601
0.17617,0.19516
0.17596,0.19473
0.17543,0.19405
0.17475,0.19335
0.17522,0.19390
0.17453,0.19325
0.17479,0.19349
0.17548,0.19425
0.17515,0.19400
0.17560,0.19430
0.17645,0.19513
0.17691,0.19558
0.17698,0.19562
0.17713,0.19589
0.17709,0.19597
0.17711,0.19595
0.17704,0.19599
0.17679,0.19596
0.17678,0.19585
0.17709,0.19621
0.17692,0.19617
0.17652,0.19582
0.17669,0.19599
0.17664,0.19592
0.17628,0.19547
0.17587,0.19490
0.17593,0.19484
0.17642,0.19530
0.17586,0.19458
0.17636,0.19483
0.17575,0.19415
0.17182,0.19021
0.16954,0.18735
0.16757,0.18518
0.16607,0.18372
0.16548,0.18306
0.16473,0.18234
0.16355,0.18123
0.16177,0.17943
0.16151,0.17919
0.16277,0.18050
0.16098,0.17841
0.15726,0.17437
0.15351,0.17041
0.15182,0.16887
0.15255,0.16976
0.15293,0.16862
0.15706,0.17249
0.15979,0.17603
0.15806,0.17380
0.15964,0.17358
0.16073,0.17380
0.15892,0.17149
0.15646,0.16849
0.15591,0.16786
0.15548,0.16728
0.15531,0.16710
0.15534,0.16714
0.15537,0.16711
0.15558,0.16739
0.15565,0.16729
0.15549,0.16712
0.15506,0.16683
0.15482,0.16652
0.15543,0.16707
0.15512,0.16677
0.15437,0.16598
0.15424,0.16577
0.15446,0.16600
0.15470,0.16623
0.15457,0.16606
0.15472,0.16618
0.15547,0.16700
0.15575,0.16734
0.15562,0.16724
0.15661,0.16825
0.15736,0.16881
0.15610,0.16711
0.15659,0.16741
0.15497,0.16548
0.15401,0.16446
0.15660,0.16710
0.15744,0.16706
0.15500,0.16436
0.15304,0.16233
0.15273,0.16178
0.15222,0.16134
0.15219,0.16127
0.15204,0.16111
0.15155,0.16062
0.15155,0.16062
0.15256,0.16175
0.15274,0.16206
0.15296,0.16226
0.15425,0.16352
0.15563,0.16490
0.15504,0.16415
0.15374,0.16292
0.15272,0.16196
0.15232,0.16141
0.15235,0.16135
0.15181,0.16066
0.15155,0.16024
0.15215,0.16086
0.15294,0.16181
0.15294,0.16178
0.15255,0.16125
0.15254,0.16125
0.15300,0.16180
0.15333,0.16212
0.15347,0.16233
0.15423,0.16301
0.15526,0.16391
0.15586,0.16450
0.15625,0.16483
0.15655,0.16504
0.15635,0.16466
0.15607,0.16424
0.15618,0.16442
0.15577,0.16396
0.15532,0.16335
0.15428,0.16228
0.15314,0.16130
0.15368,0.16184
0.15411,0.16218
0.15381,0.16192
0.15344,0.16166
0.15345,0.16165
0.15335,0.16155
0.15366,0.16194
0.15451,0.16283
0.15508,0.16330
0.15497,0.16306
0.15592,0.16405
0.15608,0.16411
0.15576,0.16371
0.15614,0.16418
0.15577,0.16364
0.15468,0.16239
0.15428,0.16196
0.15396,0.16168
0.15250,0.16024
0.15271,0.16059
0.15497,0.16281
0.15691,0.16466
0.15571,0.16340
0.15233,0.15990
0.15426,0.16201
0.15438,0.16218
0.15132,0.15898
0.15161,0.15943
0.15302,0.16112
0.15260,0.16064
0.15325,0.16122
0.15637,0.16438
0.15743,0.16517
0.15471,0.16250
0.15337,0.16134
0.15376,0.16177
0.15310,0.16109
0.15388,0.16188
0.15632,0.16444
0.15602,0.16405
0.15413,0.16193
0.15648,0.16436
0.15865,0.16659
0.15764,0.16565
0.15627,0.16445
0.15718,0.16549
0.15762,0.16582
0.15716,0.16524
0.15681,0.16485
0.15699,0.16504
0.15715,0.16525
0.15702,0.16503
0.15671,0.16476
0.15626,0.16433
0.15563,0.16347
0.15503,0.16262
0.15498,0.16255
0.15463,0.16216
0.15373,0.16116
0.15313,0.16052
0.15313,0.16039
0.15298,0.16028
0.15308,0.16046
0.15327,0.16055
0.15274,0.15995
0.15355,0.16091
0.15404,0.16140
0.15337,0.16062
0.15287,0.16019
0.15337,0.16069
0.15386,0.16121
0.15346,0.16073
0.15336,0.16055
0.15475,0.16212
0.15459,0.16191
0.15370,0.16081
0.15364,0.16073
0.15427,0.16152
0.15420,0.16144
0.15368,0.16097
0.15334,0.16069
0.15341,0.16076
0.15386,0.16128
0.15495,0.16246
0.15625,0.16390
0.15687,0.16464
