0.04935,0.15233
0.04789,0.15024
0.04648,0.14550
0.04702,0.14638
0.04859,0.15008
0.04825,0.14841
0.04632,0.14891
0.04551,0.14816
0.04572,0.14883
0.04567,0.15188
0.04610,0.14849
0.04638,0.15034
0.04665,0.15022
0.04699,0.14892
0.04686,0.15346
0.04640,0.14579
0.04772,0.14501
0.04850,0.14825
0.04687,0.14676
0.04580,0.15047
0.04577,0.14713
0.04688,0.14666
0.04787,0.14864
0.04707,0.14511
0.04543,0.14944
0.04608,0.14901
0.04644,0.14833
0.04563,0.15092
0.04722,0.14685
0.04780,0.14711
0.04784,0.14791
0.04682,0.14630
0.04498,0.14691
0.04643,0.15141
0.04732,0.14920
0.04636,0.14717
0.04600,0.14918
0.04727,0.14856
0.04627,0.15169
0.04673,0.14832
0.04839,0.14598
0.04861,0.15013
0.04883,0.14434
0.04825,0.14860
0.04689,0.14964
0.04651,0.14548
0.04758,0.15106
0.04664,0.14875
0.04582,0.14862
0.04525,0.14695
0.04502,0.14214
0.04697,0.14833
0.04709,0.14782
0.04734,0.14892
0.04832,0.15018
0.04821,0.14405
0.04823,0.14899
0.04656,0.14915
0.04571,0.14777
0.04677,0.14930
0.04625,0.14498
0.04543,0.14841
0.04576,0.14953
0.04638,0.14552
0.04648,0.14532
0.04760,0.14840
0.04804,0.14783
0.04741,0.14752
0.04667,0.14763
0.04640,0.14451
0.04603,0.15051
0.04534,0.15036
0.04504,0.14598
0.04543,0.14735
0.04547,0.14695
0.04549,0.15038
0.04641,0.14939
0.04712,0.14576
0.04675,0.14899
0.04838,0.14694
0.04772,0.14866
0.04604,0.14863
0.04631,0.14385
0.04644,0.14719
0.04627,0.14407
0.04502,0.14688
0.04450,0.15118
0.04628,0.14520
0.04673,0.15166
0.04670,0.15039
0.04612,0.14593
0.04635,0.14695
0.04921,0.14417
0.04901,0.14754
0.04881,0.14956
0.04827,0.14815
0.04498,0.14788
0.04357,0.14594
0.04531,0.14648
0.04735,0.14827
0.04745,0.14755
0.04667,0.14467
0.04684,0.14463
0.04680,0.14761
0.04591,0.14921
0.04543,0.14679
0.04644,0.14494
0.04661,0.15024
0.04558,0.15112
0.04485,0.14703
0.04576,0.14797
0.04767,0.14440
0.04759,0.14773
0.04670,0.15029
0.04658,0.14614
0.04613,0.14920
0.04806,0.14713
0.04673,0.14894
0.04499,0.15140
0.04774,0.14548
0.04483,0.14879
0.04510,0.14692
0.04721,0.14604
0.04671,0.14972
0.04678,0.14447
0.04695,0.14508
0.04743,0.14729
0.04811,0.14830
0.04770,0.14984
0.04599,0.14706
0.04850,0.14554
0.04882,0.14852
0.04542,0.15029
0.04586,0.14585
0.04580,0.14601
0.04651,0.14619
0.04571,0.14745
0.04340,0.14938
0.04657,0.14281
0.04810,0.14448
0.04719,0.14711
0.04648,0.14735
0.04654,0.15061
0.04673,0.14392
0.04595,0.14605
0.04553,0.14811
0.04613,0.14381
0.04617,0.15250
0.04726,0.14738
0.04741,0.14406
0.04621,0.14782
0.04629,0.14549
0.04820,0.14715
0.04696,0.14442
0.04501,0.14457
0.04623,0.14954
0.04773,0.14648
0.04461,0.14705
0.04383,0.14746
0.04590,0.14778
0.04580,0.15050
0.04586,0.14801
0.04743,0.14671
0.04645,0.14723
0.04437,0.14728
0.04680,0.14731
0.04713,0.14703
0.04554,0.14552
0.04472,0.14766
0.04509,0.15206
0.04512,0.14761
0.04583,0.14724
0.04619,0.14817
0.04612,0.14812
0.04758,0.15072
0.05014,0.14889
0.04770,0.14853
0.04416,0.14896
0.04484,0.14862
0.04585,0.15138
0.04544,0.14894
0.04528,0.14931
0.04636,0.15223
0.04718,0.14973
0.04637,0.14857
0.04779,0.14784
0.04758,0.15035
0.04560,0.15244
0.04812,0.14678
0.04703,0.14869
0.04625,0.14986
0.04770,0.15056
0.04764,0.15486
0.04569,0.15049
0.04587,0.15141
0.04696,0.15146
0.04720,0.14887
0.04736,0.15280
0.04629,0.14792
0.04566,0.14842
0.04532,0.15160
0.04514,0.14901
0.04678,0.15204
0.04631,0.15021
0.04606,0.15130
0.04737,0.15345
0.04756,0.14704
0.04701,0.14953
0.04896,0.14960
0.04974,0.14913
0.04697,0.15166
0.04611,0.14752
0.04661,0.14946
0.04562,0.15140
0.04460,0.15055
0.04612,0.15136
0.04685,0.14927
0.04681,0.15200
0.04721,0.15227
0.04767,0.14870
0.04711,0.15212
0.04772,0.14802
0.04824,0.14695
0.04783,0.15033
0.04739,0.14977
0.04715,0.14984
0.04572,0.14829
0.04558,0.14949
0.04704,0.15209
0.04703,0.14934
0.04680,0.14931
0.04520,0.14862
0.04442,0.14969
0.04568,0.15291
0.04552,0.14855
0.04770,0.14789
0.04736,0.15018
0.04561,0.15072
0.04820,0.14990
0.04747,0.14872
0.04807,0.14997
0.04869,0.15152
0.04770,0.15010
0.04931,0.14754
0.04659,0.14850
0.04497,0.15050
0.04651,0.15058
0.04672,0.14882
0.04644,0.14669
0.04479,0.14939
0.04478,0.15079
0.04669,0.14852
0.04623,0.14939
0.04605,0.14684
0.04607,0.14817
0.04632,0.14918
0.04654,0.14492
0.04506,0.14915
0.04620,0.14894
0.04799,0.14863
0.04686,0.14975
0.04456,0.14493
0.04573,0.14839
0.04633,0.15006
0.04545,0.14851
0.04466,0.14841
0.04311,0.14562
0.04496,0.14925
0.04716,0.15028
0.04628,0.14701
0.04441,0.14824
0.04538,0.14678
0.04635,0.14990
0.04674,0.15111
0.04719,0.14667
0.04647,0.14838
0.04608,0.14676
0.04664,0.14793
0.04682,0.14893
0.04589,0.14393
0.04596,0.14833
0.04559,0.14735
0.04426,0.14618
0.04352,0.14886
0.04441,0.14464
0.04465,0.14798
0.04546,0.14925
0.04631,0.14739
0.04604,0.14868
0.04667,0.14568
0.04732,0.14645
0.04630,0.14799
0.04450,0.14753
0.04457,0.14885
0.04601,0.14783
0.04757,0.14950
0.04751,0.15049
0.04591,0.14781
0.04535,0.14949
0.04536,0.14895
0.04614,0.14963
0.04662,0.15087
0.04570,0.14778
0.04584,0.14871
0.04573,0.14805
0.04647,0.14815
0.04796,0.15031
0.04688,0.14790
0.04636,0.15172
0.04621,0.15144
0.04633,0.14652
0.04723,0.14727
0.04686,0.14819
0.04544,0.15206
0.04568,0.14976
0.04664,0.14373
0.04488,0.14971
0.04577,0.14968
0.04661,0.14901
0.04648,0.14889
0.04634,0.14644
0.04422,0.15076
0.04635,0.15091
0.04752,0.14959
0.04592,0.14906
0.04719,0.14604
0.04588,0.15122
0.04792,0.15070
0.04909,0.14729
0.04552,0.14942
0.04739,0.14758
0.04809,0.15026
0.04565,0.14972
0.04489,0.14702
0.04736,0.15125
0.04527,0.14906
0.04605,0.14906
0.04695,0.14763
0.04499,0.14441
0.04727,0.15162
0.04659,0.14816
0.04688,0.14688
0.04734,0.14993
0.04426,0.14713
0.04612,0.15219
0.04869,0.15007
0.04798,0.14727
0.04562,0.15034
0.04550,0.14822
0.04702,0.14795
0.04691,0.14603
0.04563,0.14641
0.04627,0.15243
0.04852,0.15146
0.04798,0.15011
0.04624,0.14945
0.04633,0.15013
0.04736,0.15373
0.04653,0.15069
0.04482,0.14868
0.04530,0.15004
0.04734,0.15051
0.04641,0.15019
0.04672,0.14863
0.04695,0.14900
0.04590,0.15175
0.04529,0.15302
0.04456,0.15095
0.04547,0.14826
0.04555,0.14843
0.04442,0.15038
0.04640,0.14893
0.04595,0.14550
0.04433,0.14660
0.04457,0.14945
0.04572,0.14771
0.04479,0.14681
0.04520,0.14557
0.04534,0.14725
0.04423,0.15087
0.04491,0.14929
0.04481,0.14798
0.04559,0.14689
0.04696,0.14759
0.04671,0.15027
0.04578,0.14889
0.04557,0.14962
0.04631,0.14847
0.04718,0.14671
0.04736,0.15081
0.04679,0.14773
0.04552,0.14782
0.04550,0.15025
0.04673,0.14908
0.04592,0.15105
0.04645,0.14806
0.04601,0.14690
0.04518,0.14983
0.04660,0.15025
0.04443,0.15250
0.04410,0.15208
0.04570,0.14866
0.04596,0.14744
0.04596,0.15034
0.04591,0.14981
0.04558,0.14791
0.04638,0.14857
0.04809,0.15074
0.04626,0.15041
0.04591,0.14718
0.04709,0.14666
0.04782,0.14999
0.04823,0.15126
0.04521,0.15148
0.04469,0.14925
0.04674,0.14901
0.04673,0.15182
0.04635,0.14777
0.04653,0.14886
0.04499,0.15029
0.04307,0.14924
0.04537,0.15242
0.04906,0.15067
0.04831,0.15121
0.04530,0.15106
0.04472,0.14736
0.04492,0.15059
0.04574,0.14696
0.04608,0.14516
0.04580,0.14906
0.04653,0.14931
0.04859,0.15052
0.04655,0.14968
0.04472,0.15038
0.04611,0.15337
0.04428,0.15080
0.04398,0.14964
0.04376,0.14862
0.04418,0.14907
0.04653,0.15149
0.04531,0.14621
0.04718,0.14765
0.04838,0.15020
0.04626,0.14893
0.04704,0.15264
0.04690,0.14861
0.04726,0.14857
0.04783,0.15188
0.04696,0.14989
0.04646,0.15144
0.04474,0.14800
0.04425,0.14797
0.04524,0.15207
0.04481,0.14862
0.04586,0.14961
0.04697,0.14947
0.04671,0.15030
0.04591,0.15442
0.04572,0.15143
0.04488,0.15000
0.04531,0.14760
0.04639,0.14687
0.04522,0.15228
0.04424,0.14805
0.04567,0.14846
0.04654,0.15070
0.04556,0.14871
0.04629,0.15221
0.04570,0.15035
0.04499,0.14853
0.04544,0.15102
0.04541,0.15275
0.04352,0.15112
0.04321,0.14837
0.04458,0.14814
0.04615,0.15091
0.04757,0.15279
0.04707,0.15081
0.04632,0.15179
0.04697,0.15248
0.04739,0.14876
0.04488,0.15038
0.04526,0.14723
0.04517,0.14762
0.04396,0.15130
0.04640,0.14697
0.04604,0.15268
0.04606,0.15174
0.04721,0.14849
0.04682,0.15358
0.04567,0.15185
0.04635,0.15284
0.04695,0.15144
0.04629,0.14738
0.04614,0.14937
0.04699,0.15134
0.04734,0.15248
0.04664,0.15248
