0.27712,0.65761
0.28247,0.65588
0.28000,0.65519
0.27854,0.65222
0.27966,0.64925
0.27953,0.65043
0.28059,0.65090
0.28088,0.65635
0.28296,0.66175
0.28526,0.65807
0.27886,0.65065
0.27748,0.65025
0.28069,0.65343
0.28229,0.65448
0.28226,0.65645
0.28333,0.66397
0.28311,0.65927
0.28181,0.65395
0.28070,0.65794
0.27974,0.65423
0.28208,0.65913
0.28392,0.66173
0.28292,0.66021
0.28222,0.66304
0.28449,0.65817
0.28427,0.65577
0.28258,0.65432
0.28253,0.65460
0.28291,0.66490
0.28292,0.66680
0.28152,0.66087
0.28075,0.65639
0.28220,0.65729
0.28298,0.65927
0.28411,0.65790
0.28507,0.66127
0.28526,0.66580
0.28502,0.65901
0.28344,0.65629
0.28270,0.65527
0.28294,0.65741
0.28401,0.66469
0.28712,0.66636
0.28693,0.65809
0.28349,0.65668
0.28313,0.66118
0.28748,0.65674
0.28529,0.65791
0.28342,0.66090
0.28312,0.66176
0.28227,0.65876
0.28347,0.65193
0.28262,0.65536
0.28237,0.65852
0.28375,0.65819
0.28370,0.66161
0.28217,0.66121
0.28320,0.65629
0.28350,0.65071
0.28190,0.64996
0.28401,0.65624
0.28745,0.66136
0.28758,0.65804
0.28448,0.65419
0.28266,0.65680
0.28446,0.65448
0.28395,0.65325
0.28307,0.65520
0.28487,0.65999
0.28624,0.66392
0.28372,0.65435
0.28371,0.65371
0.28457,0.65721
0.28244,0.65240
0.28292,0.65668
0.28617,0.66065
0.28452,0.65759
0.28094,0.65193
0.28368,0.65124
0.28371,0.65488
0.28565,0.65942
0.28668,0.66011
0.28325,0.65738
0.28182,0.65626
0.28288,0.65268
0.28408,0.65319
0.28513,0.65776
0.28617,0.65975
0.28448,0.66065
0.28358,0.65550
0.28342,0.65279
0.28378,0.65582
0.28596,0.65434
0.28541,0.65409
0.28647,0.66007
0.28758,0.66017
0.28456,0.65058
0.28275,0.65457
0.28274,0.65449
0.28329,0.65490
0.28445,0.65987
0.28541,0.65853
0.28187,0.65728
0.28384,0.65398
0.28632,0.65135
0.28285,0.65416
0.28497,0.65874
0.28776,0.65975
0.28517,0.65676
0.28183,0.65260
0.28456,0.65098
0.28545,0.65418
0.28417,0.65604
0.28549,0.66084
0.28785,0.66421
0.28385,0.65196
0.28176,0.65244
0.28475,0.65547
0.28778,0.65401
0.28684,0.65789
0.28672,0.66318
0.28582,0.66276
0.28488,0.65680
0.28404,0.65230
0.28216,0.65514
0.28478,0.66060
0.28566,0.66155
0.28499,0.65966
0.28617,0.65871
0.28398,0.65540
0.28581,0.65624
0.28587,0.65705
0.28301,0.65897
0.28548,0.66659
0.28608,0.66172
0.28582,0.65618
0.28466,0.65589
0.28279,0.65672
0.28466,0.65905
0.28700,0.65822
0.28654,0.66377
0.28414,0.66678
0.28254,0.65336
0.28152,0.65232
0.28283,0.65653
0.28486,0.65891
0.28586,0.66057
0.28619,0.65997
0.28188,0.65528
0.28128,0.65381
0.28430,0.65425
0.28388,0.65192
0.28462,0.65630
0.28439,0.66287
0.28309,0.65944
0.28350,0.64938
0.28567,0.64974
0.28366,0.65348
0.28264,0.65456
0.28419,0.65653
0.28490,0.65895
0.28508,0.65119
0.28321,0.65116
0.28193,0.65345
0.28318,0.65162
0.28499,0.65446
0.28564,0.65931
0.28465,0.65581
0.28369,0.64922
0.28386,0.64980
0.28426,0.65367
0.28662,0.65625
0.28696,0.65791
0.28350,0.65685
0.28049,0.65239
0.28141,0.65349
0.28312,0.65300
0.28318,0.64985
0.28306,0.65192
0.28485,0.66049
0.28440,0.65711
0.28227,0.64919
0.28203,0.64739
0.28368,0.65139
0.28245,0.65799
0.28465,0.66093
0.28515,0.65737
0.28106,0.65204
0.28064,0.65239
0.28197,0.65545
0.28319,0.65336
0.28492,0.65318
0.28609,0.65921
0.28293,0.65434
0.28169,0.65055
0.28156,0.64910
0.28054,0.64929
0.28151,0.65456
0.28517,0.65581
0.28398,0.65592
0.28003,0.65289
0.28057,0.64769
0.28397,0.65109
0.28414,0.65115
0.28461,0.65322
0.28504,0.65702
0.28127,0.65324
0.28068,0.65034
0.28319,0.64702
0.28394,0.64745
0.28298,0.65325
0.28532,0.65650
0.28500,0.65840
0.28360,0.64913
0.28298,0.64369
0.28222,0.65593
0.28234,0.65267
0.28147,0.65358
0.28160,0.65906
0.28292,0.65942
0.28218,0.65804
0.28251,0.65161
0.28295,0.65137
0.28360,0.65628
0.28505,0.65898
0.28472,0.66391
0.28349,0.65731
0.28161,0.65311
0.28041,0.65698
0.28134,0.65392
0.28187,0.65393
0.28518,0.66161
0.28602,0.66597
0.28188,0.65995
0.28289,0.65510
0.28313,0.65464
0.28272,0.66102
0.28374,0.66549
0.28442,0.66057
0.28313,0.66295
0.28347,0.66017
0.28432,0.65691
0.28359,0.65918
0.28352,0.65709
0.28436,0.66637
0.28356,0.66681
0.28187,0.65621
0.28165,0.65409
0.28132,0.65457
0.28367,0.65601
0.28592,0.65838
0.28499,0.66287
0.28325,0.66721
0.28315,0.65860
0.28255,0.65134
0.28230,0.65532
0.28358,0.66191
0.28300,0.66061
0.28424,0.66325
0.28407,0.66263
0.28261,0.65753
0.28424,0.65955
0.28218,0.65830
0.28185,0.66240
0.28347,0.66637
0.28359,0.66166
0.28417,0.65889
0.28285,0.65733
0.28156,0.65903
0.28252,0.66056
0.28415,0.65984
0.28360,0.66954
0.28415,0.66784
0.28332,0.65634
0.28009,0.65391
0.28067,0.66132
0.28309,0.66076
0.28515,0.66279
0.28472,0.66620
0.28157,0.66034
0.27989,0.66016
0.28151,0.65880
0.28226,0.66031
0.28225,0.66608
0.28582,0.66524
0.28443,0.66276
0.28152,0.66241
0.28216,0.66105
0.28409,0.65905
0.28206,0.66532
0.28285,0.66882
0.28259,0.66756
0.28060,0.66239
0.28274,0.65470
0.28135,0.65766
0.28016,0.65854
0.28141,0.66071
0.28235,0.66848
0.28176,0.66311
0.28309,0.65335
0.28173,0.65595
0.27933,0.66253
0.28210,0.65848
0.28288,0.66588
0.28295,0.66461
0.28334,0.65796
0.28285,0.65778
0.28166,0.65556
0.28192,0.65963
0.28214,0.66384
0.28112,0.66329
0.28015,0.66166
0.28041,0.66029
0.27990,0.65577
0.28164,0.65699
0.28522,0.66377
0.28493,0.66331
0.28477,0.66702
0.28169,0.66485
0.27936,0.65706
0.28180,0.65555
0.28129,0.65949
0.28223,0.66270
0.28483,0.66853
0.28496,0.67007
0.28177,0.65900
0.28095,0.66169
0.28076,0.66181
0.28179,0.66004
0.28526,0.66874
0.28669,0.67445
0.28306,0.66283
0.28094,0.66025
0.28208,0.66706
0.28238,0.66022
0.28541,0.66554
0.28766,0.67379
0.28600,0.66943
0.28169,0.65954
0.27936,0.66299
0.28252,0.66180
0.28453,0.66125
0.28497,0.66784
0.28696,0.67134
0.28352,0.66090
0.28076,0.65909
0.28053,0.66081
0.28118,0.65788
0.28293,0.66250
0.28440,0.66914
0.28253,0.66468
0.28143,0.65819
0.28383,0.66124
0.28201,0.65987
0.28147,0.66306
0.28566,0.67014
0.28800,0.66917
0.28246,0.65920
0.28121,0.66386
0.28278,0.66404
0.28447,0.66195
0.28725,0.67003
0.28977,0.67198
0.28524,0.66265
0.28316,0.66176
0.28413,0.66752
0.28078,0.66285
0.28492,0.66693
0.28765,0.67225
0.28456,0.66637
0.28157,0.65733
0.28309,0.66257
0.28209,0.65964
0.28163,0.65956
0.28445,0.66494
0.28542,0.66116
0.27959,0.65356
0.28009,0.65591
0.28109,0.65577
0.27811,0.65165
0.28135,0.66152
0.28274,0.66016
0.27812,0.64875
0.27473,0.64691
0.27784,0.65624
0.27917,0.65238
0.27994,0.65563
0.28067,0.65828
0.27961,0.65077
0.27715,0.64643
0.27798,0.65131
0.27833,0.65153
0.27855,0.65139
0.28030,0.65752
0.27948,0.65455
0.27700,0.64595
0.27687,0.64763
0.27822,0.65441
0.27785,0.65182
0.27919,0.65661
0.27870,0.65680
0.27799,0.65166
0.27852,0.64948
0.27683,0.65007
0.27819,0.65460
0.28064,0.65864
0.28023,0.65687
0.27825,0.65193
0.27986,0.65374
0.28064,0.65324
0.28026,0.65587
0.28190,0.66364
0.28437,0.66281
0.28023,0.65544
0.27839,0.65356
0.28078,0.65333
0.28070,0.64831
0.27859,0.65069
0.27836,0.65361
0.27701,0.65037
0.27524,0.64494
0.27772,0.64516
0.27780,0.64679
0.27741,0.64527
0.27643,0.64568
0.27436,0.64868
0.27513,0.64275
0.27553,0.63703
0.27433,0.63921
0.27383,0.64184
0.27565,0.63806
0.27685,0.64331
0.27760,0.64291
0.28077,0.64254
0.28517,0.65150
0.28557,0.65812
0.28623,0.66520
0.28794,0.66605
0.28808,0.65912
0.28644,0.65568
0.28744,0.66385
0.28734,0.66093
0.28760,0.66143
0.28845,0.66970
0.28530,0.65993
0.28210,0.65724
0.28352,0.65763
0.28606,0.65862
0.28566,0.66398
0.28674,0.66454
0.28442,0.66036
0.28277,0.65878
0.28458,0.65994
0.28527,0.65973
0.28476,0.66693
0.28553,0.66563
0.28618,0.65902
0.28420,0.66004
0.28231,0.66256
0.28644,0.66431
0.28813,0.66572
0.28468,0.66564
0.28387,0.66295
0.28514,0.66100
0.28569,0.65982
0.28626,0.66413
0.28689,0.66987
0.28490,0.66395
0.28406,0.66096
0.28464,0.66204
0.28603,0.66383
0.28825,0.66708
0.28968,0.67111
0.28762,0.66888
0.28469,0.66554
0.28420,0.66536
0.28546,0.66482
0.28682,0.67032
0.28720,0.67077
0.28645,0.66543
0.28492,0.66403
0.28382,0.66607
0.28682,0.66738
0.28858,0.67031
0.28696,0.67405
0.28641,0.67159
0.28410,0.66380
0.28477,0.66414
0.28855,0.66976
0.28978,0.67192
0.28636,0.67369
0.28563,0.66715
0.28415,0.66604
0.28277,0.67121
0.28648,0.66941
0.28666,0.67171
0.28602,0.67466
0.28606,0.67097
0.28563,0.66319
0.28545,0.66629
