0.56265,0.61180
0.56140,0.60928
0.56368,0.61289
0.56632,0.61712
0.56998,0.62310
0.57393,0.62988
0.56736,0.61952
0.56155,0.60987
0.56230,0.61077
0.56497,0.61516
0.56712,0.61875
0.57058,0.62458
0.57495,0.63176
0.57279,0.62820
0.56243,0.61139
0.56212,0.61075
0.56493,0.61531
0.56710,0.61898
0.57216,0.62740
0.57721,0.63590
0.56897,0.62269
0.56122,0.60999
0.56224,0.61144
0.56494,0.61582
0.56763,0.62029
0.57088,0.62562
0.57725,0.63613
0.57855,0.63855
0.56526,0.61709
0.56141,0.61054
0.56453,0.61537
0.56771,0.62062
0.57124,0.62654
0.57555,0.63370
0.58287,0.64571
0.57835,0.63855
0.56541,0.61754
0.56618,0.61840
0.56972,0.62411
0.57322,0.62993
0.57695,0.63605
0.58212,0.64463
0.58778,0.65415
0.57656,0.63576
0.56802,0.62156
0.57201,0.62794
0.57420,0.63154
0.57763,0.63718
0.58449,0.64845
0.58275,0.64580
0.57147,0.62756
0.57028,0.62545
0.57315,0.62989
0.57602,0.63455
0.57911,0.63967
0.58373,0.64726
0.58813,0.65481
0.57833,0.63873
0.56940,0.62404
0.57270,0.62947
0.57441,0.63186
0.57727,0.63691
0.58377,0.64769
0.58278,0.64609
0.57045,0.62650
0.56759,0.62172
0.56926,0.62420
0.57114,0.62732
0.57336,0.63108
0.57681,0.63679
0.58171,0.64505
0.57382,0.63221
0.56350,0.61511
0.56508,0.61755
0.56644,0.61983
0.56876,0.62352
0.57346,0.63133
0.57479,0.63381
0.56816,0.62288
0.56309,0.61434
0.56307,0.61430
0.56526,0.61784
0.56705,0.62060
0.57039,0.62624
0.57630,0.63599
0.57098,0.62737
0.56049,0.61016
0.56135,0.61122
0.56330,0.61433
0.56556,0.61792
0.57007,0.62529
0.57193,0.62853
0.56499,0.61730
0.56044,0.60970
0.56073,0.60981
0.56272,0.61295
0.56452,0.61606
0.56761,0.62094
0.57311,0.63007
0.56886,0.62322
0.55801,0.60526
0.55834,0.60566
0.56012,0.60840
0.56230,0.61195
0.56658,0.61891
0.56913,0.62290
0.56381,0.61433
0.55794,0.60476
0.55683,0.60255
0.55882,0.60543
0.56028,0.60795
0.56315,0.61271
0.56839,0.62104
0.56709,0.61900
0.55825,0.60486
0.55589,0.60056
0.55721,0.60245
0.55931,0.60565
0.56188,0.60971
0.56597,0.61664
0.57094,0.62482
0.56665,0.61793
0.55950,0.60611
0.55851,0.60404
0.56042,0.60711
0.56260,0.61053
0.56535,0.61491
0.57037,0.62311
0.57292,0.62735
0.56366,0.61238
0.55918,0.60505
0.56106,0.60789
0.56345,0.61164
0.56620,0.61617
0.56946,0.62131
0.57542,0.63112
0.57333,0.62805
0.56145,0.60868
0.56061,0.60695
0.56304,0.61080
0.56587,0.61539
0.56927,0.62084
0.57292,0.62685
0.57851,0.63612
0.57068,0.62354
0.56044,0.60684
0.56168,0.60858
0.56379,0.61189
0.56689,0.61692
0.56993,0.62199
0.57464,0.62977
0.57783,0.63505
0.56634,0.61670
0.56031,0.60690
0.56239,0.60995
0.56461,0.61343
0.56737,0.61813
0.57061,0.62329
0.57623,0.63254
0.57476,0.63064
0.56311,0.61188
0.56113,0.60826
0.56287,0.61094
0.56471,0.61411
0.56714,0.61814
0.57046,0.62354
0.57566,0.63239
0.56900,0.62187
0.55895,0.60546
0.55934,0.60581
0.56100,0.60825
0.56309,0.61199
0.56554,0.61613
0.56985,0.62295
0.57300,0.62830
0.56274,0.61182
0.55610,0.60085
0.55708,0.60215
0.55864,0.60463
0.56081,0.60831
0.56360,0.61285
0.56830,0.62048
0.56871,0.62127
0.56060,0.60814
0.55628,0.60076
0.55654,0.60122
0.55825,0.60392
0.56021,0.60667
0.56367,0.61237
0.56838,0.62003
0.56573,0.61580
0.55841,0.60396
0.55596,0.59971
0.55724,0.60161
0.55897,0.60427
0.56102,0.60755
0.56548,0.61484
0.56924,0.62095
0.56048,0.60682
0.55432,0.59662
0.55555,0.59831
0.55734,0.60112
0.55976,0.60491
0.56274,0.60967
0.56795,0.61796
0.56834,0.61857
0.55838,0.60278
0.55466,0.59652
0.55572,0.59780
0.55723,0.60014
0.55918,0.60336
0.56287,0.60912
0.56670,0.61529
0.56778,0.61716
0.56325,0.60977
0.55611,0.59789
0.55637,0.59811
0.55798,0.60072
0.56015,0.60409
0.56419,0.61037
0.56753,0.61595
0.57066,0.62122
0.56435,0.61103
0.55638,0.59793
0.55829,0.60080
0.55944,0.60277
0.56202,0.60677
0.56646,0.61373
0.56862,0.61726
0.56501,0.61145
0.55870,0.60124
0.55728,0.59880
0.55930,0.60198
0.56070,0.60427
0.56438,0.60999
0.56793,0.61569
0.57059,0.62025
0.56771,0.61569
0.55825,0.60010
0.55743,0.59860
0.55910,0.60123
0.56100,0.60424
0.56449,0.60985
0.56730,0.61442
0.57301,0.62375
0.56791,0.61567
0.55706,0.59807
0.55730,0.59803
0.55951,0.60135
0.56235,0.60591
0.56540,0.61087
0.56965,0.61773
0.57388,0.62453
0.56514,0.61060
0.55851,0.59972
0.55991,0.60156
0.56162,0.60417
0.56405,0.60797
0.56639,0.61189
0.57120,0.61985
0.57170,0.62083
0.56047,0.60301
0.55733,0.59770
0.55912,0.60034
0.56133,0.60388
0.56438,0.60879
0.56724,0.61344
0.57173,0.62060
0.56678,0.61269
0.55661,0.59640
0.55671,0.59637
0.55801,0.59837
0.56027,0.60203
0.56316,0.60669
0.56649,0.61203
0.56966,0.61709
0.56081,0.60290
0.55395,0.59186
0.55523,0.59380
0.55653,0.59578
0.55959,0.60069
0.56258,0.60551
0.56792,0.61412
0.56946,0.61664
0.55793,0.59807
0.55436,0.59217
0.55629,0.59506
0.55849,0.59842
0.56181,0.60369
0.56489,0.60878
0.56878,0.61486
0.56468,0.60813
0.55603,0.59438
0.55719,0.59617
0.55881,0.59840
0.56090,0.60165
0.56565,0.60940
0.56810,0.61333
0.56109,0.60199
0.55666,0.59482
0.55721,0.59554
0.55920,0.59848
0.56129,0.60166
0.56434,0.60655
0.56993,0.61566
0.56812,0.61287
0.55820,0.59684
0.55684,0.59434
0.55850,0.59670
0.56057,0.60001
0.56310,0.60413
0.56672,0.60986
0.57153,0.61781
0.56524,0.60783
0.55723,0.59478
0.55768,0.59513
0.55949,0.59772
0.56189,0.60154
0.56479,0.60636
0.56934,0.61381
0.57227,0.61857
0.56550,0.60767
0.56037,0.59927
0.56047,0.59933
0.56246,0.60243
0.56455,0.60560
0.56773,0.61083
0.57284,0.61911
0.57244,0.61841
0.56450,0.60569
0.56178,0.60116
0.56317,0.60310
0.56530,0.60651
0.56742,0.61012
0.57122,0.61621
0.57637,0.62445
0.57051,0.61525
0.56220,0.60207
0.56273,0.60273
0.56464,0.60552
0.56702,0.60944
0.56983,0.61401
0.57416,0.62100
0.57691,0.62572
0.56908,0.61320
0.56348,0.60389
0.56377,0.60412
0.56539,0.60673
0.56711,0.60947
0.57039,0.61487
0.57342,0.61988
0.57690,0.62555
0.57763,0.62678
0.56689,0.60956
0.56317,0.60358
0.56538,0.60709
0.56714,0.60984
0.57086,0.61582
0.57376,0.62058
0.57930,0.62969
0.57741,0.62688
0.56542,0.60770
0.56407,0.60532
0.56596,0.60815
0.56810,0.61164
0.57085,0.61621
0.57427,0.62168
0.57954,0.63035
0.57246,0.61939
0.56306,0.60436
0.56401,0.60556
0.56565,0.60824
0.56821,0.61244
0.57105,0.61711
0.57535,0.62416
0.57821,0.62886
0.56879,0.61399
0.56269,0.60420
0.56321,0.60475
0.56442,0.60648
0.56587,0.60893
0.56892,0.61418
0.57165,0.61871
0.57513,0.62426
0.57608,0.62583
0.56481,0.60761
0.56021,0.60022
0.56184,0.60298
0.56333,0.60548
0.56683,0.61107
0.56976,0.61588
0.57524,0.62463
0.57347,0.62192
0.56188,0.60368
0.56026,0.60076
0.56198,0.60310
0.56375,0.60602
0.56597,0.60989
0.56914,0.61497
0.57410,0.62295
0.56806,0.61348
0.55960,0.59995
0.56006,0.60034
0.56141,0.60234
0.56360,0.60591
0.56601,0.60989
0.57006,0.61644
0.57290,0.62106
0.56368,0.60650
0.55810,0.59754
0.55885,0.59842
0.56013,0.60022
0.56211,0.60347
0.56470,0.60774
0.56955,0.61543
0.56964,0.61562
0.56148,0.60285
0.55844,0.59768
0.55930,0.59873
0.56097,0.60141
0.56299,0.60463
0.56660,0.61008
0.57146,0.61793
0.56705,0.61130
0.55950,0.59927
0.55935,0.59859
0.56067,0.60071
0.56268,0.60398
0.56508,0.60785
0.56934,0.61469
0.57262,0.61995
0.56333,0.60523
0.55771,0.59622
0.55901,0.59815
0.56064,0.60067
0.56350,0.60514
0.56598,0.60924
0.57053,0.61640
0.56965,0.61491
0.55890,0.59811
0.55679,0.59465
0.55815,0.59666
0.56009,0.59985
0.56308,0.60480
0.56614,0.60962
0.57171,0.61857
0.56661,0.61051
0.55705,0.59516
0.55739,0.59556
0.55911,0.59827
0.56175,0.60249
0.56489,0.60758
0.56831,0.61308
0.56982,0.61535
0.56155,0.60244
0.55755,0.59621
0.55974,0.59949
0.56081,0.60104
0.56357,0.60563
0.56818,0.61303
0.56598,0.60980
0.55871,0.59845
0.55703,0.59545
0.55815,0.59718
0.55995,0.59994
0.56205,0.60326
0.56578,0.60942
0.56978,0.61593
0.56308,0.60551
0.55669,0.59518
0.55706,0.59541
0.55860,0.59784
0.56096,0.60134
0.56396,0.60609
0.56931,0.61488
0.57108,0.61784
0.56176,0.60286
0.55819,0.59726
0.55962,0.59935
0.56158,0.60228
0.56393,0.60632
0.56697,0.61125
0.57265,0.62019
0.56946,0.61537
0.55965,0.60003
0.55993,0.59994
0.56190,0.60292
0.56422,0.60672
0.56807,0.61282
0.57106,0.61755
0.56874,0.61414
0.56303,0.60506
0.56105,0.60178
0.56320,0.60524
0.56452,0.60740
0.56755,0.61227
0.57213,0.61972
0.57281,0.62110
