0.11601,0.13393
0.11688,0.12730
0.11740,0.12958
0.11632,0.13100
0.11522,0.13155
0.11608,0.13481
0.11495,0.13058
0.11329,0.13211
0.11425,0.13575
0.11701,0.13219
0.11671,0.13135
0.11427,0.12947
0.11374,0.12965
0.11594,0.13142
0.11709,0.13021
0.11477,0.13113
0.11517,0.13148
0.11729,0.13027
0.11694,0.13041
0.11582,0.13276
0.11625,0.13101
0.11594,0.13100
0.11483,0.13383
0.11509,0.13423
0.11525,0.13397
0.11482,0.13111
0.11546,0.13200
0.11629,0.13514
0.11501,0.13008
0.11704,0.12887
0.11779,0.13064
0.11582,0.13390
0.11476,0.13703
0.11511,0.13311
0.11607,0.13177
0.11680,0.13390
0.11705,0.13519
0.11694,0.13469
0.11636,0.13340
0.11554,0.13244
0.11568,0.13264
0.11633,0.13273
0.11528,0.13075
0.11631,0.13205
0.11640,0.13242
0.11611,0.13339
0.11800,0.13766
0.11480,0.13060
0.11571,0.12834
0.11729,0.13242
0.11434,0.13494
0.11434,0.13684
0.11505,0.13203
0.11673,0.13195
0.11701,0.13579
0.11451,0.13289
0.11610,0.13110
0.11697,0.13161
0.11646,0.13197
0.11629,0.13242
0.11578,0.13396
0.11622,0.13049
0.11561,0.13061
0.11485,0.13358
0.11597,0.13299
0.11683,0.13338
0.11738,0.12901
0.11632,0.12872
0.11625,0.13436
0.11901,0.13438
0.11440,0.13251
0.11330,0.13176
0.11588,0.13081
0.11607,0.13038
0.11832,0.13403
0.11739,0.13227
0.11610,0.13115
0.11736,0.13264
0.11841,0.13135
0.11727,0.13418
0.11674,0.13435
0.11746,0.13083
0.11721,0.12964
0.11515,0.13241
0.11512,0.13158
0.11448,0.13341
0.11390,0.13590
0.11612,0.13205
0.11650,0.13155
0.11564,0.13389
0.11511,0.13380
0.11596,0.13229
0.11776,0.13408
0.11702,0.13173
0.11694,0.13256
0.11755,0.13613
0.11636,0.13549
0.11555,0.13396
0.11660,0.13235
0.11735,0.13235
0.11762,0.13327
0.11893,0.13202
0.11759,0.13000
0.11766,0.13150
0.11825,0.13336
0.11704,0.13237
0.11726,0.13330
0.11574,0.13375
0.11716,0.13170
0.11896,0.13119
0.11439,0.13501
0.11321,0.13477
0.11588,0.13633
0.11742,0.13438
0.11594,0.12869
0.11523,0.13309
0.11700,0.13435
0.11768,0.13317
0.11585,0.13416
0.11458,0.13515
0.11625,0.13259
0.11718,0.13312
0.11618,0.13319
0.11539,0.12996
0.11627,0.12938
0.11647,0.12988
0.11635,0.13131
0.11560,0.13338
0.11502,0.13396
0.11781,0.13158
0.11737,0.13174
0.11428,0.13152
0.11363,0.13076
0.11590,0.13322
0.11501,0.13100
0.11464,0.13150
0.11455,0.13377
0.11378,0.13305
0.11649,0.13423
0.11584,0.13429
0.11447,0.13212
0.11515,0.13177
0.11520,0.13458
0.11440,0.13199
0.11472,0.13079
0.11436,0.13157
0.11253,0.13050
0.11290,0.13006
0.11480,0.13389
0.11564,0.13232
0.11533,0.12828
0.11578,0.13155
0.11680,0.13305
0.11637,0.13496
0.11374,0.13521
0.11249,0.13193
0.11588,0.13027
0.11613,0.13358
0.11376,0.13441
0.11374,0.13329
0.11659,0.13259
0.11622,0.12624
0.11358,0.13170
0.11398,0.13683
0.11652,0.13241
0.11525,0.13063
0.11324,0.12979
0.11268,0.12920
0.11450,0.13168
0.11619,0.13465
0.11398,0.12986
0.11570,0.12765
0.11794,0.12851
0.11653,0.13043
0.11430,0.13225
0.11412,0.12741
0.11501,0.12730
0.11499,0.13168
0.11383,0.13304
0.11325,0.13220
0.11398,0.13220
0.11370,0.12913
0.11225,0.12815
0.11222,0.13301
0.11406,0.12877
0.11380,0.12977
0.11339,0.13092
0.11417,0.12819
0.11335,0.13283
0.11406,0.13238
0.11347,0.12778
0.11190,0.12639
0.11256,0.12947
0.11441,0.13091
0.11526,0.13183
0.11431,0.12979
0.11325,0.12867
0.11407,0.13416
0.11489,0.13283
0.11392,0.13161
0.11289,0.13062
0.11380,0.12783
0.11462,0.13138
0.11260,0.13219
0.11343,0.13030
0.11694,0.12940
0.11630,0.12923
0.11397,0.12917
0.11412,0.13232
0.11563,0.13253
0.11538,0.12948
0.11369,0.13361
0.11297,0.13308
0.11389,0.13441
0.11517,0.13540
0.11532,0.12998
0.11463,0.13371
0.11509,0.13398
0.11592,0.13159
0.11496,0.13204
0.11295,0.13176
0.11503,0.13447
0.11678,0.13574
0.11603,0.13357
0.11527,0.13182
0.11543,0.13297
0.11691,0.13232
0.11715,0.13391
0.11515,0.13590
0.11381,0.13165
0.11532,0.13333
0.11533,0.13553
0.11386,0.13466
0.11353,0.13272
0.11345,0.13049
0.11476,0.13289
0.11561,0.13490
0.11506,0.13398
0.11539,0.13337
0.11790,0.13143
0.11559,0.13133
0.11246,0.13285
0.11414,0.13277
0.11558,0.13080
0.11440,0.13194
0.11490,0.13409
0.11576,0.13534
0.11353,0.13506
0.11415,0.13079
0.11447,0.13227
0.11433,0.13410
0.11475,0.13176
0.11439,0.13246
0.11430,0.13199
0.11393,0.13238
0.11403,0.13379
0.11435,0.13321
0.11233,0.13106
0.11460,0.13117
0.11674,0.13174
0.11521,0.13301
0.11416,0.13642
0.11288,0.13350
0.11402,0.13354
0.11490,0.13526
0.11282,0.13315
0.11238,0.13341
0.11372,0.13169
0.11493,0.12976
0.11389,0.13280
0.11176,0.13797
0.11439,0.13275
0.11684,0.12979
0.11461,0.12965
0.11097,0.12945
0.11225,0.13530
0.11331,0.13443
0.11245,0.13126
0.11213,0.13168
0.11368,0.13255
0.11429,0.13101
0.11407,0.13485
0.11338,0.13462
0.11289,0.12884
0.11324,0.13237
0.11258,0.13359
0.11157,0.13403
0.11147,0.13453
0.11277,0.13195
0.11464,0.12958
0.11322,0.13339
0.11166,0.13354
0.11335,0.12957
0.11585,0.13266
0.11534,0.13174
0.11375,0.13053
0.11277,0.13276
0.11232,0.13385
0.11201,0.12911
0.11112,0.12868
0.11257,0.12918
0.11464,0.13015
0.11315,0.13482
0.11271,0.13200
0.11415,0.13012
0.11450,0.13183
0.11266,0.13229
0.11158,0.13107
0.11184,0.13283
0.11328,0.13009
0.11446,0.12771
0.11370,0.13302
0.11173,0.13034
0.11151,0.12959
0.11237,0.13012
0.11271,0.12798
0.11299,0.12866
0.11287,0.13184
0.11273,0.13036
0.11342,0.12764
0.11399,0.12869
0.11179,0.12639
0.11083,0.12985
0.11138,0.13299
0.11165,0.12995
0.11159,0.12788
0.11242,0.13079
0.11502,0.12971
0.11619,0.12901
0.11402,0.13203
0.11259,0.12709
0.11297,0.12886
0.11332,0.13101
0.11244,0.13004
0.11139,0.13266
0.11168,0.13123
0.11225,0.12853
0.11166,0.12921
0.11173,0.13055
0.11474,0.12739
0.11339,0.12985
0.11388,0.12978
0.11526,0.12744
0.11193,0.13077
0.11254,0.13087
0.11224,0.12789
0.11103,0.12727
0.11230,0.12911
0.11467,0.12909
0.11362,0.13213
0.11148,0.13086
0.11126,0.12682
0.11250,0.12762
0.11282,0.12931
0.11242,0.12786
0.11215,0.12948
0.11192,0.13136
0.11144,0.12595
0.11179,0.13024
0.11101,0.13107
0.11057,0.12818
0.11213,0.12940
0.11262,0.12761
0.11181,0.12721
0.11182,0.12982
0.11341,0.13042
0.11493,0.12656
0.11468,0.12692
0.11149,0.12646
0.11033,0.12875
0.11334,0.13279
0.11434,0.12680
0.11277,0.12569
0.11207,0.12898
0.11267,0.13107
0.11299,0.13135
0.11400,0.13028
0.11210,0.12741
0.11186,0.12768
0.11336,0.13056
0.10994,0.12916
0.11152,0.12977
0.11263,0.12929
0.11150,0.12822
0.11175,0.13044
0.11122,0.13235
0.11397,0.12893
0.11646,0.12702
0.11463,0.12787
0.11182,0.12637
0.11358,0.13229
0.11376,0.13058
0.11166,0.12572
0.11097,0.12859
0.11101,0.12834
0.11336,0.12883
0.11377,0.13079
0.11180,0.13058
0.11214,0.12840
0.11391,0.13161
0.11305,0.13270
0.11135,0.13106
0.11166,0.13002
0.11243,0.12809
0.11405,0.12866
0.11354,0.13102
0.11174,0.13200
0.11240,0.13098
0.11401,0.13108
0.11310,0.12955
0.11212,0.13028
0.11353,0.13267
0.11473,0.12991
0.11416,0.13082
0.11414,0.13188
0.11412,0.13002
0.11313,0.12953
0.11429,0.13331
0.11399,0.13014
0.11285,0.12904
0.11296,0.13345
0.11391,0.13218
0.11455,0.13129
0.11358,0.13019
0.11326,0.12901
0.11417,0.12989
0.11254,0.13163
0.11317,0.12988
0.11318,0.13033
0.11249,0.13137
0.11416,0.12812
0.11225,0.13247
0.11137,0.13048
0.11263,0.12729
0.11377,0.13038
0.11420,0.12860
0.11159,0.12907
0.11121,0.13079
0.11291,0.12945
0.11242,0.12749
0.11292,0.13175
0.11169,0.13113
0.11176,0.13071
0.11368,0.13264
0.11193,0.12715
0.11023,0.12750
0.11195,0.12973
0.11371,0.13028
0.11203,0.13080
0.11108,0.12925
0.11072,0.12781
0.11178,0.12906
0.11221,0.13082
0.10995,0.12904
0.11247,0.12736
0.11477,0.12770
0.11303,0.12952
0.11049,0.13093
0.11179,0.13015
0.11395,0.12788
0.11219,0.12843
0.10882,0.13047
0.11017,0.13040
0.11406,0.13332
0.11369,0.13134
0.11126,0.12867
0.11130,0.13099
0.11199,0.13127
0.11255,0.12937
0.11083,0.12913
0.10950,0.12942
0.11178,0.12822
0.11269,0.13070
0.11189,0.13154
0.11127,0.12974
0.11126,0.12889
0.11112,0.12988
0.11285,0.12868
0.11457,0.13156
0.11331,0.13291
0.11121,0.12748
0.11399,0.12916
0.11227,0.12849
0.11011,0.12818
0.11195,0.13150
0.11308,0.13167
0.11311,0.12766
0.11075,0.12838
0.10917,0.13033
0.11110,0.12836
0.11288,0.13017
0.11256,0.13064
0.11098,0.12924
0.11139,0.12894
0.11446,0.13049
0.11377,0.13148
0.11039,0.13225
0.10835,0.13192
