0.17934,0.45599
0.18286,0.45968
0.18320,0.45917
0.18424,0.46594
0.18405,0.47342
0.17972,0.46720
0.17971,0.46139
0.17884,0.45633
0.17728,0.45960
0.17936,0.47128
0.18198,0.47073
0.18106,0.46517
0.17837,0.46296
0.17615,0.46660
0.17536,0.47054
0.17849,0.46484
0.18056,0.46905
0.17979,0.47158
0.17927,0.46141
0.18114,0.46027
0.18167,0.46309
0.18065,0.46768
0.18039,0.46945
0.18058,0.46333
0.17721,0.45650
0.17556,0.46018
0.17841,0.46264
0.18102,0.45921
0.17868,0.46340
0.17904,0.46281
0.17699,0.45659
0.17258,0.44997
0.17234,0.44906
0.17656,0.45711
0.18237,0.45877
0.17994,0.45819
0.17404,0.45863
0.17843,0.45398
0.17936,0.45471
0.17734,0.46057
0.17798,0.46437
0.17966,0.46413
0.17657,0.46517
0.17885,0.46242
0.18200,0.46183
0.18139,0.46532
0.18080,0.46822
0.18070,0.47288
0.17924,0.46619
0.17844,0.45907
0.17985,0.46254
0.18075,0.46405
0.18085,0.46765
0.17907,0.46844
0.17719,0.46175
0.17802,0.45503
0.17975,0.46142
0.18022,0.46451
0.18094,0.46370
0.18140,0.46569
0.17840,0.46561
0.17608,0.45856
0.17734,0.45658
0.17934,0.46121
0.17944,0.46350
0.18013,0.46413
0.17712,0.46895
0.17648,0.46870
0.17929,0.46196
0.17769,0.46022
0.17618,0.45958
0.17821,0.46504
0.18097,0.47053
0.18122,0.47100
0.18104,0.47459
0.18102,0.46776
0.17915,0.46199
0.17814,0.46449
0.18075,0.46535
0.17965,0.46500
0.18156,0.47284
0.18217,0.47916
0.17884,0.47360
0.18143,0.46678
0.18251,0.46830
0.18108,0.47097
0.18090,0.47025
0.18232,0.47138
0.18081,0.47629
0.18091,0.47230
0.18197,0.46667
0.18140,0.46928
0.18046,0.47301
0.18019,0.47155
0.18267,0.47523
0.18388,0.47931
0.18101,0.47165
0.18075,0.46195
0.18084,0.46518
0.17922,0.46971
0.17848,0.47022
0.18085,0.47539
0.18028,0.47013
0.17926,0.46282
0.17932,0.46052
0.17928,0.46119
0.17955,0.46294
0.18102,0.46600
0.18177,0.46734
0.18035,0.46520
0.17827,0.46174
0.17794,0.45998
0.17653,0.46155
0.17746,0.46427
0.18130,0.46426
0.17968,0.46079
0.17492,0.45903
0.17582,0.45645
0.17874,0.45514
0.17603,0.45919
0.17675,0.46165
0.18074,0.46027
0.18137,0.45738
0.17775,0.45665
0.17601,0.45733
0.17482,0.45301
0.17777,0.46478
0.18061,0.47739
0.17832,0.46561
0.17755,0.45560
0.17526,0.45705
0.17599,0.45944
0.17867,0.46110
0.17655,0.46877
0.17861,0.46559
0.17767,0.46044
0.17653,0.45915
0.17870,0.46174
0.17490,0.46910
0.17705,0.46273
0.17690,0.45892
0.17301,0.46216
0.17601,0.45856
0.17839,0.46201
0.17668,0.46181
0.17628,0.46674
0.17840,0.47332
0.17618,0.45552
0.17572,0.45326
0.17513,0.45906
0.17435,0.46150
0.17643,0.46493
0.17819,0.46239
0.17759,0.45903
0.17552,0.45891
0.17337,0.45894
0.17201,0.45573
0.17371,0.45817
0.17720,0.46835
0.17888,0.47207
0.17784,0.46244
0.17745,0.45827
0.17557,0.45563
0.17468,0.45745
0.17636,0.46375
0.17656,0.46513
0.17202,0.46056
0.17107,0.45620
0.17510,0.45687
0.17762,0.45949
0.17626,0.45867
0.17763,0.46610
0.17939,0.46630
0.17780,0.45841
0.17456,0.45918
0.17310,0.45758
0.17433,0.46024
0.17703,0.46108
0.17856,0.45971
0.17737,0.46876
0.17683,0.46148
0.17639,0.45605
0.17541,0.45933
0.17455,0.45828
0.17390,0.46332
0.17684,0.46775
0.17712,0.46275
0.17344,0.45428
0.17447,0.45542
0.17556,0.45678
0.17551,0.45949
0.17618,0.46352
0.17780,0.46353
0.17730,0.45795
0.17424,0.45317
0.17457,0.45349
0.17715,0.45591
0.17576,0.45709
0.17808,0.46383
0.17650,0.46449
0.17489,0.45798
0.17804,0.45414
0.17539,0.45533
0.17406,0.45575
0.17631,0.46146
0.17869,0.46745
0.17784,0.46250
0.17405,0.46039
0.17259,0.46076
0.17462,0.46052
0.17652,0.46032
0.17516,0.46160
0.17288,0.46123
0.17455,0.45701
0.17566,0.45454
0.17172,0.45835
0.17344,0.45985
0.17601,0.45968
0.17641,0.46217
0.17551,0.46281
0.17382,0.45464
0.17269,0.45303
0.17332,0.45335
0.17483,0.45705
0.17571,0.46389
0.17572,0.45623
0.17306,0.45200
0.17097,0.45399
0.17267,0.45580
0.17639,0.45731
0.17734,0.45958
0.17421,0.46232
0.17157,0.45943
0.17209,0.45264
0.17181,0.45449
0.17288,0.45211
0.17411,0.45199
0.17490,0.45995
0.17572,0.46502
0.17366,0.45697
0.17277,0.45458
0.17381,0.45679
0.17387,0.45581
0.17221,0.45850
0.17285,0.45841
0.17515,0.46171
0.17559,0.46342
0.17308,0.45613
0.17182,0.45649
0.17572,0.45826
0.17945,0.46063
0.17805,0.46482
0.17553,0.46560
0.17688,0.46262
0.17437,0.46249
0.17145,0.46231
0.17438,0.45733
0.17351,0.45642
0.17454,0.46251
0.17646,0.46681
0.17630,0.46525
0.17565,0.46288
0.17495,0.45953
0.17475,0.46302
0.17720,0.46316
0.18014,0.45868
0.17722,0.47112
0.17658,0.46771
0.17806,0.46025
0.17654,0.46030
0.17257,0.45850
0.17427,0.46400
0.17705,0.46828
0.17713,0.46636
0.17465,0.46278
0.17225,0.46192
0.17665,0.45882
0.17667,0.46089
0.17399,0.46940
0.17753,0.47275
0.17485,0.46286
0.17172,0.45419
0.17333,0.45699
0.17727,0.46121
0.17844,0.45621
0.17698,0.46844
0.17489,0.46638
0.17556,0.45413
0.17749,0.45707
0.17367,0.45363
0.17362,0.45765
0.17586,0.46765
0.17652,0.47079
0.17684,0.46515
0.17421,0.46314
0.17550,0.46123
0.17754,0.46136
0.17515,0.46522
0.17467,0.46338
0.17476,0.45976
0.17554,0.45656
0.17568,0.45769
0.17435,0.46440
0.17669,0.46502
0.17682,0.46107
0.17296,0.45932
0.17022,0.46076
0.17263,0.46049
0.17543,0.46144
0.17467,0.46133
0.17069,0.45780
0.16966,0.45604
0.17748,0.46345
0.17611,0.46058
0.17275,0.46029
0.17537,0.46575
0.17317,0.45622
0.17177,0.46128
0.17181,0.46275
0.17334,0.46110
0.17599,0.46963
0.17599,0.46818
0.17540,0.46516
0.17551,0.46070
0.17506,0.46000
0.17354,0.46943
0.17484,0.46518
0.17758,0.46691
0.17719,0.46987
0.17428,0.46207
0.17486,0.46245
0.17232,0.45982
0.17169,0.46072
0.17394,0.46806
0.17374,0.47174
0.17591,0.47095
0.17411,0.46405
0.17162,0.46211
0.17288,0.46681
0.17294,0.46300
0.17469,0.46387
0.17822,0.46768
0.17828,0.46883
0.17387,0.46583
0.17464,0.45824
0.17432,0.45955
0.17336,0.46390
0.17448,0.46567
0.17463,0.47012
0.17360,0.46426
0.17419,0.46449
0.17587,0.46574
0.17583,0.45831
0.17446,0.46550
0.17386,0.46714
0.17458,0.46647
0.17414,0.46648
0.17214,0.45861
0.17568,0.45971
0.17573,0.46254
0.17467,0.46609
0.17813,0.47191
0.17773,0.46966
0.17496,0.46442
0.17445,0.46194
0.17463,0.46307
0.17235,0.46492
0.17414,0.46543
0.17771,0.46888
0.17775,0.46931
0.17414,0.46270
0.17252,0.45869
0.17380,0.46108
0.17577,0.46448
0.17534,0.46403
0.17282,0.46093
0.17365,0.46046
0.17592,0.46639
0.17445,0.46415
0.17196,0.45528
0.17526,0.46088
0.17448,0.46207
0.17305,0.46022
0.17214,0.45683
0.17040,0.45400
0.17250,0.46282
0.17238,0.46247
0.17147,0.46195
0.17205,0.46261
0.17143,0.45066
0.17000,0.45200
0.17202,0.45412
0.17380,0.45496
0.17210,0.45923
0.17273,0.45557
0.17207,0.45286
0.17291,0.45067
0.17426,0.45117
0.17249,0.45821
0.17472,0.46024
0.17609,0.46235
0.17265,0.45822
0.16748,0.44916
0.16666,0.45366
0.17019,0.45746
0.17187,0.45935
0.17094,0.45992
0.17145,0.45619
0.17248,0.45268
0.17278,0.45617
0.17138,0.45645
0.17059,0.45361
0.17368,0.46259
0.17572,0.46590
0.17296,0.45840
0.17065,0.45065
0.17162,0.45339
0.16820,0.46200
0.17245,0.46129
0.17818,0.45997
0.17678,0.46330
0.17294,0.46150
0.17148,0.45913
0.17061,0.45587
0.17095,0.45689
0.17309,0.46264
0.17340,0.46233
0.17439,0.46502
0.17443,0.46372
0.17276,0.45823
0.17138,0.45829
0.16988,0.45746
0.16981,0.45863
0.17065,0.46100
0.17170,0.46227
0.17335,0.46314
0.17225,0.45889
0.17109,0.45593
0.17216,0.45785
0.17384,0.46047
0.17408,0.46121
0.17392,0.46198
0.17269,0.46065
0.17163,0.45774
0.17304,0.45756
0.17140,0.45534
0.17069,0.45575
0.17116,0.46147
0.16920,0.46503
0.16784,0.45724
0.17198,0.45199
0.17213,0.45643
0.16738,0.46174
0.16947,0.45849
0.17285,0.45801
0.17259,0.45716
0.16963,0.45641
0.16858,0.45596
0.17124,0.44975
0.17017,0.45246
0.16956,0.45922
0.17157,0.46308
0.17163,0.46281
0.17096,0.45227
0.16930,0.45451
0.17046,0.45988
0.17254,0.45619
0.16843,0.45994
0.17156,0.45869
0.17405,0.45850
0.17004,0.45820
0.16706,0.45225
0.16990,0.45549
0.17007,0.45922
0.17136,0.46601
0.17369,0.47026
0.16876,0.45902
0.17133,0.46220
0.17224,0.46183
0.17046,0.45743
0.17355,0.46274
0.17537,0.46139
0.17341,0.45946
0.17138,0.45675
0.17179,0.45535
0.17277,0.46120
0.17317,0.46413
0.17307,0.46423
0.17295,0.45856
0.17224,0.45287
0.17070,0.46199
0.17375,0.45756
0.17634,0.45792
0.17502,0.46752
0.17317,0.46393
0.17190,0.46117
0.17232,0.45749
0.17360,0.45505
