0.05579,0.13491
0.05728,0.13718
0.05913,0.14111
0.05814,0.14222
0.05550,0.14084
0.05475,0.13989
0.05357,0.13688
0.05374,0.13699
0.05606,0.14005
0.05795,0.14057
0.05678,0.13829
0.05640,0.14185
0.05728,0.14128
0.05740,0.13616
0.05691,0.13806
0.05894,0.13936
0.05814,0.13723
0.05661,0.13659
0.05719,0.13811
0.05585,0.13604
0.05560,0.13792
0.05693,0.13818
0.05742,0.13591
0.05520,0.13593
0.05205,0.13406
0.05190,0.13457
0.05341,0.13517
0.05441,0.13341
0.05581,0.13312
0.05692,0.13431
0.05554,0.13276
0.05310,0.13111
0.05226,0.13299
0.05243,0.13316
0.05531,0.13373
0.05575,0.13369
0.05378,0.13340
0.05458,0.13419
0.05162,0.13007
0.05204,0.12969
0.05465,0.13279
0.05503,0.13336
0.05742,0.13365
0.05543,0.13375
0.05317,0.13230
0.05384,0.13156
0.05435,0.13422
0.05503,0.13536
0.05458,0.13456
0.05458,0.13256
0.05529,0.13179
0.05413,0.13432
0.05527,0.13336
0.05509,0.13161
0.05407,0.13346
0.05576,0.13697
0.05540,0.13637
0.05305,0.13508
0.05132,0.13347
0.05256,0.13209
0.05595,0.13366
0.05589,0.13378
0.05412,0.13141
0.05326,0.13101
0.05323,0.13370
0.05350,0.13272
0.05556,0.13402
0.05815,0.13513
0.05963,0.13511
0.05987,0.13849
0.05857,0.14036
0.05736,0.13976
0.05980,0.14098
0.06333,0.14387
0.06012,0.14165
0.06112,0.14172
0.06236,0.14233
0.05955,0.14002
0.05822,0.13837
0.06132,0.14215
0.06182,0.14184
0.06063,0.14089
0.06107,0.14327
0.06039,0.14062
0.06035,0.13838
0.06136,0.13967
0.06163,0.14033
0.06069,0.13874
0.06122,0.14254
0.06018,0.14063
0.05818,0.13729
0.05786,0.13871
0.05912,0.13847
0.05943,0.13624
0.05864,0.13631
0.05792,0.13664
0.05712,0.13452
0.05546,0.13623
0.05857,0.14099
0.05890,0.13928
0.05596,0.13495
0.05858,0.13963
0.05714,0.13847
0.05758,0.13497
0.06026,0.13576
0.05973,0.13863
0.05765,0.13749
0.05857,0.13807
0.05979,0.13930
0.05865,0.13827
0.05747,0.13687
0.05893,0.13862
0.05977,0.13799
0.05962,0.13704
0.05962,0.13924
0.05862,0.14032
0.05691,0.13953
0.05739,0.13868
0.05827,0.13813
0.05745,0.13761
0.06016,0.13896
0.05978,0.14011
0.05841,0.14065
0.05963,0.14054
0.05959,0.13915
0.05744,0.13877
0.05901,0.13814
0.06104,0.13765
0.05809,0.13866
0.05705,0.13984
0.05906,0.14124
0.05883,0.13852
0.05698,0.13536
0.05861,0.13927
0.05752,0.13904
0.05821,0.13715
0.06012,0.13781
0.05879,0.13822
0.05636,0.13454
0.05727,0.13736
0.05887,0.14046
0.05842,0.13835
0.05792,0.13694
0.05946,0.13899
0.05735,0.13477
0.05633,0.13365
0.05902,0.13888
0.05683,0.13350
0.05527,0.13358
0.05703,0.13787
0.05811,0.13676
0.05586,0.13208
0.05616,0.13643
0.05707,0.13549
0.05620,0.13086
0.05579,0.13131
0.05808,0.13375
0.05606,0.13237
0.05627,0.13257
0.05834,0.13387
0.05708,0.13250
0.05734,0.13286
0.05843,0.13148
0.05762,0.13050
0.05549,0.13176
0.05534,0.13266
0.05660,0.13335
0.05642,0.13292
0.05617,0.13115
0.05761,0.13073
0.05786,0.13323
0.05649,0.12829
0.05568,0.12973
0.05554,0.13517
0.05510,0.12856
0.05680,0.12836
0.05685,0.13225
0.05580,0.13246
0.05662,0.13062
0.05767,0.13318
0.05451,0.13087
0.05470,0.12889
0.05749,0.13101
0.05576,0.13174
0.05497,0.12848
0.05513,0.13138
0.05590,0.13432
0.05538,0.13243
0.05277,0.13259
0.05652,0.12817
0.05702,0.12976
0.05565,0.13330
0.05843,0.12984
0.05536,0.13187
0.05404,0.13494
0.05589,0.13377
0.05734,0.13226
0.05759,0.13439
0.05824,0.12916
0.05753,0.12764
0.05587,0.13181
0.05575,0.13313
0.05756,0.13157
0.05797,0.13552
0.05763,0.13501
0.05780,0.13008
0.05746,0.13259
0.05585,0.13437
0.05608,0.13164
0.05728,0.13161
0.05690,0.13448
0.05618,0.13032
0.05818,0.13283
0.05815,0.13720
0.05651,0.13520
0.05735,0.13097
0.05677,0.13378
0.05705,0.13064
0.05748,0.12910
0.05709,0.13432
0.05741,0.13337
0.05716,0.13233
0.05754,0.13360
0.05808,0.13246
0.05682,0.12862
0.05476,0.13136
0.05621,0.13342
0.05739,0.13176
0.05658,0.13121
0.05760,0.13456
0.05796,0.13352
0.05689,0.13279
0.05632,0.13368
0.05673,0.13245
0.05591,0.13016
0.05665,0.13269
0.05702,0.13135
0.05608,0.12803
0.05608,0.13324
0.05708,0.13564
0.05885,0.13307
0.05746,0.13249
0.05441,0.13328
0.05678,0.12751
0.05544,0.13008
0.05357,0.13371
0.05470,0.13208
0.05657,0.13144
0.05811,0.13433
0.05793,0.12991
0.05678,0.12750
0.05609,0.13275
0.05600,0.13254
0.05603,0.12956
0.05698,0.13084
0.05679,0.13127
0.05500,0.12740
0.05673,0.13168
0.05845,0.13332
0.05694,0.13183
0.05454,0.13177
0.05544,0.13186
0.05685,0.13019
0.05649,0.12998
0.05628,0.13068
0.05702,0.13063
0.05576,0.13165
0.05722,0.13047
0.05726,0.13094
0.05515,0.13195
0.05608,0.12898
0.05737,0.12966
0.05584,0.13278
0.05609,0.13182
0.05932,0.12879
0.05838,0.13291
0.05784,0.13337
0.05829,0.13079
0.05763,0.13177
0.05647,0.13489
0.05836,0.13078
0.05862,0.13307
0.05723,0.13430
0.05766,0.12983
0.05938,0.13255
0.05640,0.13275
0.05546,0.13266
0.05714,0.13409
0.05693,0.13460
0.05736,0.13461
0.05490,0.13376
0.05403,0.13266
0.05682,0.13327
0.05803,0.13509
0.05759,0.13230
0.05634,0.13113
0.05552,0.13416
0.05574,0.13568
0.05600,0.13189
0.05519,0.13326
0.05503,0.13325
0.05642,0.13042
0.05739,0.13308
0.05625,0.13517
0.05753,0.13168
0.05688,0.13012
0.05424,0.13283
0.05856,0.13014
0.05689,0.13170
0.05504,0.13316
0.05663,0.13238
0.05631,0.13200
0.05529,0.12803
0.05533,0.13099
0.05459,0.13364
0.05391,0.12925
0.05662,0.12789
0.05664,0.13238
0.05603,0.13345
0.05642,0.12949
0.05691,0.12759
0.05776,0.12984
0.05558,0.13091
0.05482,0.12966
0.05638,0.13015
0.05560,0.13306
0.05702,0.12931
0.05704,0.12994
0.05671,0.13437
0.05808,0.13434
0.05678,0.13225
0.05534,0.12742
0.05648,0.12929
0.05855,0.13349
0.05836,0.12939
0.05761,0.13213
0.05717,0.13228
0.05637,0.13152
0.05567,0.13376
0.05664,0.13116
0.05669,0.13150
0.05489,0.13328
0.05408,0.13287
0.05632,0.13174
0.05765,0.13324
0.05647,0.13431
0.05595,0.13286
0.05723,0.13198
0.05677,0.13488
0.05473,0.13462
0.05593,0.13391
0.05854,0.13313
0.05795,0.13161
0.05685,0.13412
0.05691,0.13341
0.05868,0.13078
0.05886,0.13122
0.05579,0.13368
0.05845,0.13267
0.05691,0.13206
0.05488,0.13262
0.05816,0.13231
0.05546,0.13213
0.05466,0.13082
0.05616,0.13109
0.05754,0.13267
0.05856,0.13263
0.05690,0.13353
0.05493,0.13293
0.05569,0.13181
0.05695,0.13144
0.05412,0.12951
0.05424,0.12759
0.05435,0.12960
0.05328,0.13150
0.05387,0.12895
0.05402,0.13007
0.05566,0.12978
0.05669,0.12957
0.05604,0.13021
0.05627,0.12733
0.05528,0.12783
0.05567,0.13080
0.05622,0.13228
0.05509,0.13044
0.05604,0.12740
0.05455,0.13074
0.05504,0.13058
0.05756,0.12522
0.05552,0.12696
0.05541,0.12935
0.05687,0.12995
0.05706,0.12804
0.05587,0.12643
0.05537,0.13010
0.05449,0.13010
0.05536,0.12832
0.05652,0.12839
0.05534,0.12880
0.05722,0.12934
0.05666,0.12917
0.05598,0.12986
0.05783,0.13154
0.05702,0.13117
0.05775,0.13013
0.05732,0.12897
0.05513,0.12875
0.05535,0.12955
0.05825,0.12835
0.05716,0.12796
0.05589,0.13017
0.05807,0.13155
0.05892,0.12830
0.05886,0.12692
0.05890,0.12864
0.05950,0.13045
0.05929,0.13020
0.05664,0.12973
0.05815,0.13206
0.05869,0.13349
0.05798,0.13304
0.06254,0.13371
0.06187,0.13134
0.05931,0.13290
0.05859,0.13337
0.05907,0.12982
0.06016,0.13481
0.06093,0.13515
0.05920,0.13387
0.05776,0.13327
0.06011,0.13037
0.06010,0.13422
0.05981,0.13314
0.05945,0.13022
0.05854,0.13287
0.05933,0.13420
0.06067,0.13309
0.06211,0.13444
0.06116,0.13493
0.05764,0.13071
0.05866,0.13229
0.06097,0.13341
0.06138,0.13375
0.06143,0.13416
0.06296,0.13234
0.06097,0.13596
0.06064,0.13720
0.06255,0.13408
0.06276,0.13375
0.06306,0.13725
0.06357,0.13680
0.06133,0.13460
0.05925,0.13471
0.06275,0.13582
0.06398,0.13717
0.06220,0.13533
0.06101,0.13610
0.06225,0.13956
0.06368,0.13364
0.06340,0.13582
0.06142,0.13750
0.06032,0.13426
0.06130,0.13538
0.06066,0.13405
0.06291,0.13445
0.06400,0.13571
0.06138,0.13568
0.06247,0.13843
0.06343,0.14276
0.06265,0.13824
0.06247,0.13380
0.06368,0.13909
0.06233,0.13253
0.06225,0.13483
0.06266,0.14014
0.06300,0.13748
0.06521,0.13725
0.06315,0.13795
0.06064,0.13866
0.06090,0.13817
0.06292,0.13620
0.06535,0.13595
0.06422,0.13853
0.06153,0.13985
0.06118,0.13919
0.06308,0.13968
0.06365,0.13820
0.06386,0.13722
0.06457,0.13929
0.06454,0.14090
0.06320,0.13723
0.06428,0.13930
0.06368,0.14086
0.06231,0.13766
0.06536,0.13766
0.06676,0.14304
0.06527,0.14026
0.06395,0.13797
0.06444,0.14463
0.06407,0.14063
