0.70752,1.41328
0.70603,1.41494
0.70565,1.41803
0.68778,1.41249
0.66792,1.40906
0.63883,1.39147
0.49615,1.26674
0.42582,1.19915
0.49158,1.25370
0.58707,1.33966
0.64934,1.38712
0.69538,1.40757
0.69123,1.39585
0.72768,1.42451
0.73381,1.42997
0.20152,1.03847
-0.03970,0.85279
0.07529,0.90583
0.20743,0.98315
0.50083,1.24807
0.64959,1.38126
0.64759,1.37840
0.63895,1.37115
0.66960,1.39376
0.67718,1.40473
0.69839,1.40988
0.71849,1.41035
0.71346,1.40646
0.70929,1.40804
0.71214,1.40793
0.71042,1.40353
0.70654,1.40201
0.70798,1.40876
0.70625,1.41462
0.70895,1.40698
0.70880,1.39608
0.70431,1.39519
0.70687,1.40155
0.71109,1.40521
0.71100,1.41142
0.70908,1.41380
0.70912,1.40920
0.70891,1.41240
0.71005,1.41000
0.71050,1.40338
0.70961,1.40300
0.71013,1.40771
0.71217,1.40238
0.70999,1.40320
0.70755,1.40891
0.70867,1.41223
0.70801,1.41708
0.70774,1.40586
0.70706,1.39630
0.70712,1.39926
0.70984,1.40398
0.71170,1.40606
0.71153,1.40955
0.70970,1.41142
0.70754,1.41118
0.70538,1.40876
0.70014,1.38408
0.69718,1.36938
0.69667,1.36958
0.69481,1.36464
0.69348,1.36524
0.69123,1.37512
0.69079,1.37693
0.69364,1.37365
0.69563,1.38215
0.69215,1.37375
0.68737,1.36404
0.68842,1.37034
0.70052,1.38981
0.71446,1.40696
0.69083,1.40529
0.67554,1.41155
0.62788,1.37073
0.43026,1.18557
0.16079,0.94729
0.13812,0.92289
0.16668,0.94836
0.05600,0.85945
0.06935,0.86714
0.06840,0.87453
0.05412,0.86973
0.05603,0.87593
0.04977,0.88082
0.04615,0.87378
0.05254,0.86931
0.05728,0.87184
0.05286,0.87256
0.04876,0.86885
0.04824,0.87751
0.04758,0.88094
0.04652,0.88028
0.04651,0.88715
0.04544,0.88557
0.04825,0.88224
0.04956,0.87925
0.04958,0.87492
0.05398,0.87227
0.05028,0.87638
0.04928,0.88069
0.05030,0.88692
0.04774,0.89177
0.05036,0.87949
0.05397,0.87090
0.05423,0.87642
0.05475,0.88849
0.05972,0.89718
0.06191,0.90576
0.06407,0.91505
0.06567,0.92565
0.06698,0.93854
0.07286,0.95314
0.07807,0.96695
0.08065,0.98143
0.08347,0.99362
0.08848,1.00298
0.09111,1.01894
0.08751,1.02286
0.08593,1.01318
0.08833,1.00956
0.08644,1.02094
0.08938,1.01711
0.08934,1.01720
0.08662,1.02032
0.08691,1.00962
0.08403,1.00239
0.08413,1.00377
0.08513,1.00466
0.08528,1.00233
0.08620,1.00459
0.08113,1.00835
0.08116,1.00182
0.08589,0.99455
0.08586,0.99816
0.08224,1.00007
0.08261,0.99627
0.08209,0.99847
0.08055,1.00413
0.08311,1.00288
0.08204,1.00897
0.08174,1.00536
0.08288,0.99966
0.08194,1.00594
0.07961,1.00991
0.08049,0.99790
0.08021,0.99492
0.07897,1.00301
0.07980,1.00800
0.07695,1.02773
0.07569,1.03157
0.07864,1.02040
0.08181,1.01524
0.08099,1.02004
0.08030,1.02586
0.08020,1.02858
0.07923,1.02852
0.07786,1.02756
0.07854,1.02674
0.07907,1.02309
0.07947,1.01595
0.08231,1.01069
0.08648,1.01242
0.08323,1.01428
0.07999,1.01195
0.08025,1.01108
0.08079,1.01742
0.08029,1.02582
0.07754,1.02858
0.07906,1.01862
0.08364,1.00704
0.08371,1.00874
0.08324,1.00958
0.08033,1.01019
0.07986,1.01200
0.08295,1.01414
0.08079,1.01802
0.07850,1.02421
0.07994,1.02015
0.07985,1.01613
0.07640,1.02430
0.08144,1.01841
0.08097,1.02048
0.07602,1.02815
0.07441,1.03348
0.07391,1.04397
0.07315,1.04333
0.07603,1.03452
0.07818,1.03209
0.07426,1.03987
0.07114,1.04426
0.06883,1.04873
0.06634,1.05513
0.06712,1.05617
0.07315,1.04547
0.07391,1.03534
0.07057,1.04108
0.06917,1.04820
0.07059,1.04361
0.07037,1.04538
0.07211,1.04701
0.06900,1.05692
0.06657,1.06054
0.07474,1.04014
0.07506,1.03794
0.07235,1.04241
0.07275,1.04162
0.07377,1.04174
0.07112,1.04948
0.06881,1.05556
0.06728,1.05920
0.06985,1.05171
0.07769,1.03364
0.07948,1.03672
0.07265,1.04370
0.07059,1.04472
0.07574,1.04523
0.07372,1.04945
0.07107,1.05457
0.07130,1.05565
0.07147,1.04884
0.07161,1.03934
0.07727,1.04015
0.07615,1.04181
0.07401,1.04113
0.07623,1.04258
0.07460,1.04979
0.06846,1.05920
0.07112,1.05255
0.07662,1.04023
0.07506,1.04061
0.07590,1.04375
0.07614,1.04291
0.07323,1.04418
0.07257,1.04691
0.07608,1.04710
0.07042,1.05487
0.07234,1.04630
0.07680,1.03729
0.07361,1.04376
0.07407,1.04119
0.07754,1.03907
0.07540,1.04363
0.07160,1.05115
0.07464,1.05259
0.07581,1.04262
0.07485,1.03539
0.07735,1.03389
0.08201,1.03171
0.08059,1.02858
0.07663,1.03367
0.07652,1.03555
0.07779,1.03461
0.07801,1.03359
0.08319,1.01910
0.08101,1.01832
0.07731,1.02321
0.07926,1.02086
0.08142,1.02041
0.08149,1.02315
0.08097,1.02597
0.07897,1.02984
0.07735,1.03059
0.08187,1.01937
0.08269,1.01779
0.08226,1.01986
0.08404,1.01755
0.08397,1.01865
0.07980,1.02668
0.07829,1.03151
0.08073,1.02641
0.08275,1.01792
0.08246,1.01798
0.08351,1.02076
0.08214,1.02377
0.08127,1.02562
0.08399,1.02685
0.07896,1.03367
0.07570,1.04217
0.07792,1.03797
0.08034,1.02603
0.07998,1.02703
0.08243,1.02392
0.08343,1.02251
0.08234,1.02621
0.08204,1.02888
0.07988,1.03076
0.07717,1.03491
0.07961,1.03089
0.08438,1.02104
0.08314,1.02095
0.08250,1.02100
0.08416,1.01843
0.08616,1.01715
0.08588,1.02087
0.08231,1.02753
0.07934,1.02979
0.07805,1.03266
0.07880,1.03208
0.07980,1.02434
0.07543,1.03319
0.07707,1.03623
0.07818,1.04872
0.07052,1.08492
0.06428,1.11482
0.06083,1.13950
0.05873,1.14056
0.07913,1.12854
0.09024,1.08184
0.04685,0.95544
0.40488,1.14424
0.72510,1.29087
0.54379,0.96381
0.21335,0.42837
0.03927,0.09852
0.00700,0.00801
0.01150,0.01163
0.00802,0.01155
0.00596,0.01363
0.00831,0.01262
0.01098,0.01100
0.01025,0.01023
0.00678,0.00753
0.00447,0.01114
0.00724,0.01188
0.00926,0.00919
0.00565,0.00845
0.00388,0.00735
0.00681,0.00999
0.00825,0.01443
0.00580,0.01340
0.00480,0.00659
0.00806,0.00801
0.00935,0.01074
0.00761,0.01222
0.00589,0.01330
0.00546,0.01092
0.00759,0.01048
0.00716,0.01178
0.00537,0.01240
0.00662,0.01278
0.00596,0.01434
0.00532,0.00965
0.00534,0.00851
0.00550,0.01449
0.00660,0.01379
0.00868,0.01119
0.00848,0.01041
0.00727,0.00954
0.00758,0.00973
0.00691,0.01700
0.00838,0.01543
0.00782,0.01092
0.00487,0.01031
0.00600,0.00815
0.00884,0.00994
0.00838,0.01440
0.00567,0.01454
0.00568,0.00973
0.00898,0.00928
0.00856,0.01108
0.00662,0.01138
0.00608,0.01236
0.00589,0.01446
0.00685,0.00758
0.00722,0.00806
0.00549,0.01420
0.00440,0.01548
0.00758,0.01562
0.00780,0.01634
0.00711,0.01154
0.00572,0.00826
0.00263,0.01454
0.00501,0.01495
0.00819,0.01611
0.00761,0.01691
0.00508,0.01277
0.00588,0.00897
0.00965,0.01331
0.00886,0.01420
0.00578,0.01151
0.00632,0.01344
0.00609,0.01385
0.00773,0.01022
0.00845,0.00946
0.00624,0.01369
0.00498,0.01556
0.00740,0.01282
0.00962,0.01198
0.00867,0.01116
0.00626,0.00836
0.00645,0.01135
0.00878,0.01472
0.00776,0.01484
0.00469,0.01288
0.00568,0.01114
0.00726,0.00973
0.00782,0.01094
0.00831,0.01536
0.00863,0.01725
0.00727,0.01145
0.00750,0.01149
0.00777,0.00920
0.00698,0.00643
0.00645,0.01355
0.00664,0.01835
0.00844,0.01462
0.00866,0.00958
0.00690,0.00947
0.00683,0.01099
0.00514,0.01281
0.00606,0.01635
0.00799,0.01719
0.00648,0.01239
0.00546,0.00992
0.00532,0.01034
0.00641,0.01192
0.00820,0.01528
0.00834,0.01901
0.00589,0.01379
0.00672,0.01131
0.00769,0.01302
0.00501,0.01209
0.00554,0.01164
0.00750,0.01491
0.00738,0.01727
0.00645,0.01350
0.00720,0.00775
0.00560,0.01182
0.00419,0.01368
0.00649,0.01379
0.00982,0.01674
0.00785,0.01525
0.00586,0.01133
0.00747,0.00966
0.00785,0.01127
0.00427,0.01328
0.00647,0.01383
0.00717,0.01703
0.00669,0.01665
0.00809,0.01099
0.00802,0.01033
0.00594,0.01376
0.00561,0.01385
0.00677,0.01259
0.00685,0.01529
0.00702,0.01627
0.00572,0.01161
0.00686,0.00985
0.00927,0.01212
0.00725,0.01054
0.00723,0.01334
0.00844,0.01778
0.00776,0.01666
0.00644,0.01151
0.00822,0.01251
0.00713,0.01423
0.00427,0.01451
0.00524,0.01695
0.00981,0.02062
0.00825,0.01485
0.00408,0.01286
0.00468,0.01575
0.00792,0.01639
0.00566,0.01649
0.00797,0.01755
0.00889,0.01590
0.00586,0.01284
0.00552,0.01396
0.00813,0.01804
0.00863,0.01728
0.00593,0.01773
0.00422,0.01926
0.00651,0.01175
0.00693,0.01139
0.00502,0.01637
0.00549,0.01855
0.00926,0.01755
0.00973,0.01886
0.00938,0.01582
0.00931,0.01266
0.00792,0.01498
0.00568,0.01873
0.00765,0.01762
0.00909,0.01735
0.00757,0.01796
0.00598,0.01514
0.00695,0.01219
0.00880,0.01746
0.00689,0.02030
0.00449,0.01722
0.00721,0.01696
0.00724,0.01580
0.00740,0.01458
0.00721,0.01572
0.00548,0.01806
0.00758,0.01568
