0.43454,0.56457
0.43368,0.56283
0.43321,0.56134
0.43325,0.56095
0.43374,0.56157
0.43429,0.56224
0.43452,0.56270
0.43525,0.56403
0.43527,0.56373
0.43405,0.56117
0.43403,0.56121
0.43393,0.56074
0.43387,0.56063
0.43438,0.56195
0.43509,0.56318
0.43544,0.56366
0.43490,0.56248
0.43451,0.56150
0.43506,0.56226
0.43567,0.56336
0.43651,0.56467
0.43745,0.56649
0.43747,0.56676
0.43654,0.56481
0.43699,0.56536
0.43726,0.56584
0.43755,0.56650
0.43835,0.56807
0.43879,0.56910
0.43970,0.57101
0.43909,0.56986
0.43781,0.56756
0.43789,0.56809
0.43771,0.56779
0.43786,0.56836
0.43816,0.56931
0.43861,0.57042
0.43916,0.57184
0.43762,0.56931
0.43678,0.56771
0.43671,0.56765
0.43611,0.56695
0.43640,0.56762
0.43659,0.56839
0.43692,0.56952
0.43690,0.56970
0.43569,0.56738
0.43505,0.56614
0.43500,0.56593
0.43511,0.56612
0.43523,0.56650
0.43537,0.56687
0.43552,0.56773
0.43548,0.56811
0.43472,0.56675
0.43339,0.56425
0.43283,0.56326
0.43245,0.56277
0.43227,0.56286
0.43242,0.56355
0.43257,0.56404
0.43316,0.56542
0.43221,0.56405
0.43062,0.56136
0.43037,0.56086
0.42978,0.55976
0.42861,0.55840
0.42801,0.55808
0.42821,0.55873
0.42843,0.55951
0.42882,0.56076
0.42798,0.55921
0.42712,0.55729
0.42759,0.55805
0.42770,0.55824
0.42823,0.55919
0.42817,0.55932
0.42802,0.55948
0.42865,0.56088
0.42658,0.55750
0.42403,0.55387
0.41842,0.54714
0.41074,0.53769
0.40925,0.53598
0.40867,0.53553
0.40813,0.53513
0.40857,0.53611
0.40867,0.53659
0.40726,0.53398
0.40922,0.53594
0.41288,0.54055
0.41425,0.54239
0.41394,0.54248
0.41447,0.54343
0.41582,0.54575
0.41633,0.54665
0.41584,0.54533
0.41661,0.54612
0.41695,0.54654
0.41713,0.54695
0.41755,0.54782
0.41775,0.54837
0.41892,0.55074
0.41882,0.55026
0.41786,0.54815
0.41767,0.54782
0.41728,0.54698
0.41739,0.54748
0.41785,0.54858
0.41863,0.54991
0.41965,0.55151
0.41927,0.55042
0.41902,0.54955
0.41963,0.55018
0.42054,0.55133
0.42141,0.55264
0.42228,0.55406
0.42305,0.55539
0.42384,0.55683
0.42434,0.55757
0.42349,0.55551
0.42325,0.55491
0.42341,0.55522
0.42341,0.55507
0.42405,0.55613
0.42456,0.55709
0.42549,0.55887
0.42584,0.55938
0.42456,0.55677
0.42411,0.55580
0.42745,0.55981
0.43061,0.56383
0.43077,0.56421
0.43042,0.56374
0.43021,0.56411
0.42925,0.56256
0.42783,0.55974
0.42681,0.55808
0.42614,0.55697
0.42586,0.55637
0.42594,0.55651
0.42603,0.55686
0.42602,0.55705
0.42633,0.55797
0.42510,0.55577
0.42356,0.55279
0.42311,0.55193
0.42233,0.55056
0.42215,0.55057
0.42219,0.55092
0.42241,0.55143
0.42270,0.55212
0.42147,0.55007
0.42059,0.54826
0.42018,0.54744
0.41975,0.54684
0.41981,0.54697
0.42001,0.54761
0.42032,0.54826
0.42091,0.54944
0.42112,0.55020
0.41987,0.54758
0.41931,0.54640
0.41905,0.54604
0.41854,0.54534
0.41879,0.54614
0.41929,0.54716
0.41993,0.54840
0.42037,0.54920
0.42030,0.54881
0.41997,0.54795
0.41971,0.54752
0.41967,0.54750
0.42002,0.54815
0.42055,0.54934
0.42049,0.54947
0.42086,0.55041
0.42119,0.55108
0.42089,0.55024
0.42090,0.54981
0.42080,0.54953
0.42078,0.54941
0.42078,0.54954
0.42103,0.55040
0.42218,0.55208
0.42031,0.55007
0.42805,0.55951
0.44562,0.58067
0.45271,0.58933
0.45549,0.59256
0.45538,0.59268
0.45457,0.59235
0.45502,0.59329
0.45321,0.59128
0.45348,0.59236
0.45539,0.59480
0.45623,0.59506
0.45631,0.59489
0.45812,0.59668
0.46054,0.59971
0.46204,0.60201
0.45968,0.59942
0.45196,0.59049
0.45187,0.59107
0.45299,0.59198
0.45136,0.58908
0.45314,0.59158
0.45425,0.59266
0.45076,0.58782
0.44847,0.58506
0.45145,0.58952
0.45362,0.59294
0.45399,0.59288
0.45353,0.59191
0.45320,0.59152
0.45341,0.59153
0.45405,0.59276
0.45363,0.59260
0.45182,0.59067
0.44912,0.58722
0.44592,0.58194
0.44287,0.57763
0.44102,0.57470
0.44186,0.57512
0.44119,0.57443
0.43132,0.56211
0.43018,0.56153
0.43536,0.56824
0.43876,0.57185
0.44184,0.57600
0.44252,0.57702
0.44279,0.57743
0.44358,0.57849
0.44439,0.57965
0.44547,0.58138
0.44558,0.58120
0.44557,0.58031
0.44538,0.57907
0.44334,0.57584
0.44031,0.57222
0.44037,0.57257
0.44223,0.57537
0.44277,0.57650
0.44261,0.57560
0.44225,0.57427
0.44129,0.57259
0.44015,0.57099
0.43958,0.57031
0.43945,0.57046
0.44129,0.57322
0.44204,0.57419
0.44047,0.57153
0.43976,0.56963
0.43791,0.56701
0.43735,0.56627
0.43771,0.56674
0.43710,0.56622
0.43776,0.56720
0.43873,0.56878
0.43826,0.56773
0.43714,0.56518
0.43739,0.56515
0.43734,0.56486
0.43771,0.56537
0.43807,0.56605
0.43812,0.56645
0.43940,0.56854
0.43995,0.56807
0.44163,0.56919
0.44431,0.57237
0.44610,0.57377
0.45019,0.57852
0.45448,0.58364
0.45778,0.58802
0.45948,0.59052
0.45842,0.58816
0.45762,0.58685
0.45702,0.58629
0.45648,0.58575
0.45651,0.58623
0.45618,0.58656
0.45611,0.58731
0.45510,0.58634
0.45286,0.58317
0.45155,0.58108
0.45130,0.58049
0.45207,0.58157
0.45338,0.58358
0.45486,0.58571
0.45651,0.58798
0.45568,0.58739
0.45252,0.58306
0.44817,0.57676
0.44370,0.57142
0.44200,0.56948
0.44209,0.56980
0.44322,0.57169
0.44518,0.57488
0.44646,0.57718
0.44589,0.57570
0.44481,0.57362
0.44378,0.57245
0.44248,0.57082
0.44239,0.57102
0.44077,0.56958
0.43779,0.56674
0.43648,0.56567
0.43769,0.56645
0.43735,0.56552
0.43668,0.56468
0.43727,0.56565
0.43830,0.56741
0.43934,0.56929
0.44082,0.57188
0.44051,0.57184
0.43812,0.56849
0.43684,0.56637
0.43626,0.56545
0.43621,0.56562
0.43665,0.56654
0.43730,0.56777
0.43796,0.56928
0.43828,0.57028
0.43770,0.56935
0.43694,0.56776
0.43722,0.56816
0.43740,0.56867
0.43795,0.56961
0.43926,0.57158
0.44085,0.57406
0.44182,0.57546
0.44115,0.57385
0.43985,0.57163
0.43906,0.57084
0.43899,0.57099
0.43965,0.57211
0.44027,0.57339
0.44080,0.57458
0.44072,0.57441
0.43915,0.57149
0.43855,0.57029
0.43854,0.57028
0.43857,0.57045
0.43890,0.57114
0.43908,0.57155
0.43956,0.57280
0.43913,0.57207
0.43808,0.56957
0.43841,0.56981
0.43780,0.56892
0.43734,0.56850
0.43742,0.56899
0.43747,0.56945
0.43799,0.57095
0.43653,0.56847
0.43461,0.56520
0.43378,0.56418
0.43312,0.56331
0.43306,0.56355
0.43268,0.56344
0.43240,0.56369
0.43226,0.56401
0.43066,0.56115
0.43026,0.56025
0.43028,0.56006
0.43008,0.55955
0.43047,0.56042
0.43044,0.56087
0.43112,0.56245
0.43092,0.56211
0.42932,0.55908
0.42918,0.55872
0.42879,0.55801
0.42868,0.55787
0.42902,0.55867
0.42928,0.55943
0.43017,0.56111
0.42931,0.55944
0.42818,0.55737
0.42834,0.55770
0.42835,0.55758
0.42889,0.55850
0.42936,0.55942
0.43008,0.56075
0.43098,0.56223
0.43004,0.56039
0.42970,0.55955
0.42986,0.55958
0.42994,0.55964
0.43058,0.56098
0.43108,0.56189
0.43192,0.56342
0.43204,0.56374
0.43098,0.56171
0.43081,0.56103
0.43081,0.56087
0.43097,0.56118
0.43126,0.56194
0.43146,0.56275
0.43209,0.56405
0.43202,0.56400
0.43124,0.56252
0.43063,0.56116
0.43036,0.56068
0.43016,0.56050
0.43031,0.56104
0.43071,0.56201
0.43114,0.56298
0.43173,0.56446
0.43082,0.56263
0.42981,0.56060
0.42980,0.56077
0.42944,0.56009
0.42954,0.56060
0.42964,0.56115
0.42997,0.56208
0.43033,0.56308
0.42880,0.56026
0.42822,0.55916
0.42920,0.56033
0.43054,0.56196
0.43131,0.56361
0.43117,0.56360
0.43114,0.56394
0.43080,0.56376
0.42986,0.56199
0.42976,0.56140
0.42946,0.56086
0.42926,0.56075
0.42944,0.56133
0.42957,0.56190
0.42995,0.56280
0.43008,0.56323
0.42947,0.56216
0.42858,0.56046
0.42845,0.56030
0.42855,0.56052
0.42880,0.56119
0.42916,0.56225
0.42958,0.56322
0.43003,0.56416
0.42921,0.56248
0.42841,0.56084
0.42850,0.56113
0.42833,0.56092
0.42874,0.56171
0.42908,0.56249
0.42956,0.56375
0.43010,0.56500
0.42888,0.56241
0.42853,0.56164
0.42864,0.56179
0.42849,0.56138
0.42900,0.56248
0.42932,0.56326
0.42984,0.56458
0.42984,0.56478
0.42897,0.56290
0.42874,0.56235
0.42843,0.56185
0.42829,0.56172
0.42853,0.56238
0.42876,0.56307
0.42908,0.56383
0.42978,0.56517
0.42940,0.56443
0.42791,0.56160
0.42772,0.56131
0.42740,0.56072
0.42737,0.56069
0.42780,0.56157
0.42811,0.56231
0.42873,0.56369
0.42934,0.56402
0.43003,0.56416
0.43028,0.56432
0.42939,0.56297
0.42942,0.56305
0.42981,0.56379
0.43002,0.56443
0.43040,0.56540
0.43071,0.56585
0.42975,0.56410
0.42887,0.56245
0.42884,0.56224
0.42863,0.56205
0.42891,0.56265
0.42929,0.56331
0.42991,0.56454
0.43024,0.56527
0.42883,0.56239
0.42845,0.56147
0.42844,0.56130
0.42805,0.56061
0.42816,0.56123
0.42851,0.56193
0.42915,0.56324
0.42907,0.56320
0.42793,0.56085
0.42763,0.55997
