0.13185,0.18396
0.13230,0.18436
0.13131,0.18195
0.13053,0.18103
0.13051,0.18168
0.13064,0.18114
0.13066,0.18101
0.13068,0.18182
0.13039,0.18169
0.12991,0.18024
0.13007,0.18030
0.12994,0.18067
0.13017,0.18135
0.13066,0.18203
0.13049,0.18181
0.13075,0.18172
0.13119,0.18269
0.13143,0.18367
0.13172,0.18422
0.13231,0.18548
0.13230,0.18528
0.13240,0.18534
0.13303,0.18634
0.13362,0.18699
0.13389,0.18782
0.13458,0.18898
0.13479,0.18890
0.13419,0.18793
0.13418,0.18851
0.13436,0.18899
0.13470,0.18905
0.13519,0.18984
0.13520,0.19046
0.13393,0.18774
0.13310,0.18632
0.13287,0.18593
0.13280,0.18583
0.13270,0.18672
0.13155,0.18446
0.13088,0.18322
0.13092,0.18371
0.13103,0.18371
0.13168,0.18441
0.13219,0.18531
0.13163,0.18491
0.13109,0.18392
0.13188,0.18413
0.13190,0.18451
0.13245,0.18610
0.13221,0.18584
0.13079,0.18340
0.13145,0.18452
0.13270,0.18658
0.13355,0.18796
0.13469,0.18956
0.13634,0.19179
0.13660,0.19255
0.13650,0.19230
0.13624,0.19203
0.13591,0.19192
0.13644,0.19198
0.13728,0.19331
0.13687,0.19285
0.13616,0.19172
0.13670,0.19265
0.13721,0.19334
0.13846,0.19552
0.13910,0.19687
0.13843,0.19572
0.13797,0.19450
0.13821,0.19479
0.13841,0.19537
0.13861,0.19592
0.13876,0.19629
0.13805,0.19539
0.13800,0.19524
0.13832,0.19522
0.13820,0.19486
0.13796,0.19528
0.13838,0.19636
0.13817,0.19575
0.13807,0.19481
0.13876,0.19546
0.13872,0.19611
0.13855,0.19582
0.13914,0.19667
0.13949,0.19740
0.13866,0.19587
0.13864,0.19590
0.13888,0.19658
0.13913,0.19698
0.13966,0.19782
0.14013,0.19907
0.13933,0.19763
0.13893,0.19715
0.13960,0.19823
0.14024,0.19865
0.14045,0.19976
0.14088,0.20059
0.14081,0.19975
0.14010,0.19851
0.13991,0.19905
0.14006,0.19902
0.13999,0.19898
0.14050,0.19990
0.14126,0.20056
0.13996,0.19908
0.13965,0.19881
0.13989,0.19926
0.13996,0.19908
0.14059,0.19928
0.14075,0.20092
0.14005,0.19962
0.13964,0.19788
0.13993,0.19885
0.13980,0.19916
0.14023,0.19910
0.14075,0.20041
0.14047,0.20082
0.13969,0.19854
0.13974,0.19887
0.13983,0.19895
0.13977,0.19883
0.14015,0.20004
0.14081,0.20101
0.13987,0.19955
0.13953,0.19882
0.13999,0.19932
0.13980,0.19932
0.14002,0.20003
0.14054,0.20076
0.14026,0.19982
0.13953,0.19855
0.13967,0.19942
0.13951,0.19912
0.13962,0.19914
0.14015,0.20011
0.14028,0.20026
0.13955,0.19889
0.13948,0.19901
0.13980,0.19960
0.13978,0.19959
0.13980,0.20009
0.14058,0.20103
0.14006,0.20007
0.13917,0.19888
0.13949,0.19933
0.13985,0.19948
0.13967,0.19936
0.14014,0.20034
0.14039,0.20063
0.13928,0.19874
0.13933,0.19888
0.13984,0.19922
0.13987,0.19906
0.13979,0.19961
0.14003,0.20063
0.13910,0.19898
0.13892,0.19772
0.13955,0.19825
0.13940,0.19866
0.13913,0.19840
0.13957,0.19923
0.13952,0.19862
0.13883,0.19688
0.13893,0.19784
0.13917,0.19849
0.13961,0.19861
0.13988,0.19896
0.13965,0.19909
0.13946,0.19809
0.13973,0.19813
0.13993,0.19872
0.14014,0.19917
0.14061,0.19967
0.14005,0.19901
0.13973,0.19824
0.13993,0.19812
0.14006,0.19856
0.14036,0.19947
0.14104,0.20085
0.14078,0.20015
0.14006,0.19869
0.14030,0.19923
0.14042,0.19906
0.14056,0.19887
0.14098,0.19960
0.14089,0.19966
0.13967,0.19753
0.13976,0.19760
0.13989,0.19804
0.13973,0.19791
0.14047,0.19888
0.14142,0.20045
0.14093,0.19926
0.14098,0.19866
0.14198,0.20026
0.14159,0.20047
0.14134,0.20019
0.14210,0.20143
0.14225,0.20140
0.14126,0.19918
0.14164,0.20012
0.14172,0.20060
0.14163,0.20043
0.14219,0.20140
0.14279,0.20257
0.14200,0.20060
0.14203,0.20004
0.14256,0.20095
0.14234,0.20100
0.14248,0.20146
0.14343,0.20291
0.14310,0.20268
0.14234,0.20153
0.14313,0.20212
0.14297,0.20236
0.14282,0.20243
0.14348,0.20323
0.14401,0.20396
0.14342,0.20306
0.14349,0.20271
0.14376,0.20274
0.14361,0.20301
0.14360,0.20382
0.14431,0.20441
0.14413,0.20412
0.14376,0.20336
0.14413,0.20341
0.14441,0.20440
0.14381,0.20379
0.14361,0.20385
0.14367,0.20393
0.14345,0.20284
0.14393,0.20316
0.14422,0.20355
0.14517,0.20559
0.14702,0.20923
0.14802,0.21067
0.14680,0.20795
0.14594,0.20692
0.14590,0.20714
0.14563,0.20581
0.14540,0.20524
0.14524,0.20615
0.14454,0.20476
0.14402,0.20316
0.14447,0.20509
0.14449,0.20479
0.14482,0.20459
0.14546,0.20559
0.14541,0.20578
0.14452,0.20427
0.14463,0.20486
0.14497,0.20509
0.14495,0.20485
0.14499,0.20563
0.14507,0.20480
0.14466,0.20454
0.14454,0.20469
0.14477,0.20441
0.14465,0.20474
0.14547,0.20643
0.14530,0.20601
0.14464,0.20471
0.14491,0.20505
0.14485,0.20476
0.14480,0.20487
0.14512,0.20609
0.14524,0.20640
0.14479,0.20446
0.14491,0.20442
0.14492,0.20509
0.14471,0.20511
0.14502,0.20521
0.14571,0.20599
0.14475,0.20499
0.14422,0.20403
0.14458,0.20432
0.14439,0.20471
0.14482,0.20506
0.14515,0.20569
0.14476,0.20499
0.14425,0.20359
0.14440,0.20419
0.14413,0.20360
0.14462,0.20430
0.14505,0.20549
0.14419,0.20441
0.14403,0.20344
0.14395,0.20341
0.14411,0.20377
0.14473,0.20447
0.14495,0.20526
0.14419,0.20399
0.14420,0.20358
0.14456,0.20400
0.14426,0.20372
0.14452,0.20436
0.14499,0.20541
0.14452,0.20467
0.14401,0.20326
0.14480,0.20387
0.14471,0.20411
0.14441,0.20400
0.14499,0.20492
0.14546,0.20578
0.14424,0.20396
0.14437,0.20322
0.14464,0.20379
0.14431,0.20425
0.14467,0.20468
0.14541,0.20595
0.14457,0.20455
0.14388,0.20373
0.14458,0.20515
0.14477,0.20465
0.14482,0.20510
0.14524,0.20619
0.14523,0.20583
0.14456,0.20427
0.14490,0.20450
0.14472,0.20502
0.14470,0.20511
0.14549,0.20588
0.14570,0.20716
0.14474,0.20521
0.14467,0.20446
0.14498,0.20516
0.14455,0.20506
0.14497,0.20614
0.14559,0.20677
0.14536,0.20580
0.14471,0.20491
0.14474,0.20567
0.14480,0.20544
0.14486,0.20548
0.14532,0.20684
0.14554,0.20741
0.14449,0.20505
0.14471,0.20488
0.14526,0.20576
0.14516,0.20574
0.14523,0.20603
0.14570,0.20765
0.14502,0.20635
0.14460,0.20532
0.14522,0.20646
0.14518,0.20581
0.14571,0.20700
0.14630,0.20814
0.14595,0.20756
0.14519,0.20673
0.14569,0.20717
0.14563,0.20727
0.14531,0.20719
0.14589,0.20814
0.14672,0.20926
0.14588,0.20706
0.14560,0.20632
0.14607,0.20729
0.14588,0.20734
0.14571,0.20813
0.14620,0.20888
0.14592,0.20795
0.14513,0.20665
0.14547,0.20705
0.14562,0.20656
0.14551,0.20685
0.14574,0.20810
0.14597,0.20822
0.14520,0.20647
0.14484,0.20622
0.14486,0.20657
0.14494,0.20623
0.14534,0.20647
0.14586,0.20832
0.14530,0.20654
0.14468,0.20507
0.14485,0.20663
0.14489,0.20623
0.14529,0.20632
0.14597,0.20743
0.14581,0.20764
0.14478,0.20647
0.14503,0.20653
0.14512,0.20664
0.14504,0.20695
0.14560,0.20790
0.14624,0.20850
0.14532,0.20757
0.14508,0.20695
0.14555,0.20708
0.14529,0.20714
0.14527,0.20753
0.14630,0.20902
0.14595,0.20826
0.14470,0.20611
0.14527,0.20666
0.14543,0.20699
0.14516,0.20660
0.14554,0.20733
0.14611,0.20818
0.14532,0.20609
0.14529,0.20638
0.14538,0.20745
0.14525,0.20738
0.14572,0.20769
0.14636,0.20903
0.14651,0.20906
0.14550,0.20709
0.14352,0.20399
0.14175,0.20087
0.14091,0.19945
0.14105,0.20005
0.14168,0.20138
0.14161,0.20126
0.14006,0.19909
0.14055,0.19920
0.13905,0.19658
0.13547,0.19159
0.13570,0.19209
0.13572,0.19266
0.13576,0.19251
0.13625,0.19284
0.13685,0.19396
0.13761,0.19487
0.13650,0.19339
0.13498,0.19143
0.13543,0.19220
0.13836,0.19661
0.14246,0.20259
0.14553,0.20755
0.14624,0.20929
0.14542,0.20820
0.14494,0.20694
0.14403,0.20527
0.14323,0.20380
0.14314,0.20365
0.14317,0.20406
0.14234,0.20239
0.14210,0.20215
0.14232,0.20272
0.14269,0.20294
0.14368,0.20435
0.14360,0.20487
0.14271,0.20340
0.14242,0.20284
0.14302,0.20448
0.14312,0.20398
0.14345,0.20473
0.14343,0.20509
0.14296,0.20394
0.14313,0.20413
0.14349,0.20507
0.14382,0.20600
0.14409,0.20627
0.14404,0.20587
0.14351,0.20567
0.14365,0.20558
0.14418,0.20595
0.14470,0.20693
0.14499,0.20746
0.14424,0.20606
0.14403,0.20550
0.14418,0.20591
0.14410,0.20615
0.14451,0.20663
0.14429,0.20593
0.14373,0.20494
0.14355,0.20455
0.14374,0.20460
0.14378,0.20513
0.14435,0.20569
0.14437,0.20522
0.14350,0.20416
0.14328,0.20413
0.14340,0.20386
0.14344,0.20414
0.14367,0.20502
0.14400,0.20504
0.14348,0.20361
0.14309,0.20301
0.14299,0.20278
0.14280,0.20252
0.14277,0.20341
0.14352,0.20444
0.14350,0.20351
0.14300,0.20229
0.14303,0.20272
0.14300,0.20311
0.14392,0.20479
0.14505,0.20725
0.14526,0.20797
0.14483,0.20624
0.14502,0.20601
0.14505,0.20699
0.14502,0.20740
0.14549,0.20720
0.14598,0.20883
