0.42154,0.40873
0.42339,0.40857
0.42203,0.40991
0.42044,0.40730
0.41950,0.40466
0.41840,0.40914
0.41822,0.41077
0.42038,0.40657
0.42124,0.40595
0.41994,0.41012
0.42235,0.40541
0.42171,0.40674
0.42220,0.40667
0.42245,0.40539
0.41800,0.41026
0.42146,0.40245
0.42093,0.40869
0.42083,0.41692
0.42562,0.40884
0.42244,0.40558
0.42063,0.40787
0.42043,0.41002
0.41993,0.40887
0.42121,0.40657
0.42434,0.40855
0.42175,0.41435
0.42168,0.41196
0.42639,0.40697
0.42367,0.41604
0.42174,0.41016
0.42197,0.40763
0.42153,0.41098
0.42020,0.40795
0.42086,0.41156
0.42175,0.41044
0.42395,0.40912
0.42501,0.41282
0.42179,0.41254
0.42336,0.40436
0.42292,0.40922
0.42088,0.41363
0.42254,0.40552
0.42435,0.41259
0.42389,0.41222
0.42455,0.40955
0.42571,0.41058
0.42409,0.40942
0.42418,0.41470
0.42210,0.41444
0.42258,0.41033
0.42743,0.41277
0.42698,0.41748
0.42486,0.40755
0.42416,0.40944
0.42381,0.41906
0.42263,0.41189
0.42302,0.41236
0.42379,0.41540
0.42541,0.41618
0.42776,0.41503
0.42823,0.41246
0.42633,0.41395
0.42492,0.41847
0.42491,0.41695
0.42539,0.41196
0.42677,0.42101
0.42894,0.41535
0.42910,0.41176
0.42686,0.42079
0.42517,0.41936
0.42448,0.41432
0.42664,0.41703
0.42812,0.42019
0.42797,0.41695
0.43183,0.41818
0.43021,0.41705
0.42831,0.42024
0.43035,0.42322
0.43079,0.41720
0.42826,0.42296
0.42911,0.42329
0.43082,0.41705
0.42961,0.41737
0.42921,0.42178
0.42786,0.41414
0.42639,0.41551
0.42716,0.42373
0.42764,0.41606
0.42083,0.40695
0.42017,0.40979
0.42372,0.41482
0.42458,0.41469
0.42491,0.41616
0.42223,0.41162
0.42001,0.41433
0.42107,0.41649
0.42201,0.40857
0.41697,0.41246
0.41209,0.40681
0.40790,0.39996
0.40254,0.40252
0.39539,0.39948
0.38423,0.38221
0.38231,0.38288
0.38510,0.38906
0.38047,0.38036
0.37449,0.38328
0.37600,0.38188
0.37830,0.38008
0.37794,0.38155
0.38013,0.38070
0.38211,0.38464
0.37880,0.38356
0.37734,0.37639
0.38121,0.37586
0.38092,0.38669
0.38118,0.38129
0.38193,0.37955
0.38217,0.38548
0.38352,0.38192
0.38626,0.38219
0.38587,0.38441
0.38621,0.38589
0.38835,0.38768
0.38761,0.39047
0.39232,0.39212
0.39437,0.39594
0.39296,0.39457
0.39418,0.38840
0.39436,0.39814
0.39313,0.39675
0.39328,0.39222
0.39414,0.39621
0.39298,0.39704
0.39386,0.39456
0.39458,0.39553
0.39573,0.39613
0.39738,0.39473
0.39499,0.39948
0.39374,0.39245
0.39386,0.39465
0.39417,0.40234
0.39553,0.39231
0.39732,0.39787
0.39552,0.40099
0.39357,0.39462
0.39495,0.39286
0.39574,0.40088
0.39592,0.40023
0.39859,0.39908
0.39968,0.39980
0.39584,0.39729
0.39645,0.40211
0.39500,0.39709
0.39527,0.39711
0.39862,0.40557
0.39678,0.39737
0.39663,0.39663
0.39940,0.40380
0.40032,0.40327
0.39753,0.39586
0.39632,0.40275
0.39521,0.40031
0.39576,0.39718
0.39883,0.40033
0.40057,0.39786
0.39751,0.40246
0.39661,0.39801
0.39796,0.39352
0.39709,0.40264
0.39584,0.40490
0.39674,0.39747
0.39735,0.40093
0.39771,0.40664
0.39900,0.39511
0.39594,0.40067
0.39592,0.40273
0.39723,0.39964
0.39640,0.40091
0.39766,0.39859
0.39586,0.40097
0.39404,0.40258
0.39585,0.39795
0.39806,0.39441
0.39492,0.40150
0.39462,0.39671
0.39671,0.39565
0.39648,0.40380
0.39516,0.39485
0.39615,0.39329
0.39608,0.39875
0.39492,0.40101
0.39432,0.39829
0.39225,0.39631
0.39613,0.39646
0.39675,0.40045
0.39344,0.40042
0.39719,0.39241
0.39563,0.40165
0.39437,0.39967
0.39672,0.39217
0.39768,0.39990
0.39461,0.40315
0.39388,0.39825
0.39535,0.39900
0.39674,0.40190
0.39717,0.39523
0.39485,0.39785
0.39356,0.39742
0.39423,0.39632
0.39474,0.39878
0.39487,0.39488
0.39772,0.40030
0.39615,0.40426
0.39334,0.39887
0.39634,0.39536
0.39476,0.40204
0.39273,0.39612
0.39390,0.39160
0.39589,0.39726
0.39555,0.39326
0.39617,0.39695
0.39627,0.39666
0.39496,0.39522
0.39330,0.40165
0.39219,0.39848
0.39526,0.39516
0.39876,0.39926
0.39860,0.39982
0.39641,0.39012
0.39492,0.39997
0.39358,0.40020
0.39327,0.39278
0.39531,0.39717
0.39784,0.39819
0.39763,0.39759
0.39582,0.39627
0.39511,0.39584
0.39609,0.39882
0.39655,0.40061
0.39476,0.39368
0.39310,0.39349
0.39330,0.39929
0.39320,0.38624
0.39308,0.39146
0.39273,0.39343
0.39044,0.38612
0.38708,0.38970
0.38816,0.39021
0.38919,0.39217
0.38994,0.39219
0.39104,0.38675
0.39060,0.38490
0.39158,0.39363
0.39098,0.39167
0.38886,0.38730
0.38877,0.39456
0.39037,0.38861
0.38949,0.39154
0.38951,0.39439
0.39095,0.39163
0.38958,0.39544
0.39023,0.38731
0.39098,0.38712
0.38945,0.39583
0.38820,0.39571
0.39113,0.38819
0.39165,0.39172
0.39353,0.39499
0.39356,0.39230
0.38757,0.39204
0.39309,0.38667
0.39472,0.39192
0.39153,0.39343
0.39160,0.38567
0.39124,0.39480
0.39167,0.39268
0.39454,0.38944
0.39584,0.39265
0.39378,0.39388
0.39607,0.39728
0.39184,0.39384
0.39030,0.38863
0.39590,0.39170
0.39449,0.39783
0.39392,0.38974
0.39481,0.38911
0.39528,0.39497
0.39523,0.39214
0.39449,0.39388
0.39341,0.39147
0.39406,0.39390
0.39487,0.39728
0.39406,0.38789
0.39891,0.39417
0.39871,0.39409
0.39547,0.38982
0.39651,0.39340
0.39565,0.38859
0.39478,0.39460
0.39469,0.39476
0.39563,0.38694
0.39771,0.39211
0.39854,0.39704
0.39750,0.39386
0.39742,0.38986
0.39843,0.39097
0.39635,0.39194
0.39437,0.39426
0.39548,0.39100
0.39831,0.39202
0.39969,0.40192
0.39971,0.39077
0.39869,0.39270
0.39772,0.40104
0.39822,0.39684
0.40044,0.39263
0.40232,0.39408
0.40259,0.39892
0.40174,0.40136
0.40134,0.39762
0.40222,0.39204
0.40283,0.39853
0.40132,0.39857
0.39921,0.39329
0.40004,0.40451
0.40286,0.40081
0.40381,0.39626
0.40304,0.39853
0.40270,0.40049
0.40186,0.40165
0.39967,0.39636
0.40249,0.39561
0.40581,0.40369
0.40199,0.40676
0.40481,0.39599
0.40418,0.39921
0.40282,0.40390
0.40548,0.39655
0.40330,0.40130
0.40198,0.40415
0.40272,0.40287
0.40415,0.40078
0.40626,0.40018
0.40857,0.40498
0.40522,0.40583
0.40255,0.40026
0.40465,0.40010
0.40482,0.40998
0.40503,0.39877
0.40628,0.39884
0.40479,0.40814
0.40088,0.40051
0.40343,0.39813
0.40519,0.40370
0.40449,0.40520
0.40383,0.40224
0.40409,0.40427
0.40566,0.40162
0.40561,0.40197
0.40478,0.40310
0.40474,0.40122
0.40338,0.40520
0.40278,0.40361
0.40485,0.40090
0.40735,0.40341
0.40669,0.40471
0.40477,0.39710
0.40426,0.40285
0.40390,0.40674
0.40315,0.39673
0.40458,0.40022
0.40528,0.40668
0.40460,0.40350
0.40317,0.39984
0.40183,0.40492
0.40228,0.40104
0.40491,0.40353
0.40413,0.40475
0.40174,0.40039
0.40540,0.40410
0.40331,0.39800
0.40248,0.39789
0.40400,0.40622
0.40206,0.40552
0.40122,0.39614
0.40449,0.40477
0.40528,0.40518
0.40328,0.39441
0.40516,0.40587
0.40415,0.40652
0.40402,0.40060
0.40625,0.40173
0.40721,0.40585
0.40550,0.40024
0.40557,0.40179
0.40644,0.40372
0.40624,0.40199
0.40563,0.40334
0.40484,0.40016
0.40449,0.40428
0.40471,0.40695
0.40596,0.39961
0.40806,0.39784
0.40657,0.40309
0.40534,0.39874
0.40529,0.39628
0.40496,0.40863
0.40856,0.40052
0.40869,0.39575
0.40621,0.40246
0.40436,0.40516
0.40208,0.39829
0.40368,0.40348
0.40666,0.40257
0.40602,0.39753
0.40332,0.40257
0.40644,0.40212
0.40772,0.40465
0.40686,0.40361
0.40624,0.39907
0.40465,0.40412
0.40381,0.40911
0.40645,0.40348
0.40789,0.40215
0.40579,0.40880
0.40706,0.39723
0.40650,0.39881
0.40309,0.40666
0.40227,0.40443
0.40650,0.40014
0.40768,0.40763
0.40867,0.40318
0.40644,0.39715
0.40144,0.40352
0.40355,0.40280
0.40593,0.39969
0.40510,0.39919
0.40520,0.40171
0.40706,0.40452
0.40198,0.40318
0.40294,0.39627
0.40520,0.39903
0.40301,0.40617
0.40450,0.39586
0.40537,0.40062
0.40320,0.40350
0.40482,0.39598
0.41024,0.39481
0.40479,0.40394
0.40487,0.40151
0.40531,0.39891
0.40335,0.40283
0.40874,0.40008
0.40923,0.40231
0.40732,0.40093
0.40649,0.40069
0.40504,0.40510
0.40285,0.39864
0.40690,0.39894
0.40846,0.40597
0.40554,0.40540
0.40695,0.39744
0.40880,0.40575
0.40533,0.40248
0.40487,0.39551
0.40932,0.40184
0.40558,0.40310
0.40471,0.39836
0.40623,0.39701
0.40489,0.39903
0.40244,0.39947
0.40536,0.40256
0.40421,0.39708
0.40206,0.39726
0.40385,0.40364
0.40521,0.39507
0.40725,0.39956
0.40551,0.40208
0.40314,0.39574
0.40456,0.39589
0.40356,0.40502
0.40412,0.40101
0.40638,0.39963
0.40700,0.40601
0.40467,0.39987
0.40231,0.39755
0.40316,0.40139
0.40459,0.40237
0.40433,0.39917
0.40554,0.40166
0.40484,0.40049
0.40458,0.39944
0.40518,0.40045
0.40435,0.40036
0.40578,0.40595
0.40813,0.40449
0.40953,0.39769
