0.19344,0.19106
0.19328,0.19076
0.19318,0.19071
0.19306,0.19061
0.19294,0.19044
0.19291,0.19044
0.19290,0.19049
0.19293,0.19051
0.19288,0.19047
0.19270,0.19031
0.19254,0.19004
0.19252,0.19004
0.19252,0.19011
0.19259,0.19010
0.19268,0.19011
0.19219,0.18972
0.19127,0.18896
0.18992,0.18786
0.18844,0.18665
0.18749,0.18573
0.18663,0.18501
0.18606,0.18451
0.18613,0.18447
0.18665,0.18487
0.18697,0.18512
0.18672,0.18500
0.18657,0.18495
0.18684,0.18517
0.18704,0.18537
0.18739,0.18561
0.18750,0.18569
0.18750,0.18571
0.18719,0.18536
0.18539,0.18379
0.18425,0.18274
0.18353,0.18208
0.18283,0.18155
0.18302,0.18180
0.18351,0.18210
0.18435,0.18270
0.18493,0.18320
0.18500,0.18332
0.18527,0.18368
0.18436,0.18285
0.18324,0.18181
0.18285,0.18159
0.18259,0.18153
0.18210,0.18098
0.18217,0.18093
0.18353,0.18207
0.18508,0.18337
0.18511,0.18345
0.18629,0.18439
0.18809,0.18589
0.18867,0.18642
0.18835,0.18617
0.18950,0.18726
0.18996,0.18755
0.18968,0.18719
0.18973,0.18730
0.18978,0.18737
0.18941,0.18706
0.18851,0.18633
0.18827,0.18612
0.18874,0.18643
0.18766,0.18554
0.18800,0.18580
0.18813,0.18592
0.18692,0.18497
0.18630,0.18446
0.18492,0.18324
0.18364,0.18204
0.18406,0.18234
0.18605,0.18411
0.18733,0.18526
0.18695,0.18495
0.18632,0.18435
0.18638,0.18432
0.18655,0.18450
0.18664,0.18457
0.18672,0.18463
0.18682,0.18466
0.18688,0.18467
0.18679,0.18474
0.18652,0.18450
0.18650,0.18445
0.18672,0.18473
0.18678,0.18490
0.18673,0.18487
0.18665,0.18475
0.18658,0.18459
0.18655,0.18452
0.18650,0.18466
0.18662,0.18476
0.18670,0.18483
0.18678,0.18492
0.18697,0.18508
0.18707,0.18536
0.18723,0.18548
0.18738,0.18551
0.18747,0.18561
0.18755,0.18574
0.18764,0.18589
0.18811,0.18625
0.18869,0.18671
0.18892,0.18702
0.18900,0.18720
0.18902,0.18724
0.18897,0.18718
0.18881,0.18699
0.18858,0.18681
0.18853,0.18689
0.18851,0.18684
0.18848,0.18673
0.18850,0.18680
0.18851,0.18686
0.18854,0.18699
0.18862,0.18713
0.18867,0.18717
0.18864,0.18712
0.18877,0.18716
0.18908,0.18738
0.18917,0.18746
0.18900,0.18733
0.18900,0.18733
0.18913,0.18748
0.18913,0.18751
0.18926,0.18760
0.18965,0.18788
0.18967,0.18796
0.18967,0.18801
0.18970,0.18796
0.18973,0.18786
0.18991,0.18803
0.19037,0.18847
0.19064,0.18877
0.19081,0.18888
0.19112,0.18905
0.19122,0.18924
0.19096,0.18908
0.19085,0.18895
0.19099,0.18900
0.19100,0.18892
0.19101,0.18882
0.19101,0.18887
0.19093,0.18885
0.19074,0.18863
0.19055,0.18855
0.19053,0.18853
0.19038,0.18844
0.19008,0.18818
0.18995,0.18787
0.18991,0.18781
0.18993,0.18780
0.18996,0.18777
0.18999,0.18783
0.19001,0.18791
0.18998,0.18778
0.19003,0.18785
0.18992,0.18792
0.18956,0.18758
0.18949,0.18742
0.18945,0.18729
0.18935,0.18720
0.18938,0.18727
0.18967,0.18750
0.19001,0.18768
0.19012,0.18783
0.19022,0.18802
0.19042,0.18818
0.19036,0.18816
0.19027,0.18796
0.19011,0.18773
0.18980,0.18749
0.18957,0.18727
0.18963,0.18728
0.18947,0.18712
0.18929,0.18698
0.18935,0.18708
0.18930,0.18701
0.18919,0.18695
0.18914,0.18685
0.18907,0.18664
0.18892,0.18647
0.18891,0.18650
0.18906,0.18654
0.18909,0.18650
0.18897,0.18647
0.18906,0.18658
0.18921,0.18673
0.18925,0.18678
0.18910,0.18668
0.18884,0.18651
0.18871,0.18635
0.18862,0.18612
0.18851,0.18591
0.18849,0.18583
0.18858,0.18592
0.18865,0.18613
0.18870,0.18614
0.18884,0.18621
0.18900,0.18650
0.18889,0.18643
0.18865,0.18617
0.18847,0.18592
0.18833,0.18568
0.18819,0.18551
0.18824,0.18562
0.18827,0.18567
0.18829,0.18569
0.18835,0.18579
0.18836,0.18579
0.18846,0.18601
0.18844,0.18599
0.18830,0.18566
0.18826,0.18547
0.18826,0.18537
0.18830,0.18554
0.18830,0.18563
0.18829,0.18549
0.18840,0.18556
0.18838,0.18566
0.18845,0.18581
0.18854,0.18592
0.18845,0.18584
0.18843,0.18572
0.18853,0.18580
0.18866,0.18584
0.18865,0.18571
0.18873,0.18584
0.18970,0.18669
0.19045,0.18730
0.19059,0.18747
0.19042,0.18744
0.18979,0.18683
0.18929,0.18631
0.18915,0.18612
0.18905,0.18597
0.18844,0.18543
0.18740,0.18447
0.18676,0.18390
0.18651,0.18376
0.18633,0.18373
0.18641,0.18388
0.18636,0.18393
0.18633,0.18380
0.18645,0.18372
0.18655,0.18380
0.18649,0.18368
0.18665,0.18380
0.18682,0.18396
0.18682,0.18396
0.18696,0.18411
0.18731,0.18449
0.18752,0.18468
0.18775,0.18485
0.18837,0.18541
0.18933,0.18614
0.19063,0.18730
0.18940,0.18618
0.18627,0.18330
0.18537,0.18254
0.18489,0.18221
0.18510,0.18252
0.18611,0.18348
0.18717,0.18443
0.18793,0.18515
0.18840,0.18548
0.18849,0.18547
0.18877,0.18572
0.18952,0.18640
0.18924,0.18610
0.18944,0.18625
0.19047,0.18723
0.19120,0.18794
0.19112,0.18779
0.19107,0.18777
0.19121,0.18784
0.19146,0.18802
0.19184,0.18849
0.19210,0.18870
0.19239,0.18895
0.19272,0.18928
0.19291,0.18950
0.19302,0.18971
0.19340,0.19009
0.19337,0.18992
0.19368,0.19013
0.19486,0.19132
0.19500,0.19136
0.19531,0.19170
0.19597,0.19236
0.19658,0.19290
0.19727,0.19369
0.19816,0.19458
0.19898,0.19533
0.19976,0.19602
0.20051,0.19660
0.20080,0.19680
0.20098,0.19699
0.20108,0.19709
0.20110,0.19709
0.20130,0.19732
0.20175,0.19779
0.20174,0.19793
0.20176,0.19789
0.20214,0.19800
0.20204,0.19804
0.20207,0.19806
0.20223,0.19818
0.20222,0.19823
0.20212,0.19814
0.20224,0.19838
0.20225,0.19848
0.20239,0.19862
0.20256,0.19874
0.20224,0.19843
0.20263,0.19889
0.20286,0.19899
0.20273,0.19874
0.20284,0.19896
0.20282,0.19899
0.20273,0.19894
0.20284,0.19904
0.20318,0.19933
0.20391,0.20012
0.20579,0.20183
0.20710,0.20286
0.20703,0.20278
0.20640,0.20236
0.20600,0.20193
0.20570,0.20167
0.20549,0.20144
0.20541,0.20133
0.20538,0.20148
0.20539,0.20149
0.20517,0.20123
0.20496,0.20094
0.20497,0.20091
0.20500,0.20108
0.20501,0.20107
0.20516,0.20109
0.20541,0.20133
0.20563,0.20168
0.20592,0.20202
0.20617,0.20225
0.20605,0.20211
0.20543,0.20152
0.20491,0.20097
0.20553,0.20153
0.20599,0.20188
0.20593,0.20178
0.20605,0.20200
0.20603,0.20202
0.20614,0.20208
0.20628,0.20223
0.20634,0.20242
0.20653,0.20267
0.20674,0.20269
0.20657,0.20242
0.20616,0.20208
0.20590,0.20187
0.20580,0.20171
0.20579,0.20162
0.20562,0.20149
0.20543,0.20147
0.20545,0.20162
0.20526,0.20130
0.20497,0.20095
0.20463,0.20060
0.20434,0.20027
0.20442,0.20035
0.20447,0.20032
0.20434,0.20026
0.20418,0.20026
0.20424,0.20029
0.20466,0.20066
0.20482,0.20080
0.20468,0.20066
0.20457,0.20051
0.20451,0.20035
0.20431,0.20008
0.20439,0.20015
0.20472,0.20055
0.20499,0.20088
0.20530,0.20109
0.20567,0.20138
0.20592,0.20174
0.20596,0.20186
0.20590,0.20160
0.20565,0.20127
0.20535,0.20096
0.20512,0.20078
0.20499,0.20069
0.20490,0.20049
0.20476,0.20046
0.20475,0.20053
0.20472,0.20050
0.20449,0.20035
0.20453,0.20025
0.20458,0.20020
0.20456,0.20017
0.20454,0.20014
0.20447,0.20011
0.20453,0.20023
0.20478,0.20038
0.20521,0.20076
0.20566,0.20139
0.20573,0.20150
0.20570,0.20134
0.20567,0.20122
0.20563,0.20119
0.20564,0.20121
0.20561,0.20112
0.20569,0.20115
0.20586,0.20136
0.20601,0.20161
0.20625,0.20183
0.20647,0.20212
0.20709,0.20273
0.20788,0.20339
0.20795,0.20347
0.20763,0.20308
0.20738,0.20284
0.20740,0.20292
0.20745,0.20291
0.20720,0.20266
0.20742,0.20290
0.20747,0.20300
0.20713,0.20273
0.20708,0.20273
0.20708,0.20260
0.20673,0.20223
0.20654,0.20216
0.20700,0.20261
0.20766,0.20314
0.20829,0.20377
0.20842,0.20390
0.20819,0.20370
0.20820,0.20386
0.20844,0.20403
0.20852,0.20409
0.20846,0.20411
0.20841,0.20405
0.20825,0.20381
0.20798,0.20358
0.20802,0.20357
0.20804,0.20355
0.20765,0.20329
0.20768,0.20327
0.20812,0.20378
0.20895,0.20464
0.20966,0.20525
0.20967,0.20524
0.20984,0.20539
0.20977,0.20527
0.20930,0.20477
0.20878,0.20424
0.20850,0.20386
0.20875,0.20415
0.20815,0.20375
0.20685,0.20259
0.20638,0.20209
0.20607,0.20182
0.20631,0.20196
0.20638,0.20198
0.20578,0.20149
0.20549,0.20113
0.20551,0.20111
0.20587,0.20151
0.20630,0.20202
0.20643,0.20223
0.20646,0.20225
0.20635,0.20202
0.20627,0.20183
0.20634,0.20186
0.20639,0.20186
0.20642,0.20191
0.20660,0.20207
0.20682,0.20224
0.20687,0.20231
0.20686,0.20243
0.20719,0.20272
0.20736,0.20289
0.20742,0.20296
0.20790,0.20325
0.20791,0.20328
0.20757,0.20293
0.20751,0.20276
0.20780,0.20304
0.20794,0.20318
0.20817,0.20349
0.20861,0.20391
0.20903,0.20422
0.20922,0.20435
0.20930,0.20445
0.20915,0.20425
0.20890,0.20393
0.20876,0.20380
0.20879,0.20378
