0.51649,0.77310
0.51812,0.77746
0.51993,0.78148
0.52225,0.78756
0.52170,0.78682
0.51613,0.77275
0.51475,0.77022
0.51541,0.77207
0.51617,0.77377
0.51796,0.77912
0.51991,0.78459
0.52054,0.78477
0.51743,0.77685
0.51347,0.76891
0.51352,0.77010
0.51428,0.77201
0.51557,0.77496
0.51871,0.78226
0.52050,0.78652
0.51594,0.77620
0.51334,0.77003
0.51360,0.77048
0.51438,0.77277
0.51532,0.77573
0.51700,0.77952
0.51853,0.78378
0.51611,0.77883
0.51151,0.76813
0.51162,0.76886
0.51258,0.77070
0.51342,0.77261
0.51590,0.77877
0.51756,0.78261
0.51196,0.76978
0.50934,0.76339
0.50995,0.76487
0.51060,0.76659
0.51274,0.77072
0.51522,0.77653
0.51480,0.77512
0.51161,0.76759
0.50924,0.76267
0.51010,0.76341
0.51099,0.76558
0.51226,0.76864
0.51527,0.77499
0.51717,0.77960
0.51228,0.76804
0.50940,0.76093
0.51041,0.76284
0.51165,0.76520
0.51322,0.76839
0.51525,0.77298
0.51834,0.78024
0.51785,0.77934
0.51199,0.76602
0.51153,0.76477
0.51288,0.76758
0.51392,0.76972
0.51616,0.77477
0.51859,0.78032
0.51577,0.77296
0.51249,0.76596
0.51214,0.76600
0.51341,0.76792
0.51565,0.77255
0.51812,0.77799
0.52001,0.78212
0.51892,0.77949
0.51446,0.76936
0.51403,0.76883
0.51582,0.77161
0.51703,0.77377
0.51871,0.77941
0.52172,0.78600
0.51856,0.77834
0.51461,0.76882
0.51470,0.76847
0.51588,0.77146
0.51716,0.77444
0.51903,0.77816
0.52207,0.78564
0.52313,0.78893
0.51809,0.77574
0.51476,0.76930
0.51589,0.77200
0.51911,0.77730
0.52172,0.78289
0.52411,0.78825
0.52767,0.79550
0.52624,0.79162
0.52080,0.77931
0.52151,0.78092
0.52247,0.78372
0.52371,0.78638
0.52662,0.79274
0.52841,0.79720
0.52504,0.78815
0.52197,0.78138
0.52183,0.78156
0.52327,0.78424
0.52471,0.78748
0.52658,0.79197
0.52927,0.79826
0.52751,0.79454
0.52140,0.78094
0.52161,0.78082
0.52284,0.78268
0.52370,0.78452
0.52596,0.79070
0.52802,0.79625
0.52491,0.78795
0.52124,0.77946
0.52058,0.77818
0.52192,0.78047
0.52300,0.78331
0.52443,0.78728
0.52786,0.79494
0.52788,0.79445
0.52143,0.78001
0.52024,0.77769
0.52111,0.77958
0.52218,0.78104
0.52425,0.78572
0.52589,0.79168
0.52450,0.78727
0.52143,0.77898
0.51978,0.77576
0.52069,0.77807
0.52211,0.78103
0.52367,0.78427
0.52602,0.78963
0.52560,0.78897
0.51987,0.77603
0.51907,0.77393
0.52043,0.77684
0.52134,0.77862
0.52342,0.78311
0.52588,0.78963
0.52209,0.78155
0.51803,0.77206
0.51796,0.77157
0.51863,0.77319
0.52045,0.77714
0.52206,0.78092
0.52444,0.78673
0.52512,0.78823
0.51917,0.77422
0.51716,0.77018
0.51824,0.77287
0.51945,0.77523
0.52145,0.77999
0.52360,0.78514
0.52517,0.78819
0.52279,0.78256
0.51828,0.77313
0.51828,0.77408
0.51893,0.77652
0.51978,0.77872
0.52218,0.78417
0.52363,0.78755
0.51898,0.77628
0.51630,0.77079
0.51679,0.77247
0.51759,0.77404
0.51882,0.77742
0.52155,0.78423
0.52110,0.78269
0.51785,0.77513
0.51620,0.77209
0.51715,0.77332
0.51898,0.77680
0.52062,0.78089
0.52300,0.78640
0.52475,0.78941
0.51968,0.77778
0.51711,0.77251
0.51853,0.77561
0.51965,0.77735
0.52132,0.78156
0.52411,0.78957
0.52219,0.78478
0.51755,0.77304
0.51722,0.77308
0.51845,0.77468
0.51992,0.77765
0.52174,0.78285
0.52386,0.78779
0.52426,0.78728
0.51946,0.77738
0.51743,0.77306
0.51943,0.77660
0.52056,0.77907
0.52236,0.78306
0.52533,0.79103
0.52444,0.78870
0.52014,0.77719
0.51915,0.77568
0.51981,0.77775
0.52109,0.78044
0.52278,0.78444
0.52441,0.78869
0.52444,0.78825
0.52054,0.77947
0.51834,0.77453
0.51987,0.77734
0.52101,0.77959
0.52253,0.78367
0.52562,0.79162
0.52432,0.78863
0.51849,0.77456
0.51840,0.77411
0.51951,0.77581
0.52066,0.77817
0.52292,0.78392
0.52467,0.78790
0.52229,0.78112
0.51911,0.77391
0.51785,0.77210
0.51863,0.77394
0.52031,0.77695
0.52182,0.78079
0.52484,0.78804
0.52406,0.78620
0.51759,0.77161
0.51734,0.77070
0.51839,0.77294
0.51922,0.77490
0.52153,0.78009
0.52393,0.78519
0.52233,0.78098
0.51900,0.77295
0.51758,0.76999
0.51865,0.77287
0.51986,0.77497
0.52105,0.77882
0.52414,0.78664
0.52491,0.78736
0.51947,0.77420
0.51796,0.77129
0.51860,0.77301
0.51952,0.77462
0.52143,0.77877
0.52353,0.78427
0.52322,0.78350
0.52006,0.77602
0.51744,0.77026
0.51813,0.77216
0.51935,0.77474
0.52059,0.77763
0.52324,0.78417
0.52390,0.78583
0.51823,0.77220
0.51640,0.76822
0.51722,0.77064
0.51839,0.77292
0.52079,0.77750
0.52319,0.78352
0.52206,0.78097
0.51753,0.77190
0.51429,0.76607
0.51578,0.76784
0.51699,0.77083
0.51844,0.77464
0.52175,0.78162
0.52382,0.78578
0.51970,0.77642
0.51702,0.77054
0.51713,0.77074
0.51812,0.77286
0.51972,0.77644
0.52215,0.78101
0.52558,0.78944
0.52452,0.78798
0.51915,0.77532
0.51891,0.77479
0.52013,0.77720
0.52133,0.77985
0.52306,0.78475
0.52494,0.79004
0.52508,0.78952
0.52154,0.78122
0.51913,0.77604
0.52025,0.77871
0.52077,0.78050
0.52211,0.78363
0.52539,0.79120
0.52466,0.78972
0.51831,0.77502
0.51794,0.77394
0.51901,0.77632
0.51999,0.77811
0.52259,0.78337
0.52466,0.78833
0.52023,0.77897
0.51687,0.77116
0.51709,0.77104
0.51794,0.77263
0.51975,0.77627
0.52124,0.78077
0.52370,0.78640
0.52331,0.78446
0.51704,0.77105
0.51606,0.76931
0.51725,0.77116
0.51828,0.77263
0.52022,0.77746
0.52240,0.78327
0.52259,0.78311
0.51896,0.77487
0.51548,0.76787
0.51650,0.76993
0.51773,0.77188
0.51922,0.77514
0.52177,0.78157
0.52331,0.78537
0.52083,0.77930
0.51718,0.77210
0.51645,0.77014
0.51781,0.77244
0.51853,0.77533
0.52024,0.77925
0.52382,0.78689
0.52189,0.78256
0.51586,0.76930
0.51610,0.76945
0.51754,0.77100
0.51829,0.77357
0.52040,0.78013
0.52223,0.78366
0.51816,0.77353
0.51582,0.76727
0.51615,0.76794
0.51712,0.77064
0.51876,0.77397
0.52109,0.77850
0.52411,0.78598
0.52281,0.78293
0.51794,0.76967
0.51852,0.77002
0.51937,0.77317
0.52091,0.77616
0.52421,0.78201
0.52623,0.78703
0.52371,0.78085
0.52041,0.77366
0.51945,0.77145
0.52042,0.77272
0.52143,0.77550
0.52319,0.77989
0.52612,0.78730
0.52569,0.78657
0.52058,0.77400
0.51946,0.77144
0.51980,0.77274
0.52063,0.77473
0.52237,0.77864
0.52432,0.78347
0.52584,0.78655
0.52217,0.77840
0.51812,0.76979
0.51928,0.77232
0.52028,0.77456
0.52122,0.77753
0.52445,0.78462
0.52503,0.78553
0.51869,0.77251
0.51740,0.76859
0.51838,0.77041
0.51930,0.77308
0.52110,0.77760
0.52311,0.78289
0.52345,0.78241
0.52029,0.77509
0.51712,0.76897
0.51808,0.77037
0.51944,0.77239
0.52059,0.77505
0.52288,0.78168
0.52383,0.78484
0.51949,0.77407
0.51635,0.76787
0.51621,0.76826
0.51739,0.77088
0.51864,0.77400
0.52064,0.77799
0.52370,0.78596
0.52210,0.78261
0.51700,0.76987
0.51640,0.76895
0.51676,0.77021
0.51778,0.77320
0.51975,0.77811
0.52142,0.78164
0.52081,0.78044
0.51713,0.77211
0.51502,0.76720
0.51595,0.76914
0.51682,0.77101
0.51829,0.77484
0.52127,0.78270
0.52014,0.78044
0.51462,0.76709
0.51415,0.76572
0.51499,0.76770
0.51646,0.77035
0.51866,0.77562
0.51992,0.78047
0.51898,0.77686
0.51575,0.76878
0.51406,0.76530
0.51532,0.76787
0.51634,0.77008
0.51789,0.77407
0.52113,0.78209
0.52142,0.78262
0.51661,0.77073
0.51514,0.76707
0.51584,0.76884
0.51737,0.77216
0.51918,0.77608
0.52109,0.78112
0.52415,0.78862
0.52093,0.78130
0.51607,0.76965
0.51668,0.77072
0.51710,0.77282
0.51863,0.77604
0.52153,0.78228
0.52194,0.78373
0.51766,0.77431
0.51503,0.76935
0.51504,0.76937
0.51620,0.77120
0.51785,0.77499
0.51987,0.78061
0.51967,0.78002
0.51645,0.77265
0.51391,0.76685
0.51502,0.76847
0.51588,0.77096
0.51716,0.77439
0.52046,0.78171
0.52125,0.78355
0.51480,0.76949
0.51372,0.76604
0.51480,0.76805
0.51506,0.76923
0.51714,0.77402
0.51991,0.78025
0.51742,0.77393
0.51348,0.76491
0.51272,0.76358
0.51363,0.76503
0.51509,0.76833
0.51699,0.77274
0.51933,0.77799
0.51951,0.77823
0.51474,0.76660
0.51315,0.76340
0.51433,0.76634
0.51565,0.76829
0.51794,0.77291
0.52049,0.78062
0.51767,0.77419
0.51390,0.76455
0.51456,0.76618
0.51584,0.76841
0.51734,0.77178
0.52043,0.77944
0.52142,0.78114
0.51730,0.77014
0.51527,0.76656
0.51596,0.76822
0.51692,0.76990
0.51803,0.77295
0.52023,0.77824
0.51868,0.77422
0.51553,0.76674
0.51438,0.76410
0.51557,0.76649
0.51708,0.76940
0.51875,0.77340
0.52174,0.78022
0.52205,0.78057
0.51604,0.76746
0.51456,0.76513
0.51576,0.76776
0.51718,0.76979
0.51938,0.77453
0.52139,0.78075
0.52132,0.77991
0.51815,0.77235
0.51527,0.76685
0.51633,0.76882
0.51747,0.77099
0.51893,0.77503
0.52130,0.78105
0.52280,0.78415
0.51961,0.77719
