0.34513,0.43750
0.34569,0.43853
0.34710,0.44151
0.34660,0.44097
0.34474,0.43746
0.34444,0.43628
0.34505,0.43706
0.34570,0.43798
0.34622,0.43880
0.34711,0.44063
0.34814,0.44285
0.34648,0.44014
0.34490,0.43713
0.34530,0.43736
0.34589,0.43812
0.34626,0.43877
0.34720,0.44051
0.34721,0.44083
0.34567,0.43837
0.34512,0.43684
0.34562,0.43739
0.34617,0.43821
0.34673,0.43903
0.34748,0.44046
0.34715,0.44022
0.34572,0.43750
0.34504,0.43580
0.34568,0.43665
0.34609,0.43720
0.34664,0.43798
0.34774,0.44016
0.34749,0.44000
0.34533,0.43582
0.34505,0.43478
0.34558,0.43539
0.34603,0.43613
0.34651,0.43695
0.34714,0.43808
0.34755,0.43922
0.34621,0.43690
0.34502,0.43434
0.34567,0.43512
0.34575,0.43532
0.34608,0.43592
0.34703,0.43779
0.34691,0.43779
0.34499,0.43411
0.34486,0.43361
0.34543,0.43443
0.34580,0.43501
0.34660,0.43652
0.34763,0.43862
0.34633,0.43648
0.34493,0.43379
0.34505,0.43371
0.34564,0.43472
0.34612,0.43550
0.34663,0.43658
0.34783,0.43919
0.34821,0.44036
0.34584,0.43628
0.34525,0.43486
0.34581,0.43573
0.34622,0.43657
0.34680,0.43755
0.34757,0.43935
0.34801,0.44070
0.34697,0.43905
0.34561,0.43649
0.34614,0.43738
0.34657,0.43823
0.34699,0.43904
0.34806,0.44126
0.34844,0.44255
0.34624,0.43864
0.34568,0.43739
0.34634,0.43843
0.34673,0.43915
0.34739,0.44046
0.34836,0.44261
0.34844,0.44311
0.34719,0.44090
0.34601,0.43847
0.34656,0.43913
0.34709,0.44009
0.34770,0.44122
0.34887,0.44338
0.34976,0.44541
0.34900,0.44442
0.34750,0.44165
0.34713,0.44061
0.34791,0.44177
0.34821,0.44234
0.34882,0.44363
0.35013,0.44630
0.34984,0.44613
0.34746,0.44188
0.34758,0.44150
0.34822,0.44252
0.34859,0.44322
0.34936,0.44468
0.35019,0.44674
0.34935,0.44544
0.34777,0.44234
0.34728,0.44097
0.34799,0.44188
0.34823,0.44231
0.34880,0.44327
0.35016,0.44610
0.35019,0.44667
0.34764,0.44180
0.34716,0.44020
0.34762,0.44080
0.34789,0.44124
0.34840,0.44202
0.34920,0.44380
0.34891,0.44342
0.34763,0.44089
0.34689,0.43921
0.34741,0.43993
0.34764,0.44025
0.34816,0.44115
0.34887,0.44259
0.34840,0.44188
0.34644,0.43801
0.34630,0.43736
0.34678,0.43812
0.34693,0.43841
0.34771,0.43975
0.34893,0.44218
0.34748,0.43959
0.34570,0.43602
0.34578,0.43578
0.34619,0.43641
0.34668,0.43714
0.34740,0.43818
0.34843,0.44029
0.34857,0.44116
0.34639,0.43689
0.34582,0.43544
0.34635,0.43617
0.34662,0.43650
0.34731,0.43775
0.34842,0.43983
0.34754,0.43849
0.34599,0.43571
0.34602,0.43530
0.34667,0.43617
0.34708,0.43694
0.34778,0.43831
0.34825,0.43940
0.34730,0.43807
0.34580,0.43506
0.34572,0.43452
0.34640,0.43561
0.34679,0.43628
0.34762,0.43775
0.34897,0.44058
0.34791,0.43892
0.34592,0.43503
0.34610,0.43495
0.34656,0.43580
0.34702,0.43665
0.34777,0.43796
0.34858,0.43967
0.34850,0.43992
0.34657,0.43644
0.34559,0.43467
0.34542,0.43486
0.34458,0.43414
0.34453,0.43442
0.34557,0.43650
0.34484,0.43520
0.34326,0.43190
0.34347,0.43195
0.34161,0.42982
0.34195,0.43044
0.34204,0.43127
0.33924,0.42844
0.33830,0.42623
0.33812,0.42506
0.33967,0.42681
0.34125,0.42900
0.34067,0.42860
0.34183,0.43055
0.34442,0.43471
0.34469,0.43490
0.34276,0.43117
0.34297,0.43115
0.34341,0.43193
0.34395,0.43282
0.34480,0.43437
0.34562,0.43636
0.34604,0.43741
0.34457,0.43473
0.34364,0.43286
0.34434,0.43400
0.34453,0.43455
0.34517,0.43584
0.34661,0.43871
0.34646,0.43885
0.34419,0.43495
0.34378,0.43392
0.34423,0.43475
0.34471,0.43567
0.34525,0.43670
0.34623,0.43887
0.34756,0.44167
0.34609,0.43921
0.34411,0.43554
0.34442,0.43594
0.34479,0.43677
0.34532,0.43774
0.34602,0.43924
0.34724,0.44199
0.34814,0.44395
0.34597,0.44006
0.34491,0.43803
0.34537,0.43887
0.34560,0.43945
0.34604,0.44049
0.34726,0.44297
0.34677,0.44237
0.34503,0.43947
0.34460,0.43873
0.34512,0.43944
0.34538,0.44005
0.34579,0.44113
0.34675,0.44316
0.34700,0.44397
0.34499,0.44031
0.34406,0.43845
0.34463,0.43934
0.34491,0.43983
0.34547,0.44100
0.34662,0.44340
0.34640,0.44326
0.34482,0.44044
0.34422,0.43923
0.34474,0.43994
0.34518,0.44062
0.34556,0.44132
0.34628,0.44276
0.34644,0.44341
0.34495,0.44077
0.34430,0.43929
0.34489,0.44022
0.34503,0.44064
0.34565,0.44164
0.34682,0.44402
0.34621,0.44315
0.34417,0.43922
0.34426,0.43906
0.34465,0.43970
0.34502,0.44037
0.34578,0.44174
0.34652,0.44332
0.34617,0.44314
0.34502,0.44063
0.34452,0.43924
0.34495,0.44007
0.34524,0.44052
0.34589,0.44159
0.34702,0.44392
0.34709,0.44452
0.34565,0.44195
0.34505,0.44041
0.34534,0.44080
0.34574,0.44151
0.34613,0.44215
0.34680,0.44356
0.34695,0.44429
0.34558,0.44192
0.34454,0.43981
0.34506,0.44060
0.34527,0.44105
0.34567,0.44172
0.34688,0.44424
0.34685,0.44467
0.34453,0.44029
0.34419,0.43923
0.34467,0.43990
0.34500,0.44050
0.34558,0.44166
0.34644,0.44352
0.34626,0.44345
0.34495,0.44100
0.34415,0.43928
0.34471,0.44009
0.34497,0.44044
0.34557,0.44153
0.34622,0.44292
0.34570,0.44220
0.34417,0.43929
0.34431,0.43915
0.34470,0.43978
0.34501,0.44036
0.34578,0.44168
0.34572,0.44191
0.34443,0.43921
0.34395,0.43777
0.34466,0.43875
0.34500,0.43911
0.34562,0.44018
0.34620,0.44132
0.34547,0.43988
0.34409,0.43695
0.34458,0.43734
0.34515,0.43802
0.34559,0.43867
0.34656,0.44042
0.34716,0.44154
0.34538,0.43821
0.34486,0.43694
0.34552,0.43780
0.34584,0.43814
0.34661,0.43938
0.34763,0.44139
0.34665,0.43981
0.34514,0.43698
0.34561,0.43748
0.34602,0.43805
0.34649,0.43875
0.34741,0.44049
0.34743,0.44075
0.34558,0.43732
0.34541,0.43673
0.34597,0.43747
0.34634,0.43794
0.34714,0.43931
0.34816,0.44139
0.34688,0.43921
0.34557,0.43658
0.34580,0.43667
0.34623,0.43740
0.34678,0.43824
0.34737,0.43942
0.34828,0.44137
0.34847,0.44185
0.34646,0.43819
0.34602,0.43729
0.34648,0.43806
0.34664,0.43834
0.34719,0.43950
0.34818,0.44177
0.34705,0.44006
0.34554,0.43722
0.34562,0.43716
0.34591,0.43782
0.34626,0.43833
0.34708,0.43999
0.34732,0.44097
0.34605,0.43897
0.34481,0.43666
0.34477,0.43639
0.34528,0.43711
0.34567,0.43769
0.34640,0.43917
0.34753,0.44182
0.34648,0.44021
0.34465,0.43661
0.34460,0.43617
0.34494,0.43677
0.34529,0.43739
0.34592,0.43856
0.34680,0.44046
0.34690,0.44107
0.34501,0.43761
0.34450,0.43624
0.34513,0.43717
0.34524,0.43755
0.34590,0.43887
0.34688,0.44103
0.34582,0.43921
0.34408,0.43571
0.34451,0.43627
0.34495,0.43711
0.34535,0.43782
0.34663,0.44026
0.34708,0.44145
0.34450,0.43690
0.34395,0.43542
0.34466,0.43636
0.34502,0.43698
0.34560,0.43813
0.34676,0.44065
0.34557,0.43891
0.34405,0.43593
0.34430,0.43586
0.34494,0.43693
0.34529,0.43743
0.34621,0.43929
0.34611,0.43946
0.34431,0.43610
0.34402,0.43519
0.34459,0.43597
0.34496,0.43659
0.34563,0.43790
0.34648,0.43963
0.34447,0.43612
0.34348,0.43391
0.34411,0.43457
0.34447,0.43512
0.34500,0.43586
0.34621,0.43821
0.34536,0.43678
0.34346,0.43306
0.34372,0.43310
0.34421,0.43374
0.34464,0.43430
0.34565,0.43606
0.34610,0.43710
0.34435,0.43412
0.34369,0.43248
0.34416,0.43284
0.34460,0.43351
0.34507,0.43439
0.34605,0.43626
0.34491,0.43426
0.34356,0.43164
0.34380,0.43176
0.34419,0.43239
0.34454,0.43311
0.34563,0.43515
0.34544,0.43489
0.34330,0.43098
0.34303,0.42998
0.34347,0.43065
0.34384,0.43127
0.34460,0.43249
0.34543,0.43416
0.34418,0.43211
0.34294,0.42959
0.34290,0.42914
0.34336,0.42998
0.34366,0.43059
0.34437,0.43182
0.34477,0.43267
0.34398,0.43133
0.34270,0.42874
0.34298,0.42903
0.34329,0.42957
0.34366,0.43033
0.34429,0.43170
0.34384,0.43125
0.34245,0.42851
0.34206,0.42756
0.34268,0.42865
0.34308,0.42933
0.34370,0.43062
0.34476,0.43286
0.34380,0.43134
0.34169,0.42740
0.34214,0.42784
0.34261,0.42870
0.34301,0.42956
0.34414,0.43175
0.34503,0.43368
0.34367,0.43166
0.34244,0.42935
0.34253,0.42929
0.34314,0.43033
0.34347,0.43098
0.34441,0.43296
0.34411,0.43290
0.34276,0.43064
0.34220,0.42933
0.34284,0.43037
0.34325,0.43097
0.34411,0.43269
0.34457,0.43402
0.34318,0.43182
0.34212,0.42970
0.34243,0.42991
0.34304,0.43094
0.34361,0.43208
0.34480,0.43431
0.34435,0.43402
0.34300,0.43160
0.34256,0.43032
0.34321,0.43133
0.34356,0.43194
0.34447,0.43366
0.34464,0.43429
0.34345,0.43235
0.34266,0.43061
0.34319,0.43129
0.34366,0.43200
0.34441,0.43339
0.34516,0.43502
0.34340,0.43216
0.34261,0.43026
0.34276,0.43030
0.34249,0.43020
0.34224,0.43006
0.34314,0.43215
0.34208,0.43061
0.33964,0.42620
