0.01937,0.03688
0.01815,0.03643
0.01943,0.03447
0.02015,0.03349
0.01990,0.03495
0.01996,0.03685
0.01909,0.03402
0.01978,0.03463
0.02088,0.03742
0.01984,0.03612
0.01849,0.03485
0.01927,0.03801
0.02202,0.03696
0.02290,0.03361
0.02011,0.03666
0.02006,0.03467
0.02068,0.03667
0.02104,0.03741
0.02102,0.03218
0.01909,0.03286
0.01863,0.03347
0.02000,0.03404
0.02132,0.03547
0.02089,0.03538
0.01934,0.03308
0.02154,0.03366
0.02121,0.03365
0.01753,0.03260
0.01989,0.03595
0.02071,0.03426
0.02145,0.03354
0.02164,0.03474
0.01926,0.03343
0.01895,0.03348
0.02044,0.03435
0.02043,0.03335
0.01878,0.03246
0.01885,0.03483
0.02017,0.03413
0.01961,0.03594
0.01929,0.03705
0.02129,0.03339
0.02161,0.03322
0.02061,0.03392
0.01999,0.03402
0.02007,0.03261
0.01986,0.03078
0.01928,0.03468
0.01994,0.03840
0.02040,0.03681
0.01992,0.03359
0.02052,0.03529
0.01950,0.03525
0.01997,0.03527
0.02138,0.03483
0.02059,0.03209
0.02079,0.03365
0.02009,0.03432
0.02037,0.03555
0.02106,0.03671
0.01831,0.03264
0.01849,0.03348
0.01957,0.03385
0.01988,0.03348
0.02127,0.03540
0.02357,0.03324
0.02210,0.03521
0.01938,0.03708
0.01897,0.03528
0.01977,0.03497
0.02016,0.03462
0.02077,0.03608
0.02139,0.03731
0.02104,0.03555
0.02014,0.03381
0.02063,0.03464
0.02183,0.03597
0.02120,0.03588
0.01879,0.03494
0.01924,0.03394
0.01888,0.03452
0.01840,0.03591
0.01970,0.03584
0.02004,0.03404
0.01977,0.03383
0.02061,0.03528
0.02183,0.03562
0.02174,0.03399
0.02149,0.03388
0.02069,0.03340
0.02115,0.03456
0.02210,0.03590
0.01996,0.03254
0.01827,0.03325
0.02034,0.03662
0.02165,0.03622
0.01907,0.03278
0.01945,0.03471
0.01789,0.03384
0.01827,0.03337
0.02146,0.03488
0.02079,0.03307
0.01967,0.03416
0.02248,0.03505
0.02341,0.03436
0.01988,0.03388
0.02107,0.03414
0.01902,0.03726
0.01877,0.03620
0.02115,0.03344
0.01947,0.03677
0.01911,0.03574
0.02035,0.03534
0.02091,0.03528
0.02016,0.03420
0.02013,0.03632
0.02212,0.03496
0.02212,0.03325
0.01993,0.03427
0.01963,0.03527
0.02124,0.03398
0.02146,0.03427
0.02031,0.03715
0.02020,0.03786
0.02138,0.03325
0.02043,0.03304
0.02166,0.03650
0.02219,0.03740
0.01842,0.03440
0.01869,0.03360
0.02009,0.03485
0.01916,0.03601
0.01793,0.03509
0.01964,0.03302
0.01987,0.03494
0.01872,0.03308
0.01823,0.03112
0.01884,0.03493
0.01912,0.03625
0.01932,0.03601
0.01925,0.03597
0.01846,0.03663
0.01786,0.03735
0.01973,0.03613
0.02031,0.03304
0.01898,0.03410
0.01857,0.03765
0.02009,0.03396
0.02052,0.03577
0.02002,0.03552
0.02090,0.03289
0.02221,0.03502
0.01893,0.03287
0.01845,0.03422
0.01993,0.03565
0.01990,0.03334
0.02026,0.03367
0.02046,0.03496
0.02074,0.03400
0.02067,0.03333
0.01924,0.03555
0.01741,0.03602
0.01944,0.03484
0.02125,0.03322
0.02111,0.03454
0.02205,0.03824
0.01909,0.03264
0.01727,0.03294
0.01927,0.03712
0.02124,0.03514
0.01990,0.03554
0.02130,0.03693
0.02209,0.03616
0.02089,0.03419
0.02137,0.03335
0.02076,0.03198
0.01894,0.03471
0.01851,0.03601
0.02001,0.03310
0.02061,0.03475
0.02086,0.03571
0.02222,0.03564
0.02127,0.03463
0.01695,0.03358
0.01849,0.03709
0.01990,0.03435
0.01978,0.03169
0.02083,0.03517
0.02222,0.03613
0.02087,0.03508
0.01970,0.03310
0.01980,0.03402
0.01998,0.03786
0.02105,0.03631
0.02115,0.03380
0.02156,0.03433
0.02115,0.03515
0.01857,0.03294
0.02182,0.03405
0.02156,0.03460
0.01865,0.03564
0.01955,0.03756
0.02004,0.03429
0.02054,0.03778
0.02159,0.03881
0.02156,0.03480
0.01974,0.03568
0.01986,0.03523
0.02012,0.03540
0.01946,0.03460
0.01873,0.03308
0.01887,0.03590
0.02064,0.03493
0.02122,0.03394
0.02014,0.03509
0.01944,0.03493
0.01883,0.03489
0.01843,0.03711
0.01994,0.03543
0.02123,0.03195
0.01853,0.03627
0.01875,0.03450
0.02063,0.03500
0.02203,0.03778
0.02261,0.03580
0.02115,0.03577
0.01987,0.03397
0.02032,0.03370
0.02078,0.03526
0.01974,0.03361
0.02180,0.03423
0.02313,0.03516
0.02103,0.03460
0.01794,0.03417
0.01798,0.03518
0.02108,0.03474
0.02212,0.03619
0.02011,0.03689
0.01947,0.03314
0.02097,0.03621
0.01977,0.03602
0.01940,0.03665
0.02126,0.04092
0.01859,0.03605
0.01858,0.03309
0.02067,0.03512
0.02125,0.03694
0.02053,0.03590
0.02141,0.03671
0.02132,0.03581
0.02144,0.03549
0.02213,0.03621
0.02033,0.03417
0.01851,0.03653
0.01822,0.03434
0.01958,0.03161
0.02163,0.03506
0.02223,0.03206
0.01950,0.03449
0.02032,0.03535
0.02343,0.03246
0.02008,0.03586
0.01876,0.03363
0.02099,0.03349
0.02259,0.03477
0.02120,0.03364
0.01980,0.03668
0.02027,0.03399
0.01948,0.03360
0.01888,0.03654
0.02152,0.03428
0.02011,0.03588
0.01823,0.03483
0.01916,0.03408
0.02083,0.03658
0.02042,0.03511
0.02191,0.03689
0.02253,0.03559
0.02162,0.03366
0.02124,0.03769
0.01962,0.03646
0.02081,0.03675
0.02145,0.03568
0.01959,0.03300
0.01958,0.03615
0.01830,0.03315
0.01912,0.03348
0.02084,0.03585
0.02086,0.03369
0.02268,0.03710
0.01959,0.03497
0.01838,0.03292
0.02033,0.03582
0.01763,0.03697
0.01965,0.03886
0.02205,0.03740
0.02134,0.03477
0.01956,0.03516
0.01869,0.03573
0.01925,0.03722
0.02036,0.03563
0.02017,0.03292
0.01888,0.03506
0.02030,0.03672
0.01946,0.03499
0.01847,0.03432
0.02015,0.03613
0.02042,0.03510
0.02155,0.03559
0.02170,0.03514
0.01997,0.03355
0.01850,0.03316
0.01868,0.03140
0.01949,0.03370
0.01995,0.03606
0.02022,0.03480
0.02083,0.03470
0.02102,0.03563
0.02055,0.03431
0.02012,0.03456
0.01986,0.03748
0.01920,0.03325
0.02192,0.03397
0.02159,0.03553
0.01851,0.03386
0.02090,0.03531
0.02083,0.03603
0.01945,0.03277
0.01914,0.03256
0.01975,0.03763
0.02076,0.03644
0.02083,0.03550
0.02087,0.03467
0.01957,0.03299
0.01693,0.03301
0.02042,0.03374
0.02090,0.03446
0.01933,0.03499
0.01993,0.03501
0.01909,0.03394
0.02170,0.03251
0.02062,0.03426
0.01834,0.03641
0.02205,0.03525
0.02125,0.03649
0.01860,0.03465
0.01846,0.03452
0.02045,0.03661
0.02080,0.03295
0.01817,0.03522
0.01802,0.03487
0.02022,0.03062
0.02061,0.03107
0.02020,0.03486
0.02000,0.03522
0.01931,0.03552
0.01845,0.03721
0.01891,0.03508
0.02002,0.03222
0.02169,0.03433
0.02252,0.03611
0.02157,0.03407
0.02065,0.03702
0.02086,0.03786
0.02018,0.03487
0.01886,0.03363
0.01917,0.03647
0.01948,0.03564
0.01954,0.03684
0.01940,0.03702
0.01934,0.03340
0.02024,0.03367
0.02198,0.03480
0.02180,0.03384
0.02023,0.03421
0.01997,0.03709
0.02026,0.03387
0.02279,0.03462
0.02301,0.03612
0.01919,0.03388
0.01750,0.03448
0.01915,0.03616
0.02053,0.03507
0.01998,0.03446
0.01921,0.03669
0.01978,0.03464
0.01992,0.03364
0.02014,0.03405
0.02041,0.03353
0.01984,0.03357
0.02103,0.03709
0.02051,0.03573
0.01935,0.03322
0.02066,0.03493
0.02188,0.03310
0.02009,0.03375
0.01926,0.03487
0.02069,0.03517
0.02112,0.03689
0.02132,0.03600
0.02179,0.03437
0.02126,0.03432
0.02051,0.03499
0.02241,0.03481
0.02287,0.03718
0.02114,0.03694
0.02046,0.03323
0.02207,0.03188
0.02160,0.03398
0.02131,0.03432
0.02043,0.03557
0.01943,0.03697
0.02137,0.03272
0.02140,0.03391
0.01963,0.03365
0.01892,0.03169
0.01970,0.03397
0.01897,0.03498
0.01823,0.03287
0.01891,0.03333
0.01980,0.03622
0.01967,0.03546
0.02129,0.03589
0.02071,0.03488
0.01960,0.03369
0.02020,0.03499
0.01843,0.03581
0.01956,0.03640
0.02187,0.03687
0.02054,0.03530
0.01701,0.03269
0.01960,0.03603
0.02103,0.03519
0.01966,0.03348
0.02004,0.03657
0.02240,0.03645
0.02158,0.03281
0.02110,0.03277
0.02106,0.03546
0.01915,0.03500
0.02068,0.03486
0.02111,0.03524
0.01977,0.03317
0.01917,0.03157
0.01967,0.03565
0.02039,0.03479
0.02171,0.03526
0.02127,0.03604
0.01895,0.03286
0.02044,0.03464
0.01944,0.03439
0.01803,0.03479
0.01912,0.03645
0.01989,0.03363
0.01972,0.03297
0.01845,0.03552
0.01864,0.03651
0.02121,0.03463
0.02204,0.03531
0.02068,0.03565
0.02030,0.03462
0.02064,0.03336
0.01981,0.03332
0.02158,0.03512
0.02079,0.03520
0.01994,0.03349
0.02217,0.03277
0.02205,0.03397
0.01903,0.03481
0.01936,0.03422
0.02149,0.03434
0.01990,0.03552
0.01941,0.03308
0.01958,0.03379
0.01932,0.03526
0.01892,0.03479
0.01935,0.03580
0.02081,0.03330
0.01983,0.03365
0.01799,0.03566
0.01915,0.03468
0.02125,0.03613
0.02163,0.03420
0.02080,0.03341
0.02084,0.03620
0.02145,0.03641
0.01892,0.03486
0.02082,0.03423
0.02152,0.03298
0.01667,0.03169
0.01906,0.03526
0.02006,0.03455
0.02051,0.03460
0.02123,0.03629
0.01919,0.03412
0.01888,0.03585
0.01904,0.03623
0.01984,0.03430
0.02154,0.03377
0.02080,0.03580
