0.19220,0.37030
0.19218,0.37197
0.19229,0.37557
0.19345,0.37430
0.19420,0.36916
0.19274,0.36736
0.19215,0.36889
0.19040,0.37071
0.18901,0.36974
0.18965,0.36869
0.18896,0.37304
0.18921,0.37053
0.18833,0.36558
0.18748,0.36289
0.18924,0.36101
0.18748,0.36532
0.18753,0.36583
0.19099,0.36648
0.19334,0.37289
0.19158,0.37570
0.19027,0.37281
0.19203,0.37195
0.19253,0.37275
0.18998,0.37098
0.19350,0.37392
0.19515,0.37628
0.19523,0.38054
0.19571,0.38210
0.19396,0.37154
0.19663,0.37241
0.19467,0.37633
0.18961,0.37661
0.19115,0.37800
0.19600,0.37926
0.19843,0.37944
0.19723,0.38399
0.19489,0.38562
0.19410,0.37508
0.19483,0.37735
0.19386,0.37861
0.19385,0.37720
0.19695,0.38080
0.19771,0.38126
0.19648,0.38348
0.19391,0.38042
0.19231,0.37392
0.19396,0.37563
0.19575,0.37946
0.19445,0.37635
0.19497,0.37606
0.19944,0.38409
0.19999,0.38525
0.19576,0.37935
0.19389,0.37538
0.19518,0.37424
0.19507,0.37351
0.19485,0.37952
0.19216,0.37905
0.19296,0.37947
0.19679,0.38266
0.19391,0.37473
0.19202,0.37332
0.19261,0.37425
0.19404,0.37373
0.19545,0.37480
0.19612,0.37580
0.19475,0.37883
0.19435,0.38248
0.19497,0.37939
0.19301,0.36918
0.19137,0.37175
0.19136,0.37309
0.19353,0.37296
0.19628,0.37868
0.19574,0.37889
0.19307,0.37367
0.19369,0.37178
0.19464,0.37223
0.19005,0.36908
0.18910,0.37128
0.19265,0.37234
0.19367,0.37072
0.19152,0.37256
0.19436,0.37757
0.19567,0.36925
0.19294,0.36349
0.18969,0.36475
0.18956,0.36313
0.19114,0.36814
0.19187,0.37193
0.19118,0.37276
0.19031,0.37153
0.19003,0.36574
0.18880,0.36105
0.18862,0.36409
0.19031,0.36644
0.19186,0.36253
0.19185,0.36745
0.19346,0.37138
0.19458,0.37417
0.19229,0.37474
0.18854,0.36741
0.18802,0.36347
0.19001,0.36702
0.19005,0.36887
0.18799,0.36641
0.18983,0.37215
0.19221,0.37446
0.19113,0.36863
0.18913,0.36462
0.19023,0.36887
0.18989,0.36624
0.18929,0.36457
0.18866,0.36660
0.18760,0.36772
0.18826,0.36888
0.19201,0.37608
0.19118,0.37480
0.18716,0.36598
0.18786,0.36448
0.18978,0.36594
0.19026,0.36864
0.18821,0.37154
0.18694,0.37268
0.19024,0.37276
0.19078,0.37799
0.18867,0.37568
0.18713,0.36905
0.18717,0.36923
0.18748,0.36784
0.18858,0.36801
0.18994,0.37122
0.19081,0.37393
0.19167,0.37419
0.19332,0.37725
0.19255,0.37480
0.19076,0.37132
0.19049,0.37301
0.18976,0.37097
0.19015,0.37097
0.19038,0.37187
0.18942,0.37080
0.18956,0.37180
0.19313,0.38012
0.19209,0.37545
0.18913,0.36637
0.18938,0.36740
0.18938,0.36800
0.19130,0.36939
0.19004,0.37308
0.18779,0.37304
0.19075,0.36901
0.19262,0.37572
0.19010,0.37338
0.18852,0.36717
0.19051,0.36807
0.19048,0.36788
0.18768,0.36583
0.18834,0.36751
0.19035,0.37031
0.18893,0.37114
0.18902,0.37570
0.18810,0.36966
0.18793,0.36584
0.18927,0.36919
0.18893,0.36556
0.18757,0.36610
0.18885,0.36697
0.19054,0.36608
0.18986,0.36906
0.18981,0.37623
0.18842,0.36889
0.18857,0.36257
0.18902,0.36402
0.18618,0.36134
0.18631,0.36431
0.18816,0.36814
0.18986,0.36790
0.18984,0.36668
0.18715,0.36849
0.18733,0.36506
0.18713,0.36380
0.18577,0.36400
0.18593,0.36002
0.18546,0.36328
0.18918,0.36864
0.19283,0.37119
0.19073,0.36989
0.18632,0.36482
0.18609,0.35914
0.18774,0.36211
0.18740,0.36399
0.18682,0.35838
0.19056,0.36620
0.18943,0.36892
0.18778,0.36829
0.19030,0.37222
0.19189,0.37389
0.19086,0.36653
0.18909,0.36222
0.18749,0.36345
0.18731,0.36479
0.19056,0.36706
0.19182,0.36734
0.18958,0.37125
0.18829,0.37403
0.19056,0.36713
0.18953,0.36525
0.18666,0.36535
0.18578,0.36345
0.18751,0.36357
0.18915,0.36925
0.19011,0.36823
0.19100,0.36852
0.19155,0.37039
0.19034,0.36653
0.18723,0.36591
0.18755,0.36346
0.19049,0.36321
0.19084,0.36683
0.18732,0.36729
0.18688,0.37087
0.18916,0.37237
0.19155,0.37163
0.19210,0.37224
0.18956,0.36932
0.18855,0.36352
0.18970,0.36219
0.18992,0.36510
0.18880,0.36548
0.19186,0.36876
0.19262,0.37070
0.19136,0.37209
0.19175,0.37399
0.19030,0.37018
0.18893,0.36732
0.18904,0.36811
0.18883,0.36759
0.18785,0.36423
0.19119,0.36896
0.19133,0.37151
0.19072,0.37338
0.19172,0.37603
0.18778,0.36927
0.18774,0.36490
0.18768,0.36545
0.18649,0.36655
0.18821,0.36682
0.18902,0.36912
0.18952,0.36656
0.19090,0.36990
0.19218,0.37736
0.19175,0.36972
0.19117,0.36648
0.18845,0.36508
0.18699,0.36280
0.18993,0.36415
0.19084,0.36736
0.18944,0.36660
0.18907,0.36814
0.19192,0.37473
0.19470,0.37709
0.19038,0.37016
0.18973,0.36370
0.19165,0.36458
0.18921,0.36807
0.18818,0.36635
0.19054,0.36856
0.19198,0.36867
0.19236,0.36774
0.19353,0.37361
0.18922,0.37315
0.18734,0.36743
0.18892,0.36445
0.18897,0.36585
0.18721,0.36608
0.18705,0.36815
0.18916,0.36749
0.19152,0.36821
0.19118,0.37380
0.18733,0.36860
0.18725,0.36345
0.18780,0.36291
0.18641,0.36177
0.18836,0.35965
0.19053,0.36682
0.19007,0.36740
0.18899,0.36469
0.18920,0.36812
0.18771,0.36069
0.18694,0.35924
0.18723,0.36128
0.18734,0.35961
0.18748,0.35957
0.18911,0.36290
0.18931,0.36623
0.18844,0.36880
0.18877,0.36691
0.18878,0.35575
0.18580,0.35694
0.18475,0.35872
0.18681,0.35643
0.18781,0.36166
0.18911,0.36225
0.18954,0.36306
0.18924,0.36754
0.18872,0.36922
0.18727,0.36164
0.18601,0.35660
0.18685,0.35942
0.18825,0.36598
0.18800,0.36746
0.18899,0.36067
0.19188,0.36559
0.19066,0.37077
0.18687,0.36535
0.18915,0.36363
0.18791,0.36250
0.18547,0.36150
0.18665,0.36231
0.18897,0.36415
0.18675,0.36386
0.18800,0.36316
0.18867,0.35947
0.18554,0.35909
0.18427,0.36691
0.18444,0.35888
0.18646,0.35883
0.18840,0.36612
0.18919,0.36716
0.19051,0.37322
0.18766,0.36962
0.18655,0.36425
0.18917,0.36598
0.18975,0.36973
0.18934,0.37289
0.19128,0.37706
0.19374,0.37643
0.19355,0.37483
0.19205,0.38415
0.19218,0.37809
0.19101,0.37190
0.18842,0.37339
0.18869,0.37263
0.19261,0.37768
0.19441,0.38316
0.19389,0.38461
0.19423,0.38214
0.19521,0.37848
0.19301,0.37863
0.19132,0.38185
0.19141,0.38180
0.19199,0.37825
0.19447,0.38188
0.19502,0.38634
0.19326,0.38531
0.19249,0.37960
0.19417,0.37561
0.19386,0.37875
0.19305,0.38364
0.19431,0.38444
0.19642,0.38361
0.19607,0.38698
0.19692,0.38413
0.19711,0.38420
0.19663,0.38817
0.19767,0.38655
0.19650,0.39011
0.19817,0.39483
0.20246,0.39922
0.20392,0.40078
0.20049,0.39287
0.19750,0.38647
0.19941,0.39173
0.20280,0.39807
0.20286,0.39509
0.20397,0.40072
0.20608,0.40328
0.20517,0.40024
0.20112,0.39604
0.19994,0.39204
0.20367,0.39558
0.20567,0.39634
0.20467,0.39624
0.20477,0.40311
0.20604,0.40564
0.20686,0.39811
0.20558,0.39762
0.20385,0.40502
0.20515,0.40284
0.20820,0.40585
0.21109,0.41136
0.20963,0.40979
0.20480,0.40167
0.20392,0.39720
0.19991,0.39156
0.19591,0.38761
0.19537,0.38544
0.19503,0.38178
0.19282,0.38163
0.18872,0.37156
0.18710,0.36390
0.18858,0.36652
0.18712,0.36125
0.18476,0.36460
0.18396,0.36819
0.18358,0.36498
0.18145,0.36101
0.17902,0.35779
0.17828,0.35654
0.18003,0.35738
0.18133,0.35661
0.17944,0.35300
0.18093,0.35904
0.18213,0.36357
0.18111,0.36100
0.17938,0.35696
0.17644,0.35281
0.17811,0.35197
0.17968,0.35646
0.17826,0.35958
0.17847,0.35534
0.17912,0.35747
0.18297,0.36124
0.18559,0.36566
0.18222,0.36742
0.17842,0.35591
0.17858,0.35426
0.17972,0.35701
0.17868,0.35737
0.17736,0.36098
0.17957,0.36197
0.18175,0.35914
0.18133,0.36228
0.18050,0.37057
0.18222,0.36719
0.18201,0.36004
0.17887,0.35592
0.17615,0.35727
0.17734,0.36173
0.18105,0.36231
0.18096,0.36114
0.17964,0.36196
0.18093,0.36406
0.18277,0.36539
0.18430,0.37017
0.18221,0.36450
0.17902,0.35735
0.17920,0.36190
0.18044,0.36037
0.18166,0.36412
0.18155,0.36695
0.18091,0.36496
0.18204,0.36855
0.18345,0.37416
0.18367,0.37614
0.18305,0.37180
0.18295,0.36467
0.18303,0.36298
0.17985,0.36820
0.18043,0.36925
0.18340,0.36759
0.18137,0.37312
0.18296,0.37446
0.18261,0.37092
0.18099,0.36597
0.18097,0.36433
0.17999,0.36818
0.18322,0.36754
0.18338,0.36724
0.18127,0.37016
0.18307,0.37073
0.18142,0.36755
0.18165,0.36762
0.18163,0.36605
0.18011,0.36126
0.18263,0.36151
0.18459,0.36065
0.18438,0.36506
0.18327,0.36800
0.18286,0.36150
0.18276,0.36006
0.17901,0.36009
0.17727,0.36048
0.18021,0.36077
0.18219,0.35922
0.18285,0.36080
0.18314,0.36633
0.18473,0.36635
0.18643,0.35802
0.18424,0.35475
0.18187,0.35474
0.18095,0.35751
0.18147,0.35933
0.18314,0.35845
0.18459,0.36532
0.18600,0.36526
0.18626,0.35817
