0.03071,0.05707
0.02856,0.05873
0.02985,0.05594
0.02991,0.05548
0.02855,0.05604
0.02903,0.05415
0.03038,0.05907
0.03004,0.05605
0.02868,0.05194
0.02819,0.05719
0.02834,0.05661
0.02951,0.05737
0.02908,0.05503
0.02860,0.05268
0.03062,0.05804
0.02905,0.05604
0.02908,0.05424
0.03078,0.05550
0.03136,0.05720
0.03191,0.05901
0.03034,0.05423
0.02858,0.05505
0.02817,0.05924
0.02863,0.05555
0.02997,0.05567
0.03068,0.05603
0.03065,0.05668
0.03039,0.05729
0.03023,0.05474
0.03091,0.05682
0.02906,0.05821
0.02755,0.05709
0.02994,0.05596
0.03063,0.05314
0.03056,0.05590
0.02936,0.05689
0.02807,0.05410
0.02938,0.05527
0.03080,0.05279
0.02949,0.05632
0.02822,0.05864
0.02973,0.05304
0.03039,0.05525
0.02868,0.05504
0.02869,0.05671
0.02885,0.05885
0.02541,0.05453
0.02645,0.05738
0.02911,0.05720
0.02923,0.05488
0.02811,0.05623
0.02950,0.05655
0.02969,0.05753
0.02901,0.05728
0.02861,0.05558
0.02920,0.05530
0.03167,0.05691
0.02902,0.05669
0.02746,0.05600
0.03081,0.05546
0.03131,0.05414
0.03154,0.05990
0.02979,0.05946
0.02830,0.05551
0.03008,0.05739
0.03060,0.05410
0.02918,0.05641
0.02889,0.05624
0.03037,0.05258
0.03066,0.05754
0.02917,0.05798
0.02796,0.05833
0.02942,0.05850
0.03118,0.05550
0.02849,0.05530
0.03042,0.05749
0.03104,0.05821
0.02788,0.05697
0.02813,0.05613
0.03028,0.05524
0.03080,0.05852
0.02908,0.05896
0.02819,0.05383
0.03090,0.05406
0.03270,0.05515
0.03077,0.05604
0.02858,0.05684
0.02988,0.05723
0.03067,0.05861
0.02978,0.05831
0.02868,0.05742
0.02878,0.05854
0.02952,0.05935
0.02912,0.05339
0.02940,0.05480
0.02973,0.05801
0.02889,0.05273
0.02948,0.05589
0.02992,0.05678
0.02983,0.05641
0.03011,0.05770
0.03087,0.05658
0.03098,0.05711
0.03089,0.05698
0.03075,0.05593
0.03056,0.05645
0.03079,0.05761
0.03061,0.05426
0.03020,0.05379
0.03047,0.05789
0.03087,0.05930
0.02926,0.05944
0.03022,0.05664
0.03096,0.05393
0.02801,0.05489
0.02629,0.05728
0.02887,0.05779
0.03209,0.05801
0.03198,0.05752
0.02901,0.05617
0.02747,0.05862
0.02891,0.05541
0.02963,0.05483
0.02827,0.05897
0.02836,0.05507
0.02882,0.05705
0.03039,0.05793
0.03175,0.05601
0.03065,0.05676
0.02896,0.05621
0.03094,0.05737
0.03029,0.05785
0.02639,0.05441
0.02761,0.05146
0.02990,0.05762
0.02870,0.05604
0.02773,0.05228
0.03050,0.05649
0.03175,0.05428
0.03029,0.05542
0.02758,0.05545
0.02747,0.05394
0.03041,0.05670
0.02854,0.05408
0.02746,0.05521
0.02968,0.05786
0.03125,0.05644
0.02931,0.05666
0.02810,0.05804
0.02945,0.05847
0.03149,0.05696
0.03168,0.05489
0.03004,0.05547
0.02833,0.05837
0.02868,0.05777
0.03005,0.05472
0.02956,0.05682
0.02990,0.05680
0.02975,0.05643
0.02920,0.05657
0.02935,0.05631
0.02872,0.05877
0.02916,0.06123
0.02840,0.05946
0.02631,0.05633
0.02684,0.05713
0.02890,0.05530
0.02806,0.05627
0.02663,0.05706
0.02804,0.05385
0.02941,0.05436
0.03144,0.05460
0.03041,0.05585
0.02797,0.05830
0.02918,0.05715
0.02899,0.05173
0.02833,0.05398
0.02819,0.05796
0.02835,0.05574
0.02910,0.05503
0.03025,0.05426
0.02999,0.05567
0.02977,0.05748
0.03087,0.05605
0.02865,0.05528
0.02622,0.05350
0.02637,0.05202
0.02843,0.05414
0.02961,0.05838
0.02786,0.05642
0.02644,0.05467
0.02802,0.05337
0.02965,0.04995
0.02583,0.05204
0.02346,0.05250
0.02541,0.04959
0.02765,0.04896
0.02641,0.05297
0.02593,0.05271
0.02665,0.05329
0.02757,0.05271
0.02742,0.04894
0.02575,0.05112
0.02735,0.05317
0.02846,0.05588
0.02953,0.05870
0.03332,0.05812
0.03046,0.05830
0.02916,0.05745
0.03134,0.05692
0.03181,0.05798
0.02978,0.05725
0.02949,0.05499
0.03064,0.05601
0.03075,0.05898
0.02975,0.05865
0.03046,0.05714
0.03037,0.05749
0.03001,0.05804
0.03150,0.05819
0.03310,0.05950
0.02961,0.05723
0.02857,0.05897
0.02991,0.06133
0.02935,0.05876
0.03209,0.06124
0.03269,0.05846
0.03075,0.05779
0.03028,0.06283
0.03224,0.06300
0.03182,0.06127
0.03053,0.05884
0.02951,0.05751
0.02945,0.05833
0.03165,0.05829
0.03035,0.05447
0.02843,0.05389
0.02879,0.05730
0.02940,0.05788
0.02960,0.05802
0.02982,0.05844
0.02995,0.05858
0.02958,0.05798
0.02903,0.05756
0.02895,0.05957
0.02905,0.05851
0.03082,0.05633
0.03291,0.05877
0.02833,0.05950
0.02708,0.05769
0.02948,0.05711
0.02963,0.05893
0.02810,0.05995
0.03024,0.05954
0.03047,0.05619
0.03022,0.05634
0.03321,0.06169
0.03229,0.05891
0.03100,0.05757
0.03054,0.05827
0.02974,0.05809
0.02935,0.05871
0.03123,0.05876
0.03071,0.05914
0.02978,0.05747
0.03122,0.05493
0.03003,0.05848
0.02887,0.05900
0.02853,0.05708
0.02918,0.05628
0.03071,0.05698
0.03012,0.06007
0.02781,0.05964
0.02756,0.05700
0.02987,0.05818
0.03028,0.06211
0.03015,0.05706
0.03019,0.05374
0.03081,0.05656
0.03066,0.05806
0.02695,0.05944
0.02818,0.05913
0.03061,0.05843
0.02915,0.05817
0.02814,0.05713
0.02790,0.05797
0.02784,0.05808
0.02860,0.05732
0.02978,0.05847
0.02896,0.06069
0.02997,0.05929
0.03166,0.05769
0.03112,0.05725
0.02950,0.05528
0.03048,0.05716
0.02959,0.05617
0.02886,0.05478
0.03135,0.05817
0.03172,0.05990
0.03082,0.05903
0.02972,0.05562
0.02922,0.05551
0.02941,0.06096
0.02872,0.05747
0.02930,0.05492
0.03129,0.05620
0.03195,0.05737
0.02980,0.05897
0.02909,0.05783
0.03078,0.05633
0.03176,0.05697
0.02995,0.05908
0.02849,0.06066
0.02802,0.05905
0.02898,0.05549
0.02942,0.05526
0.02764,0.06004
0.03055,0.05874
0.03149,0.05631
0.03014,0.05521
0.03080,0.05501
0.02924,0.06015
0.02958,0.05775
0.03007,0.05520
0.02896,0.05781
0.02930,0.05776
0.03166,0.05965
0.03058,0.05996
0.02795,0.05783
0.02855,0.05608
0.02988,0.05597
0.02941,0.05923
0.02900,0.05827
0.02979,0.05514
0.03087,0.05849
0.03266,0.05934
0.03174,0.05564
0.03027,0.05489
0.03073,0.05804
0.03045,0.05672
0.03048,0.06030
0.02928,0.05876
0.02929,0.05484
0.03161,0.05846
0.02826,0.05602
0.02821,0.05860
0.03213,0.06151
0.03317,0.05837
0.02963,0.05698
0.02880,0.05669
0.02980,0.05466
0.03056,0.05430
0.03072,0.05797
0.02960,0.05856
0.02963,0.05721
0.02972,0.05689
0.03003,0.05813
0.03174,0.05940
0.02992,0.06002
0.02886,0.05799
0.02928,0.05647
0.02909,0.05794
0.02983,0.05805
0.02952,0.05675
0.02804,0.05826
0.02766,0.06057
0.02915,0.05915
0.02904,0.05962
0.02988,0.05750
0.03117,0.05615
0.03083,0.05819
0.02996,0.05676
0.02993,0.05485
0.03006,0.05672
0.03110,0.05862
0.03271,0.05619
0.03027,0.05607
0.02910,0.05642
0.02841,0.05742
0.02772,0.05813
0.03023,0.05673
0.02907,0.06066
0.02799,0.05844
0.02909,0.05392
0.03009,0.05821
0.03080,0.06109
0.02978,0.06001
0.02993,0.05669
0.03117,0.05576
0.03012,0.05890
0.03033,0.05745
0.02958,0.05500
0.02840,0.05481
0.02854,0.05578
0.02856,0.05683
0.03054,0.05787
0.03114,0.05799
0.03019,0.05756
0.03095,0.05652
0.03046,0.05277
0.03015,0.05696
0.03063,0.05973
0.02979,0.05533
0.02721,0.05895
0.02985,0.06080
0.03047,0.05875
0.02805,0.05673
0.02932,0.05667
0.03125,0.05693
0.03064,0.05745
0.02836,0.05717
0.02830,0.05726
0.03100,0.05876
0.02827,0.05446
0.02774,0.05618
0.02910,0.06045
0.02731,0.05677
0.02872,0.05570
0.02895,0.05759
0.02968,0.05727
0.03085,0.05487
0.02858,0.05583
0.02845,0.05884
0.02886,0.05874
0.02840,0.05694
0.02839,0.05749
0.02942,0.05809
0.02945,0.05406
0.02894,0.05365
0.02921,0.05795
0.03002,0.05807
0.02987,0.05609
0.02964,0.05607
0.02942,0.05766
0.03001,0.05808
0.03239,0.05677
0.03137,0.05634
0.02976,0.05828
0.02939,0.05823
0.02868,0.05473
0.02851,0.05712
0.02726,0.05585
0.02818,0.05465
0.03102,0.05732
0.03012,0.05727
0.02934,0.05970
0.02849,0.05738
0.02857,0.05520
0.03004,0.05980
0.02919,0.05803
0.03012,0.05510
0.03112,0.05527
0.03013,0.05715
0.02954,0.05820
0.03003,0.05870
0.02843,0.05660
0.02724,0.05676
0.02953,0.05960
0.03102,0.05526
0.02936,0.05477
0.02828,0.05701
0.02903,0.05727
0.02950,0.05643
0.03145,0.05592
0.03152,0.05841
0.03096,0.05995
0.03039,0.05791
0.02725,0.05703
0.02968,0.05740
0.03082,0.05853
0.02898,0.05830
0.03021,0.05592
0.03171,0.05546
0.03204,0.05643
0.03045,0.05732
0.02850,0.05771
0.02925,0.05760
0.03125,0.05610
0.03177,0.05712
0.02996,0.05768
0.02801,0.05566
0.02876,0.05889
0.02836,0.05761
0.02821,0.05610
0.02947,0.05733
0.03027,0.05558
0.03199,0.05635
0.03044,0.05581
0.02903,0.05471
0.03088,0.05521
0.02975,0.05404
0.02980,0.05739
0.03127,0.05944
0.03116,0.05700
0.02930,0.05579
0.02978,0.05713
0.02894,0.05728
0.02729,0.05621
