0.36259,0.86203
0.36308,0.86853
0.36331,0.85967
0.36183,0.85696
0.36071,0.85950
0.36232,0.85482
0.36169,0.85998
0.36309,0.86640
0.36576,0.87130
0.36601,0.87426
0.36529,0.86642
0.36238,0.86607
0.36136,0.86860
0.36429,0.86577
0.36701,0.86450
0.36557,0.87358
0.36649,0.87704
0.36880,0.87923
0.36783,0.88264
0.36509,0.87245
0.36386,0.87180
0.36546,0.87185
0.36666,0.87045
0.36608,0.87680
0.36973,0.88025
0.37173,0.88741
0.36933,0.88927
0.36679,0.88260
0.36814,0.88145
0.36816,0.88039
0.36835,0.88166
0.36996,0.88513
0.37194,0.88850
0.37361,0.89306
0.37094,0.88969
0.36823,0.88551
0.36836,0.88521
0.36829,0.88289
0.36916,0.88415
0.37107,0.89184
0.37333,0.89727
0.37421,0.89365
0.37186,0.88849
0.36904,0.88607
0.36796,0.88707
0.36845,0.88800
0.36949,0.88846
0.37121,0.89613
0.37083,0.89453
0.36946,0.88682
0.36962,0.88374
0.37003,0.88156
0.36772,0.88350
0.36692,0.88502
0.36901,0.88796
0.37106,0.89412
0.37259,0.88977
0.36978,0.88135
0.36688,0.87903
0.36726,0.88111
0.36752,0.87887
0.36876,0.87959
0.37006,0.88498
0.36981,0.88713
0.36826,0.88058
0.36779,0.87376
0.36855,0.87518
0.36799,0.87828
0.36778,0.87977
0.37104,0.88401
0.37061,0.88316
0.36807,0.88032
0.36662,0.87445
0.36621,0.86865
0.36562,0.87460
0.36714,0.87606
0.36941,0.87608
0.37025,0.88100
0.36942,0.88432
0.36758,0.87775
0.36478,0.86975
0.36479,0.86686
0.36748,0.86902
0.36679,0.87325
0.36703,0.87531
0.36912,0.88021
0.37003,0.88337
0.36759,0.87678
0.36423,0.87015
0.36366,0.86710
0.36506,0.87021
0.36683,0.87438
0.36881,0.87272
0.36840,0.87968
0.36948,0.88650
0.37036,0.88247
0.36727,0.87316
0.36498,0.87343
0.36565,0.87664
0.36833,0.87717
0.36986,0.87709
0.36936,0.88179
0.37179,0.89071
0.36949,0.88559
0.36622,0.87615
0.36811,0.87801
0.36763,0.87870
0.36640,0.88078
0.36863,0.88278
0.37171,0.88835
0.37147,0.89714
0.37331,0.88737
0.36917,0.87936
0.36654,0.88027
0.37064,0.88152
0.36949,0.88178
0.36969,0.88506
0.37167,0.89193
0.37279,0.89617
0.37243,0.89143
0.37096,0.88279
0.36905,0.88514
0.36942,0.88753
0.37135,0.88460
0.37126,0.89057
0.37318,0.89360
0.37471,0.89982
0.37365,0.89851
0.37180,0.88463
0.37186,0.88887
0.37256,0.89030
0.37283,0.88986
0.37274,0.89587
0.37260,0.89959
0.37197,0.89235
0.37010,0.88783
0.37054,0.88813
0.37279,0.88815
0.36970,0.89180
0.37069,0.89171
0.37467,0.89870
0.37429,0.90321
0.36945,0.88845
0.37004,0.88500
0.37102,0.88459
0.37057,0.88435
0.37101,0.88821
0.37218,0.89210
0.37369,0.89771
0.37216,0.89375
0.36893,0.88178
0.36801,0.87626
0.36774,0.87835
0.36801,0.87945
0.36834,0.88290
0.36890,0.88940
0.37017,0.88973
0.36953,0.88755
0.36784,0.88164
0.36734,0.87799
0.36794,0.88029
0.36732,0.87803
0.36817,0.88033
0.37006,0.88797
0.37096,0.89000
0.37023,0.88071
0.36833,0.87552
0.36721,0.87489
0.36804,0.87766
0.36999,0.87992
0.37128,0.87607
0.37236,0.88601
0.37017,0.88549
0.36500,0.87237
0.36314,0.87390
0.36832,0.87471
0.36871,0.87373
0.36690,0.87566
0.36922,0.88228
0.36999,0.88783
0.36938,0.87777
0.36661,0.86874
0.36384,0.87020
0.36428,0.87111
0.36558,0.86674
0.36555,0.87210
0.36744,0.87978
0.37014,0.87911
0.36779,0.87482
0.36704,0.86559
0.36643,0.86357
0.36435,0.86651
0.36361,0.86618
0.36658,0.87095
0.36804,0.87484
0.36852,0.87799
0.36905,0.87793
0.36748,0.86983
0.36501,0.86524
0.36371,0.86572
0.36469,0.86765
0.36739,0.87069
0.36958,0.87633
0.36821,0.87436
0.36722,0.87095
0.36717,0.86972
0.36534,0.86681
0.36636,0.86855
0.36756,0.87208
0.36922,0.87607
0.37108,0.87908
0.36909,0.87607
0.36671,0.86804
0.36514,0.86649
0.36482,0.86756
0.36577,0.86404
0.36586,0.87150
0.36612,0.87486
0.36766,0.87689
0.36872,0.87894
0.36673,0.86918
0.36507,0.86406
0.36525,0.86586
0.36577,0.86816
0.36542,0.86913
0.36627,0.87425
0.36980,0.88045
0.36953,0.87764
0.36531,0.86668
0.36471,0.86187
0.36455,0.86809
0.36519,0.87067
0.36598,0.86987
0.36703,0.87478
0.37006,0.87899
0.36760,0.86920
0.36503,0.86485
0.36574,0.86857
0.36564,0.86466
0.36650,0.87013
0.36923,0.87391
0.36922,0.87274
0.36575,0.86974
0.36546,0.86287
0.36542,0.86178
0.36494,0.86556
0.36479,0.86623
0.36564,0.86532
0.36797,0.87542
0.36831,0.87020
0.36392,0.85902
0.36016,0.85795
0.36393,0.85726
0.36390,0.85839
0.36349,0.86088
0.36553,0.86482
0.36713,0.87009
0.36721,0.87116
0.36453,0.85933
0.36141,0.85369
0.36084,0.85782
0.36249,0.85394
0.36295,0.85772
0.36376,0.86130
0.36624,0.86541
0.36747,0.87053
0.36415,0.86188
0.36392,0.85435
0.36276,0.85510
0.36045,0.85813
0.36281,0.85801
0.36456,0.86181
0.36584,0.86792
0.36485,0.86584
0.36202,0.85517
0.36192,0.85040
0.36031,0.85088
0.36040,0.85556
0.36250,0.85948
0.36335,0.86051
0.36475,0.86557
0.36298,0.85573
0.35990,0.84600
0.35922,0.84933
0.36073,0.84923
0.36298,0.84877
0.36335,0.85223
0.36343,0.85636
0.36344,0.85509
0.35860,0.84863
0.35994,0.84336
0.36187,0.84602
0.36060,0.85069
0.36338,0.84954
0.36584,0.85824
0.36585,0.85992
0.36371,0.85121
0.36122,0.84599
0.36050,0.84816
0.36064,0.84828
0.36142,0.84848
0.36270,0.85234
0.36291,0.85482
0.36010,0.84834
0.35857,0.83915
0.36044,0.83922
0.36138,0.84549
0.35797,0.84372
0.36161,0.84979
0.36180,0.84622
0.35708,0.83608
0.35779,0.83710
0.35947,0.83188
0.35895,0.83733
0.35948,0.84681
0.36095,0.84569
0.35831,0.83829
0.35653,0.83162
0.35594,0.83189
0.35712,0.83528
0.35979,0.83543
0.36004,0.83663
0.36176,0.84353
0.35921,0.84244
0.35431,0.83311
0.35726,0.83238
0.35876,0.83305
0.35711,0.83743
0.35878,0.84325
0.36311,0.84410
0.35910,0.84021
0.35685,0.83669
0.35859,0.83654
0.36025,0.83754
0.36025,0.83911
0.36119,0.84775
0.36240,0.84648
0.36169,0.84028
0.35915,0.84089
0.35838,0.84226
0.36168,0.84566
0.36246,0.85044
0.36211,0.85462
0.36513,0.85559
0.36326,0.85120
0.36247,0.84908
0.36198,0.84971
0.36128,0.85005
0.36496,0.85266
0.36660,0.86271
0.36635,0.86828
0.36449,0.86432
0.36207,0.85789
0.36403,0.85564
0.36551,0.86078
0.36738,0.86312
0.36811,0.86222
0.36500,0.86885
0.36899,0.87384
0.36954,0.87223
0.36640,0.86563
0.36583,0.86171
0.36408,0.86716
0.36659,0.87043
0.36934,0.87527
0.37048,0.88140
0.37274,0.88097
0.37192,0.87987
0.37249,0.87596
0.37053,0.87554
0.36622,0.87973
0.37030,0.87887
0.37361,0.88596
0.37451,0.89333
0.37283,0.89058
0.36946,0.88225
0.37141,0.88164
0.37218,0.88496
0.37138,0.88679
0.37254,0.88875
0.37475,0.89366
0.37427,0.89257
0.37091,0.88892
0.36955,0.88513
0.37158,0.88255
0.37077,0.88703
0.37395,0.88994
0.37604,0.89289
0.37454,0.89455
0.37458,0.88881
0.37039,0.88635
0.37138,0.88191
0.37357,0.88050
0.37086,0.88682
0.37315,0.89016
0.37469,0.89777
0.37386,0.89238
0.37267,0.88233
0.37246,0.88983
0.37333,0.88456
0.37209,0.88421
0.37152,0.88905
0.37274,0.88926
0.37087,0.88958
0.37065,0.87911
0.36963,0.87779
0.36846,0.88492
0.37073,0.88360
0.37273,0.88773
0.37411,0.88971
0.37330,0.88623
0.37056,0.88058
0.36906,0.87519
0.36825,0.87275
0.36836,0.87633
0.36940,0.88117
0.37018,0.88021
0.36936,0.87517
0.36769,0.87080
0.36543,0.86916
0.36405,0.86759
0.36549,0.86598
0.36791,0.87394
0.36924,0.87612
0.36971,0.87073
0.36935,0.86687
0.36667,0.86371
0.36482,0.86425
0.36558,0.86457
0.36707,0.86949
0.36727,0.87996
0.36810,0.86891
0.36581,0.85817
0.36377,0.86038
0.36537,0.86576
0.36657,0.86559
0.36797,0.86956
0.36710,0.87230
0.36355,0.86795
0.36171,0.86036
0.36493,0.85722
0.36456,0.86361
0.36383,0.86590
0.36613,0.86242
0.36581,0.86950
0.36532,0.87174
0.36482,0.86094
0.36436,0.85331
0.36482,0.85924
0.36587,0.85853
0.36541,0.86203
0.36649,0.86940
0.36826,0.87048
0.36585,0.86268
0.36390,0.85689
0.36288,0.85985
0.36365,0.86442
0.36672,0.86375
0.36904,0.86654
0.36846,0.88018
0.36719,0.87712
0.36619,0.86448
0.36538,0.87273
0.36801,0.87124
0.36834,0.86826
0.36805,0.87639
0.36996,0.88466
0.36927,0.87499
0.36634,0.87275
0.36851,0.87524
0.37188,0.87433
0.36973,0.87565
0.37198,0.88561
0.37230,0.89107
0.36864,0.88715
0.36671,0.87999
0.36991,0.87679
0.37053,0.87912
0.37083,0.88331
0.37304,0.88814
0.37421,0.89196
0.37192,0.88833
0.37150,0.88130
0.37153,0.88159
0.37043,0.88604
0.37095,0.88512
0.37270,0.89414
0.37462,0.89925
0.37377,0.89348
0.37115,0.88790
0.37263,0.89119
0.37251,0.88865
0.37228,0.88993
0.37419,0.89803
0.37495,0.89780
0.37135,0.88840
0.37080,0.88742
0.37359,0.89236
