0.05527,0.11744
0.05523,0.11753
0.05539,0.11759
0.05532,0.11748
0.05500,0.11714
0.05483,0.11668
0.05497,0.11652
0.05494,0.11648
0.05485,0.11637
0.05491,0.11641
0.05474,0.11688
0.05487,0.11694
0.05494,0.11668
0.05481,0.11648
0.05479,0.11632
0.05463,0.11601
0.05461,0.11616
0.05476,0.11653
0.05490,0.11664
0.05492,0.11666
0.05464,0.11633
0.05464,0.11590
0.05488,0.11573
0.05476,0.11581
0.05449,0.11577
0.05465,0.11581
0.05492,0.11618
0.05492,0.11641
0.05475,0.11593
0.05425,0.11586
0.05435,0.11583
0.05481,0.11561
0.05473,0.11566
0.05453,0.11607
0.05465,0.11632
0.05476,0.11639
0.05466,0.11619
0.05454,0.11556
0.05427,0.11534
0.05430,0.11529
0.05462,0.11524
0.05474,0.11533
0.05455,0.11560
0.05457,0.11610
0.05471,0.11604
0.05466,0.11545
0.05444,0.11516
0.05415,0.11488
0.05415,0.11478
0.05425,0.11497
0.05425,0.11525
0.05444,0.11542
0.05454,0.11574
0.05433,0.11592
0.05425,0.11562
0.05458,0.11514
0.05448,0.11528
0.05433,0.11541
0.05458,0.11553
0.05494,0.11599
0.05486,0.11649
0.05485,0.11627
0.05460,0.11593
0.05440,0.11585
0.05469,0.11583
0.05471,0.11587
0.05468,0.11615
0.05481,0.11652
0.05502,0.11688
0.05507,0.11714
0.05497,0.11688
0.05470,0.11641
0.05444,0.11632
0.05455,0.11653
0.05501,0.11651
0.05513,0.11687
0.05507,0.11709
0.05511,0.11720
0.05515,0.11773
0.05515,0.11765
0.05506,0.11731
0.05498,0.11707
0.05493,0.11694
0.05484,0.11696
0.05510,0.11704
0.05522,0.11731
0.05508,0.11771
0.05515,0.11796
0.05538,0.11789
0.05522,0.11753
0.05485,0.11730
0.05481,0.11729
0.05511,0.11719
0.05508,0.11733
0.05509,0.11778
0.05527,0.11829
0.05535,0.11853
0.05527,0.11824
0.05519,0.11775
0.05517,0.11762
0.05508,0.11779
0.05485,0.11777
0.05495,0.11793
0.05496,0.11817
0.05504,0.11828
0.05530,0.11819
0.05508,0.11794
0.05508,0.11753
0.05517,0.11731
0.05497,0.11748
0.05469,0.11785
0.05490,0.11794
0.05514,0.11792
0.05534,0.11826
0.05534,0.11845
0.05471,0.11757
0.05463,0.11730
0.05481,0.11717
0.05488,0.11695
0.05485,0.11711
0.05452,0.11694
0.05459,0.11676
0.05477,0.11718
0.05472,0.11769
0.05474,0.11711
0.05458,0.11647
0.05449,0.11641
0.05442,0.11651
0.05434,0.11642
0.05474,0.11678
0.05491,0.11733
0.05482,0.11744
0.05477,0.11698
0.05466,0.11645
0.05433,0.11617
0.05420,0.11607
0.05435,0.11618
0.05452,0.11648
0.05464,0.11665
0.05461,0.11664
0.05447,0.11662
0.05439,0.11646
0.05436,0.11601
0.05402,0.11583
0.05416,0.11587
0.05441,0.11608
0.05433,0.11639
0.05454,0.11649
0.05453,0.11654
0.05446,0.11629
0.05443,0.11579
0.05429,0.11542
0.05415,0.11525
0.05394,0.11540
0.05399,0.11530
0.05422,0.11512
0.05411,0.11575
0.05398,0.11592
0.05402,0.11549
0.05415,0.11509
0.05413,0.11499
0.05383,0.11481
0.05406,0.11482
0.05412,0.11506
0.05405,0.11535
0.05472,0.11568
0.05460,0.11604
0.05417,0.11556
0.05403,0.11498
0.05410,0.11510
0.05413,0.11490
0.05407,0.11493
0.05408,0.11533
0.05420,0.11561
0.05425,0.11548
0.05410,0.11536
0.05380,0.11493
0.05395,0.11485
0.05453,0.11545
0.05460,0.11573
0.05480,0.11604
0.05504,0.11659
0.05522,0.11697
0.05535,0.11680
0.05514,0.11650
0.05489,0.11621
0.05489,0.11623
0.05515,0.11651
0.05533,0.11667
0.05511,0.11701
0.05507,0.11727
0.05527,0.11736
0.05535,0.11727
0.05536,0.11679
0.05523,0.11674
0.05513,0.11693
0.05539,0.11710
0.05593,0.11748
0.05593,0.11771
0.05565,0.11784
0.05551,0.11789
0.05545,0.11770
0.05520,0.11736
0.05540,0.11746
0.05557,0.11779
0.05548,0.11797
0.05552,0.11789
0.05539,0.11750
0.05512,0.11733
0.05487,0.11704
0.05475,0.11662
0.05474,0.11689
0.05468,0.11667
0.05455,0.11639
0.05411,0.11624
0.05343,0.11558
0.05344,0.11466
0.05328,0.11463
0.05307,0.11496
0.05327,0.11507
0.05354,0.11536
0.05340,0.11506
0.05362,0.11543
0.05378,0.11620
0.05330,0.11607
0.05348,0.11569
0.05388,0.11576
0.05405,0.11610
0.05398,0.11634
0.05394,0.11639
0.05414,0.11626
0.05409,0.11640
0.05376,0.11665
0.05373,0.11677
0.05423,0.11695
0.05431,0.11666
0.05432,0.11690
0.05453,0.11757
0.05466,0.11768
0.05521,0.11831
0.05547,0.11875
0.05549,0.11890
0.05566,0.11911
0.05571,0.11911
0.05549,0.11871
0.05533,0.11867
0.05538,0.11906
0.05545,0.11915
0.05559,0.11885
0.05577,0.11889
0.05566,0.11885
0.05543,0.11863
0.05572,0.11912
0.05611,0.11997
0.05603,0.11965
0.05574,0.11895
0.05563,0.11902
0.05534,0.11830
0.05519,0.11806
0.05524,0.11824
0.05539,0.11845
0.05551,0.11882
0.05525,0.11855
0.05522,0.11782
0.05533,0.11760
0.05520,0.11804
0.05516,0.11797
0.05527,0.11797
0.05548,0.11831
0.05548,0.11847
0.05515,0.11795
0.05500,0.11735
0.05489,0.11728
0.05473,0.11740
0.05469,0.11730
0.05492,0.11746
0.05527,0.11825
0.05520,0.11825
0.05501,0.11764
0.05523,0.11772
0.05515,0.11777
0.05514,0.11789
0.05550,0.11864
0.05595,0.11946
0.05615,0.11946
0.05659,0.12029
0.05671,0.12080
0.05644,0.12052
0.05628,0.12030
0.05635,0.12016
0.05670,0.12024
0.05674,0.12057
0.05650,0.12089
0.05665,0.12099
0.05694,0.12149
0.05726,0.12227
0.05750,0.12242
0.05754,0.12198
0.05749,0.12230
0.05761,0.12254
0.05786,0.12261
0.05807,0.12306
0.05828,0.12392
0.05860,0.12444
0.05906,0.12469
0.05895,0.12465
0.05834,0.12436
0.05846,0.12428
0.05868,0.12440
0.05888,0.12429
0.05892,0.12430
0.05867,0.12481
0.05866,0.12483
0.05871,0.12473
0.05857,0.12456
0.05835,0.12433
0.05838,0.12438
0.05850,0.12439
0.05852,0.12434
0.05849,0.12475
0.05848,0.12538
0.05834,0.12480
0.05833,0.12426
0.05835,0.12417
0.05815,0.12397
0.05783,0.12355
0.05786,0.12380
0.05800,0.12397
0.05837,0.12436
0.05917,0.12569
0.05993,0.12695
0.05977,0.12630
0.05921,0.12529
0.05882,0.12503
0.05861,0.12478
0.05874,0.12482
0.05878,0.12509
0.05893,0.12546
0.05946,0.12584
0.05977,0.12589
0.05908,0.12479
0.05788,0.12308
0.05731,0.12225
0.05761,0.12278
0.05757,0.12298
0.05772,0.12294
0.05790,0.12315
0.05773,0.12325
0.05760,0.12277
0.05797,0.12303
0.05812,0.12319
0.05806,0.12324
0.05824,0.12375
0.05823,0.12383
0.05831,0.12358
0.05839,0.12328
0.05823,0.12304
0.05797,0.12285
0.05795,0.12286
0.05810,0.12302
0.05827,0.12324
0.05824,0.12338
0.05798,0.12321
0.05824,0.12288
0.05830,0.12278
0.05802,0.12293
0.05823,0.12309
0.05855,0.12323
0.05844,0.12339
0.05827,0.12335
0.05833,0.12312
0.05819,0.12303
0.05816,0.12294
0.05808,0.12287
0.05809,0.12287
0.05825,0.12287
0.05793,0.12255
0.05775,0.12192
0.05782,0.12164
0.05780,0.12174
0.05772,0.12157
0.05793,0.12183
0.05818,0.12211
0.05818,0.12221
0.05788,0.12210
0.05750,0.12125
0.05757,0.12071
0.05763,0.12075
0.05747,0.12080
0.05756,0.12072
0.05769,0.12135
0.05776,0.12181
0.05777,0.12153
0.05759,0.12092
0.05724,0.12059
0.05759,0.12066
0.05791,0.12085
0.05769,0.12096
0.05749,0.12104
0.05749,0.12109
0.05745,0.12085
0.05743,0.12045
0.05746,0.12033
0.05746,0.12053
0.05787,0.12067
0.05821,0.12096
0.05806,0.12143
0.05780,0.12166
0.05799,0.12149
0.05825,0.12125
0.05823,0.12115
0.05805,0.12124
0.05807,0.12142
0.05839,0.12135
0.05858,0.12183
0.05835,0.12206
0.05796,0.12120
0.05795,0.12104
0.05845,0.12150
0.05842,0.12142
0.05801,0.12086
0.05842,0.12102
0.05842,0.12154
0.05838,0.12173
0.05840,0.12145
0.05819,0.12113
0.05815,0.12106
0.05823,0.12089
0.05819,0.12099
0.05811,0.12136
0.05828,0.12158
0.05845,0.12186
0.05850,0.12200
0.05832,0.12173
0.05820,0.12145
0.05853,0.12183
0.05853,0.12204
0.05829,0.12205
0.05838,0.12224
0.05886,0.12265
0.05899,0.12283
0.05855,0.12259
0.05852,0.12235
0.05897,0.12246
0.05876,0.12275
0.05882,0.12303
0.05906,0.12324
0.05924,0.12347
0.05930,0.12368
0.05909,0.12354
0.05907,0.12311
0.05917,0.12291
0.05937,0.12327
0.05967,0.12378
0.05927,0.12365
0.05931,0.12411
0.05974,0.12455
0.05958,0.12396
0.05900,0.12358
0.05902,0.12348
0.05903,0.12338
0.05882,0.12316
0.05898,0.12306
0.05901,0.12335
0.05907,0.12372
0.05919,0.12373
0.05911,0.12350
0.05887,0.12346
0.05915,0.12311
0.05937,0.12341
0.05927,0.12401
0.05932,0.12388
0.05944,0.12405
0.05938,0.12384
0.05915,0.12336
0.05903,0.12317
0.05916,0.12317
0.05910,0.12318
0.05885,0.12325
0.05880,0.12334
0.05910,0.12333
0.05925,0.12323
0.05893,0.12293
0.05878,0.12282
0.05897,0.12282
0.05889,0.12240
0.05868,0.12218
0.05861,0.12235
0.05869,0.12268
0.05874,0.12279
0.05868,0.12248
0.05840,0.12177
0.05802,0.12143
0.05794,0.12146
0.05817,0.12130
0.05805,0.12140
0.05824,0.12163
0.05853,0.12197
0.05841,0.12229
0.05835,0.12198
