0.27848,0.46248
0.27958,0.46487
0.27995,0.46561
0.28110,0.46809
0.28406,0.47422
0.28618,0.47825
0.28047,0.46642
0.27774,0.45995
0.27960,0.46296
0.28031,0.46460
0.28185,0.46759
0.28473,0.47374
0.28509,0.47442
0.28201,0.46771
0.27956,0.46278
0.28038,0.46391
0.28161,0.46589
0.28286,0.46842
0.28581,0.47478
0.28843,0.48051
0.28345,0.47017
0.28044,0.46367
0.28227,0.46771
0.28270,0.46920
0.28459,0.47261
0.28769,0.47961
0.28597,0.47592
0.28121,0.46469
0.28263,0.46814
0.28322,0.47004
0.28434,0.47193
0.28775,0.47879
0.28873,0.48180
0.28244,0.46876
0.28109,0.46597
0.28301,0.46942
0.28337,0.46976
0.28537,0.47510
0.28933,0.48310
0.28562,0.47510
0.28015,0.46408
0.28162,0.46715
0.28238,0.46825
0.28353,0.47081
0.28721,0.47898
0.28766,0.48016
0.28110,0.46627
0.28081,0.46504
0.28227,0.46785
0.28296,0.46947
0.28561,0.47560
0.28879,0.48340
0.28412,0.47330
0.28087,0.46603
0.28271,0.47024
0.28354,0.47230
0.28506,0.47536
0.28900,0.48346
0.28731,0.48017
0.28098,0.46729
0.28247,0.47029
0.28380,0.47294
0.28473,0.47527
0.28783,0.48227
0.28949,0.48580
0.28351,0.47314
0.28294,0.47172
0.28536,0.47697
0.28616,0.47884
0.28917,0.48483
0.29127,0.49032
0.28695,0.48181
0.28342,0.47383
0.28618,0.47946
0.28617,0.48044
0.28851,0.48587
0.28930,0.48686
0.28591,0.47926
0.28349,0.47504
0.28512,0.47840
0.28629,0.48048
0.28866,0.48570
0.29062,0.49018
0.28455,0.47688
0.28276,0.47333
0.28409,0.47635
0.28478,0.47753
0.28676,0.48151
0.29045,0.48882
0.28587,0.47931
0.28143,0.46984
0.28376,0.47401
0.28409,0.47479
0.28535,0.47779
0.28858,0.48460
0.28775,0.48233
0.28200,0.46979
0.28289,0.47214
0.28413,0.47426
0.28502,0.47583
0.28697,0.48045
0.28680,0.47984
0.28278,0.47100
0.28206,0.46942
0.28383,0.47293
0.28438,0.47363
0.28660,0.47856
0.28552,0.47669
0.28218,0.46967
0.28076,0.46640
0.28199,0.46890
0.28249,0.46994
0.28465,0.47411
0.28545,0.47533
0.28231,0.46872
0.27999,0.46426
0.28043,0.46516
0.28149,0.46662
0.28271,0.46890
0.28482,0.47396
0.28510,0.47377
0.28173,0.46693
0.27982,0.46354
0.28150,0.46646
0.28225,0.46718
0.28394,0.47091
0.28587,0.47543
0.28426,0.47229
0.27996,0.46356
0.28079,0.46555
0.28183,0.46719
0.28298,0.46938
0.28487,0.47390
0.28415,0.47258
0.28031,0.46455
0.27973,0.46243
0.28129,0.46556
0.28153,0.46730
0.28384,0.47141
0.28553,0.47459
0.28254,0.46821
0.27844,0.45975
0.27937,0.46255
0.28068,0.46433
0.28195,0.46604
0.28490,0.47243
0.28588,0.47524
0.27972,0.46266
0.27877,0.45954
0.28021,0.46184
0.28056,0.46343
0.28245,0.46837
0.28512,0.47328
0.28541,0.47348
0.28219,0.46707
0.27918,0.46073
0.28052,0.46314
0.28144,0.46572
0.28294,0.46825
0.28651,0.47495
0.28820,0.47951
0.28258,0.46759
0.27977,0.46222
0.28065,0.46430
0.28194,0.46615
0.28391,0.47003
0.28598,0.47527
0.28817,0.48087
0.28622,0.47609
0.28065,0.46311
0.28096,0.46530
0.28255,0.46826
0.28408,0.47080
0.28692,0.47708
0.28950,0.48222
0.28708,0.47791
0.28282,0.46946
0.28142,0.46616
0.28299,0.46930
0.28408,0.47212
0.28643,0.47663
0.29063,0.48593
0.29133,0.48823
0.28586,0.47580
0.28363,0.47084
0.28443,0.47333
0.28607,0.47675
0.28804,0.48013
0.29111,0.48745
0.29484,0.49599
0.29016,0.48626
0.28422,0.47358
0.28704,0.47939
0.28768,0.48100
0.28911,0.48418
0.29385,0.49463
0.29459,0.49662
0.28618,0.47845
0.28541,0.47677
0.28716,0.48064
0.28781,0.48206
0.29042,0.48766
0.29368,0.49490
0.29150,0.49025
0.28654,0.47990
0.28448,0.47566
0.28597,0.47841
0.28669,0.48032
0.28872,0.48422
0.29216,0.49156
0.29176,0.49160
0.28475,0.47562
0.28391,0.47346
0.28572,0.47763
0.28621,0.47881
0.28866,0.48407
0.29240,0.49230
0.28803,0.48256
0.28326,0.47193
0.28478,0.47535
0.28539,0.47668
0.28686,0.47902
0.29031,0.48586
0.29043,0.48648
0.28528,0.47595
0.28422,0.47312
0.28508,0.47461
0.28591,0.47619
0.28767,0.47989
0.28973,0.48492
0.28689,0.47894
0.28380,0.47215
0.28368,0.47123
0.28476,0.47291
0.28537,0.47501
0.28766,0.47997
0.28758,0.47936
0.28411,0.47162
0.28206,0.46672
0.28276,0.46813
0.28329,0.46970
0.28460,0.47233
0.28675,0.47603
0.28544,0.47307
0.28270,0.46700
0.28211,0.46539
0.28320,0.46748
0.28411,0.46921
0.28649,0.47404
0.28609,0.47333
0.28320,0.46730
0.28169,0.46353
0.28286,0.46523
0.28343,0.46696
0.28505,0.47093
0.28609,0.47321
0.28354,0.46788
0.28074,0.46131
0.28086,0.46136
0.28182,0.46344
0.28224,0.46451
0.28345,0.46781
0.28353,0.46769
0.28106,0.46158
0.27905,0.45734
0.27983,0.45969
0.28068,0.46068
0.28207,0.46315
0.28485,0.46920
0.28478,0.46926
0.27953,0.45817
0.27932,0.45754
0.28036,0.46002
0.28106,0.46133
0.28339,0.46578
0.28567,0.47146
0.28286,0.46547
0.27985,0.45872
0.27987,0.45890
0.28063,0.46067
0.28170,0.46251
0.28382,0.46680
0.28424,0.46807
0.28163,0.46301
0.27930,0.45807
0.27939,0.45818
0.28057,0.46068
0.28194,0.46326
0.28444,0.46803
0.28741,0.47464
0.28308,0.46514
0.27906,0.45662
0.28046,0.45996
0.28128,0.46093
0.28283,0.46434
0.28519,0.46936
0.28675,0.47259
0.28542,0.47013
0.28140,0.46130
0.28101,0.46026
0.28218,0.46359
0.28297,0.46575
0.28566,0.47035
0.28887,0.47739
0.28563,0.47079
0.28117,0.46134
0.28164,0.46271
0.28232,0.46437
0.28352,0.46682
0.28564,0.47121
0.28762,0.47556
0.28705,0.47454
0.28274,0.46517
0.28187,0.46338
0.28357,0.46700
0.28468,0.46896
0.28719,0.47421
0.29082,0.48261
0.28772,0.47660
0.28243,0.46514
0.28342,0.46669
0.28448,0.46905
0.28576,0.47196
0.28771,0.47616
0.29069,0.48276
0.29247,0.48717
0.28577,0.47323
0.28355,0.46825
0.28613,0.47319
0.28616,0.47320
0.28809,0.47821
0.29179,0.48622
0.28926,0.48043
0.28356,0.46816
0.28447,0.47052
0.28503,0.47259
0.28600,0.47430
0.28877,0.47969
0.29054,0.48400
0.28759,0.47799
0.28394,0.46977
0.28327,0.46831
0.28446,0.47122
0.28519,0.47281
0.28772,0.47825
0.29102,0.48555
0.28837,0.48017
0.28233,0.46746
0.28384,0.47072
0.28483,0.47301
0.28588,0.47513
0.28939,0.48246
0.29096,0.48614
0.28437,0.47244
0.28274,0.46867
0.28451,0.47243
0.28480,0.47311
0.28694,0.47694
0.29038,0.48490
0.28651,0.47735
0.28168,0.46629
0.28374,0.46930
0.28423,0.47053
0.28484,0.47284
0.28824,0.48052
0.28883,0.48122
0.28247,0.46696
0.28185,0.46568
0.28309,0.46813
0.28363,0.46931
0.28565,0.47416
0.28826,0.47952
0.28493,0.47223
0.28148,0.46483
0.28168,0.46518
0.28260,0.46685
0.28374,0.46882
0.28602,0.47380
0.28702,0.47624
0.28456,0.47110
0.28119,0.46390
0.28217,0.46451
0.28381,0.46756
0.28445,0.47005
0.28684,0.47556
0.29011,0.48149
0.28528,0.47141
0.28114,0.46344
0.28300,0.46743
0.28332,0.46779
0.28487,0.47088
0.28836,0.47806
0.28739,0.47629
0.28158,0.46454
0.28216,0.46491
0.28328,0.46701
0.28381,0.46864
0.28607,0.47400
0.28841,0.47917
0.28502,0.47185
0.28145,0.46449
0.28111,0.46373
0.28231,0.46600
0.28314,0.46858
0.28495,0.47239
0.28778,0.47822
0.28652,0.47604
0.28039,0.46339
0.28085,0.46385
0.28220,0.46650
0.28309,0.46812
0.28591,0.47400
0.28813,0.47988
0.28437,0.47165
0.28130,0.46437
0.28185,0.46525
0.28267,0.46696
0.28349,0.46894
0.28599,0.47474
0.28652,0.47599
0.28353,0.46936
0.28126,0.46459
0.28183,0.46637
0.28280,0.46871
0.28388,0.47065
0.28628,0.47586
0.28761,0.48042
0.28271,0.46954
0.27963,0.46182
0.28134,0.46517
0.28179,0.46589
0.28307,0.46906
0.28655,0.47677
0.28589,0.47500
0.28051,0.46305
0.28044,0.46289
0.28131,0.46476
0.28194,0.46647
0.28404,0.47111
0.28629,0.47550
0.28369,0.47049
0.28083,0.46407
0.28007,0.46295
0.28074,0.46534
0.28244,0.46717
0.28467,0.47199
0.28492,0.47301
0.28229,0.46714
0.27956,0.46116
0.28037,0.46253
0.28123,0.46449
0.28208,0.46689
0.28447,0.47248
0.28590,0.47558
0.28076,0.46448
0.27836,0.45919
0.27976,0.46205
0.28012,0.46282
0.28187,0.46665
0.28495,0.47337
0.28398,0.47154
0.27993,0.46304
0.27921,0.46115
0.28006,0.46227
0.28100,0.46451
0.28246,0.46840
0.28434,0.47240
0.28424,0.47149
0.28071,0.46431
0.27931,0.46179
0.28075,0.46486
0.28122,0.46603
0.28287,0.46945
0.28641,0.47665
0.28457,0.47291
0.27857,0.46057
0.27947,0.46210
0.28027,0.46366
0.28078,0.46535
0.28330,0.47087
0.28532,0.47443
0.28170,0.46701
0.27926,0.46164
0.27961,0.46191
0.28062,0.46438
0.28183,0.46768
0.28389,0.47139
0.28673,0.47805
0.28546,0.47582
0.28038,0.46369
0.28096,0.46539
0.28194,0.46729
0.28292,0.46878
0.28561,0.47518
0.28707,0.47968
0.28226,0.46869
0.28034,0.46421
0.28188,0.46755
0.28250,0.46822
0.28418,0.47205
