0.02976,0.03379
0.02078,0.03634
0.02370,0.03742
0.02609,0.03625
0.02458,0.03544
0.02460,0.03677
0.02658,0.03378
0.02459,0.03603
0.02299,0.03966
0.02717,0.03638
0.02911,0.03430
0.02363,0.03704
0.02414,0.03784
0.02851,0.03553
0.02354,0.03593
0.02427,0.03697
0.02556,0.03747
0.02478,0.03797
0.02492,0.03737
0.02582,0.03404
0.02540,0.03436
0.02519,0.03687
0.02529,0.03774
0.02445,0.03610
0.02452,0.03389
0.02579,0.03581
0.02683,0.03723
0.02713,0.03550
0.02688,0.03581
0.02353,0.03596
0.02305,0.03535
0.02372,0.03574
0.02222,0.03689
0.02579,0.03521
0.02735,0.03412
0.02596,0.03596
0.02541,0.03698
0.02587,0.03409
0.02349,0.03583
0.02442,0.03631
0.02731,0.03552
0.02668,0.03773
0.02529,0.03923
0.02727,0.03640
0.02664,0.03523
0.02409,0.03594
0.02534,0.03398
0.02264,0.03595
0.02324,0.03530
0.02495,0.03461
0.02429,0.03685
0.02686,0.03535
0.02661,0.03470
0.02513,0.03690
0.02499,0.03841
0.02510,0.03671
0.02475,0.03626
0.02625,0.03633
0.02742,0.03636
0.02617,0.03572
0.02510,0.03435
0.02660,0.03656
0.02540,0.03482
0.02330,0.03381
0.02516,0.03945
0.02654,0.03837
0.02545,0.03608
0.02409,0.03707
0.02426,0.03807
0.02479,0.03558
0.02408,0.03580
0.02316,0.03617
0.02509,0.03650
0.02801,0.03768
0.02516,0.03661
0.02398,0.03626
0.02493,0.03683
0.02405,0.03571
0.02224,0.03358
0.02563,0.03668
0.02490,0.03676
0.02305,0.03607
0.02496,0.03812
0.02451,0.03647
0.02644,0.03591
0.02553,0.03765
0.02165,0.03899
0.02175,0.03766
0.02498,0.03490
0.02404,0.03420
0.02420,0.03632
0.02651,0.03754
0.02299,0.03487
0.02453,0.03462
0.02545,0.03687
0.02540,0.03770
0.02755,0.03588
0.02471,0.03517
0.02407,0.03604
0.02656,0.03603
0.02740,0.03495
0.02540,0.03547
0.02599,0.03710
0.02497,0.03758
0.02333,0.03648
0.02463,0.03671
0.02639,0.04010
0.02970,0.03739
0.02828,0.03552
0.02394,0.03751
0.02508,0.03638
0.02652,0.03417
0.02446,0.03306
0.02300,0.03576
0.02508,0.03992
0.02681,0.03856
0.02851,0.03581
0.02731,0.03728
0.02532,0.03952
0.02599,0.03638
0.02471,0.03281
0.02514,0.03364
0.02545,0.03727
0.02316,0.03776
0.02162,0.03344
0.02345,0.03399
0.02601,0.03534
0.02611,0.03592
0.02431,0.03687
0.02434,0.03392
0.02511,0.03449
0.02277,0.03441
0.02143,0.03208
0.02586,0.03354
0.02233,0.03342
0.02316,0.03372
0.02664,0.03479
0.02460,0.03447
0.02493,0.03371
0.02275,0.03546
0.02149,0.03614
0.02330,0.03474
0.02416,0.03472
0.02384,0.03541
0.02453,0.03650
0.02511,0.03522
0.02446,0.03134
0.02408,0.03036
0.02252,0.03470
0.02384,0.03835
0.02696,0.03680
0.02609,0.03308
0.02243,0.03356
0.02173,0.03506
0.02329,0.03445
0.02330,0.03376
0.02202,0.03581
0.02367,0.03501
0.02506,0.03462
0.02436,0.03302
0.02455,0.02982
0.02758,0.03462
0.02662,0.03597
0.02485,0.03484
0.02520,0.03581
0.02436,0.03654
0.02391,0.03638
0.02327,0.03371
0.02333,0.03158
0.02445,0.03301
0.02435,0.03510
0.02531,0.03636
0.02429,0.03426
0.02236,0.03184
0.02345,0.03424
0.02251,0.03678
0.02324,0.03608
0.02490,0.03342
0.02418,0.03187
0.02252,0.03319
0.02279,0.03760
0.02457,0.03594
0.02480,0.03163
0.02338,0.03426
0.02542,0.03594
0.02558,0.03677
0.02336,0.03496
0.02225,0.03278
0.02309,0.03572
0.02343,0.03534
0.02383,0.03417
0.02359,0.03379
0.02274,0.03424
0.02447,0.03892
0.02371,0.03774
0.02333,0.03509
0.02441,0.03658
0.02307,0.03814
0.02361,0.03761
0.02431,0.03394
0.02461,0.03235
0.02536,0.03547
0.02536,0.03661
0.02465,0.03639
0.02372,0.03475
0.02407,0.03414
0.02589,0.03655
0.02541,0.03593
0.02418,0.03482
0.02525,0.03490
0.02673,0.03627
0.02414,0.03852
0.02443,0.03569
0.02441,0.03351
0.02395,0.03426
0.02558,0.03513
0.02337,0.03822
0.02304,0.03599
0.02435,0.03344
0.02476,0.03574
0.02533,0.03700
0.02437,0.03581
0.02476,0.03610
0.02550,0.03837
0.02497,0.03901
0.02718,0.03661
0.02692,0.03520
0.02427,0.03457
0.02432,0.03542
0.02743,0.03770
0.02419,0.03220
0.02337,0.03243
0.02525,0.03589
0.02465,0.03424
0.02481,0.03572
0.02233,0.03387
0.02384,0.03454
0.02760,0.03592
0.02500,0.03106
0.02390,0.03353
0.02334,0.03516
0.02333,0.03615
0.02383,0.03806
0.02253,0.03391
0.02374,0.03370
0.02540,0.03601
0.02453,0.03610
0.02262,0.03425
0.02323,0.03380
0.02288,0.03662
0.02448,0.03810
0.02720,0.03657
0.02437,0.03669
0.02391,0.03709
0.02543,0.03712
0.02631,0.03510
0.02548,0.03238
0.02259,0.03508
0.02248,0.03690
0.02435,0.03552
0.02438,0.03445
0.02259,0.03608
0.02405,0.03606
0.02564,0.03491
0.02628,0.03440
0.02600,0.03528
0.02322,0.03659
0.02491,0.03501
0.02429,0.03505
0.02192,0.03635
0.02509,0.03407
0.02354,0.03321
0.02209,0.03260
0.02375,0.03469
0.02547,0.03835
0.02424,0.03599
0.02141,0.03438
0.02201,0.03548
0.02391,0.03499
0.02302,0.03152
0.02482,0.03225
0.02467,0.03441
0.02377,0.03407
0.02399,0.03334
0.02285,0.03646
0.02302,0.03725
0.02316,0.03524
0.02297,0.03361
0.02337,0.03468
0.02338,0.03696
0.02421,0.03510
0.02525,0.03419
0.02496,0.03640
0.02377,0.03616
0.02410,0.03511
0.02210,0.03185
0.02293,0.03170
0.02780,0.03606
0.02460,0.03514
0.02411,0.03607
0.02313,0.03689
0.02057,0.03494
0.02270,0.03384
0.02456,0.03528
0.02352,0.03463
0.02328,0.03406
0.02473,0.03617
0.02346,0.03662
0.02508,0.03516
0.02616,0.03494
0.02380,0.03609
0.02201,0.03558
0.02496,0.03312
0.02440,0.03353
0.02305,0.03561
0.02464,0.03555
0.02416,0.03388
0.02223,0.03474
0.02347,0.03515
0.02515,0.03321
0.02394,0.03259
0.02547,0.03665
0.02448,0.03595
0.02273,0.03459
0.02303,0.03663
0.02402,0.03701
0.02643,0.03612
0.02589,0.03552
0.02398,0.03588
0.02444,0.03560
0.02467,0.03346
0.02285,0.03571
0.02189,0.03698
0.02371,0.03450
0.02517,0.03404
0.02237,0.03669
0.02404,0.03492
0.02495,0.03215
0.02124,0.03391
0.02291,0.03564
0.02246,0.03471
0.02321,0.03473
0.02479,0.03591
0.02257,0.03511
0.02210,0.03364
0.02496,0.03293
0.02522,0.03489
0.02308,0.03657
0.02516,0.03365
0.02316,0.03444
0.02246,0.03473
0.02487,0.03339
0.02519,0.03461
0.02306,0.03661
0.02347,0.03370
0.02444,0.03461
0.02408,0.03808
0.02454,0.03266
0.02440,0.03246
0.02325,0.03623
0.02237,0.03684
0.02254,0.03350
0.02307,0.03269
0.02517,0.03589
0.02558,0.03659
0.02357,0.03450
0.02292,0.03526
0.02463,0.03555
0.02460,0.03337
0.02398,0.03328
0.02462,0.03639
0.02429,0.03602
0.02521,0.03462
0.02437,0.03692
0.02279,0.03760
0.02392,0.03297
0.02433,0.03596
0.02485,0.03641
0.02499,0.03269
0.02516,0.03269
0.02642,0.03817
0.02392,0.03797
0.02406,0.03650
0.02547,0.03575
0.02418,0.03432
0.02667,0.03617
0.02416,0.03391
0.02308,0.03530
0.02559,0.04003
0.02357,0.03599
0.02483,0.03342
0.02534,0.03585
0.02408,0.03645
0.02425,0.03333
0.02476,0.03536
0.02284,0.03513
0.02385,0.03393
0.02573,0.03495
0.02235,0.03678
0.02297,0.03780
0.02392,0.03456
0.02313,0.03391
0.02347,0.03776
0.02580,0.03559
0.02463,0.03364
0.02433,0.03573
0.02377,0.03817
0.02103,0.03642
0.02670,0.03356
0.02746,0.03411
0.02370,0.03544
0.02432,0.03373
0.02791,0.03168
0.02467,0.03524
0.02361,0.03586
0.02537,0.03397
0.02429,0.03521
0.02555,0.03446
0.02320,0.03693
0.02432,0.03605
0.02860,0.03265
0.02538,0.03681
0.02421,0.03823
0.02476,0.03670
0.02453,0.03508
0.02394,0.03502
0.02430,0.03689
0.02501,0.03620
0.02592,0.03346
0.02626,0.03378
0.02571,0.03854
0.02618,0.03950
0.02319,0.03691
0.02230,0.03357
0.02617,0.03298
0.02505,0.03594
0.02172,0.03285
0.02244,0.03353
0.02505,0.03767
0.02426,0.03654
0.02379,0.03814
0.02261,0.03478
0.02337,0.03378
0.02500,0.03714
0.02321,0.03349
0.02692,0.03538
0.02610,0.03590
0.02294,0.03463
0.02564,0.03613
0.02485,0.03324
0.02486,0.03430
0.02496,0.03595
0.02395,0.03447
0.02402,0.03419
0.02320,0.03424
0.02340,0.03563
0.02479,0.03694
0.02511,0.03606
0.02416,0.03420
0.02626,0.03334
0.02493,0.03491
0.02238,0.03608
0.02636,0.03415
0.02601,0.03451
0.02613,0.03665
0.02587,0.03709
0.02391,0.03484
0.02570,0.03334
0.02513,0.03534
0.02547,0.03573
0.02611,0.03506
0.02328,0.03619
0.02308,0.03324
0.02490,0.03529
0.02495,0.03724
0.02313,0.03519
0.02298,0.03628
0.02315,0.03365
0.02396,0.03475
0.02444,0.03670
0.02375,0.03336
0.02392,0.03452
0.02397,0.03391
0.02408,0.03567
0.02374,0.03948
0.02270,0.03642
0.02464,0.03325
0.02305,0.03398
0.02180,0.03671
0.02495,0.03753
0.02387,0.03559
0.02472,0.03455
0.02372,0.03607
0.02241,0.03712
0.02648,0.03538
0.02553,0.03584
0.02370,0.03661
0.02377,0.03691
