0.01274,0.01675
0.01589,0.01638
0.01273,0.01809
0.01159,0.01855
0.01434,0.01796
0.01600,0.01810
0.01416,0.01612
0.01373,0.01651
0.01440,0.01785
0.01362,0.01638
0.01374,0.01495
0.01402,0.01449
0.01385,0.01622
0.01399,0.01729
0.01485,0.01559
0.01466,0.01797
0.01420,0.01772
0.01369,0.01688
0.01355,0.01792
0.01434,0.01538
0.01228,0.01737
0.01213,0.01796
0.01437,0.01651
0.01366,0.01728
0.01076,0.01363
0.01235,0.01466
0.01520,0.01709
0.01466,0.01567
0.01366,0.01549
0.01452,0.01767
0.01458,0.01814
0.01454,0.01634
0.01550,0.01564
0.01358,0.01713
0.01337,0.01744
0.01357,0.01721
0.01250,0.01769
0.01256,0.01758
0.01353,0.01669
0.01321,0.01833
0.01343,0.01807
0.01545,0.01494
0.01537,0.01798
0.01427,0.01601
0.01430,0.01545
0.01511,0.01825
0.01545,0.01676
0.01653,0.01705
0.01473,0.01636
0.01320,0.01705
0.01497,0.01895
0.01589,0.01555
0.01618,0.01669
0.01369,0.01836
0.01226,0.01769
0.01519,0.01740
0.01391,0.01577
0.01303,0.01646
0.01200,0.01791
0.01076,0.01796
0.01353,0.01800
0.01432,0.01660
0.01294,0.01649
0.01227,0.01710
0.01321,0.01611
0.01374,0.01544
0.01396,0.01522
0.01287,0.01566
0.01271,0.01635
0.01539,0.01586
0.01265,0.01413
0.01166,0.01624
0.01257,0.01807
0.01216,0.01634
0.01476,0.01786
0.01373,0.01505
0.01364,0.01555
0.01573,0.01936
0.01491,0.01739
0.01497,0.01785
0.01434,0.01634
0.01450,0.01608
0.01482,0.01821
0.01163,0.01496
0.01474,0.01631
0.01599,0.01647
0.01322,0.01617
0.01349,0.01993
0.01374,0.01624
0.01392,0.01548
0.01378,0.01591
0.01335,0.01492
0.01357,0.01812
0.01361,0.01664
0.01439,0.01707
0.01413,0.01735
0.01255,0.01404
0.01460,0.01860
0.01484,0.01750
0.01290,0.01537
0.01299,0.01735
0.01574,0.01682
0.01453,0.01640
0.01287,0.01389
0.01255,0.01409
0.01267,0.01825
0.01396,0.01589
0.01350,0.01426
0.01401,0.01499
0.01502,0.01566
0.01327,0.01622
0.01342,0.01806
0.01460,0.01572
0.01472,0.01543
0.01324,0.01949
0.01172,0.01705
0.01327,0.01583
0.01455,0.01616
0.01383,0.01661
0.01312,0.01716
0.01297,0.01549
0.01280,0.01477
0.01267,0.01625
0.01269,0.01780
0.01277,0.01743
0.01388,0.01694
0.01543,0.01697
0.01562,0.01811
0.01395,0.01886
0.01304,0.01557
0.01461,0.01453
0.01519,0.01742
0.01355,0.01905
0.01314,0.01585
0.01401,0.01493
0.01347,0.01655
0.01303,0.01739
0.01402,0.01617
0.01292,0.01553
0.01153,0.01764
0.01177,0.01712
0.01346,0.01551
0.01430,0.01758
0.01240,0.01448
0.01397,0.01540
0.01482,0.01778
0.01141,0.01678
0.01114,0.01829
0.01202,0.01655
0.01197,0.01593
0.01162,0.01722
0.01241,0.01608
0.01363,0.01463
0.01365,0.01189
0.01353,0.01287
0.01367,0.01615
0.01295,0.01407
0.01389,0.01707
0.01497,0.01702
0.01413,0.01640
0.01240,0.02032
0.01278,0.01624
0.01326,0.01794
0.01292,0.01965
0.01254,0.01642
0.01306,0.01678
0.01414,0.01705
0.01281,0.01642
0.01292,0.01567
0.01561,0.01563
0.01335,0.01650
0.01457,0.01577
0.01475,0.01687
0.01325,0.01851
0.01526,0.01632
0.01295,0.01594
0.01214,0.01464
0.01319,0.01444
0.01348,0.01658
0.01491,0.01633
0.01491,0.01754
0.01477,0.01828
0.01533,0.01741
0.01504,0.01651
0.01338,0.01539
0.01216,0.01731
0.01297,0.01750
0.01407,0.01484
0.01281,0.01567
0.01293,0.01491
0.01514,0.01550
0.01408,0.01855
0.01006,0.01902
0.01380,0.01459
0.01329,0.01797
0.01185,0.01847
0.01419,0.01331
0.01529,0.01613
0.01620,0.01663
0.01459,0.01708
0.01386,0.01792
0.01655,0.01679
0.01659,0.01585
0.01410,0.01508
0.01345,0.01591
0.01455,0.01662
0.01362,0.01518
0.01228,0.01671
0.01280,0.01719
0.01432,0.01784
0.01389,0.01899
0.01141,0.01611
0.01355,0.01804
0.01421,0.02016
0.01259,0.01928
0.01378,0.01806
0.01353,0.01598
0.01234,0.01842
0.01169,0.01861
0.01216,0.01512
0.01321,0.01735
0.01326,0.01625
0.01360,0.01612
0.01412,0.01702
0.01393,0.01577
0.01424,0.01725
0.01433,0.01603
0.01316,0.01720
0.01333,0.02044
0.01597,0.01782
0.01180,0.01783
0.00910,0.01777
0.01246,0.01744
0.01563,0.01786
0.01280,0.01558
0.01217,0.01639
0.01310,0.01732
0.01343,0.01684
0.01400,0.01732
0.01280,0.01566
0.01372,0.01756
0.01512,0.01820
0.01397,0.01417
0.01271,0.01430
0.01320,0.01662
0.01474,0.01818
0.01454,0.01750
0.01236,0.01628
0.01309,0.01848
0.01334,0.01804
0.01307,0.01690
0.01343,0.01746
0.01329,0.01629
0.01352,0.01642
0.01220,0.01775
0.01224,0.01723
0.01492,0.01496
0.01301,0.01628
0.01277,0.01830
0.01379,0.01633
0.01332,0.01382
0.01252,0.01704
0.01208,0.01844
0.01331,0.01821
0.01403,0.01740
0.01292,0.01674
0.01327,0.01779
0.01365,0.01604
0.01437,0.01575
0.01576,0.01708
0.01578,0.01606
0.01265,0.01827
0.01355,0.01636
0.01450,0.01492
0.01179,0.01780
0.01264,0.01690
0.01376,0.01940
0.01498,0.01835
0.01582,0.01463
0.01503,0.01648
0.01451,0.01815
0.01316,0.01850
0.01258,0.01652
0.01318,0.01479
0.01283,0.01695
0.01425,0.01518
0.01429,0.01523
0.01328,0.01807
0.01398,0.01865
0.01440,0.01822
0.01421,0.01776
0.01368,0.01672
0.01282,0.01550
0.01206,0.01552
0.01281,0.01592
0.01262,0.01542
0.01259,0.01554
0.01341,0.01643
0.01171,0.01515
0.01270,0.01656
0.01470,0.01719
0.01474,0.01643
0.01393,0.01776
0.01400,0.01694
0.01348,0.01820
0.01216,0.01890
0.01275,0.01748
0.01622,0.01903
0.01422,0.01604
0.01176,0.01715
0.01270,0.02079
0.01386,0.01856
0.01376,0.01995
0.01280,0.01845
0.01342,0.01818
0.01544,0.02080
0.01565,0.01794
0.01525,0.01696
0.01593,0.01787
0.01619,0.01909
0.01431,0.01920
0.01297,0.01593
0.01453,0.01691
0.01542,0.01877
0.01488,0.01914
0.01575,0.02031
0.01405,0.01499
0.01417,0.01476
0.01464,0.01816
0.01362,0.01769
0.01604,0.01887
0.01418,0.01822
0.01358,0.01947
0.01537,0.02073
0.01350,0.01689
0.01374,0.01712
0.01346,0.01771
0.01242,0.01823
0.01354,0.01896
0.01637,0.01681
0.01494,0.01834
0.01464,0.01871
0.01617,0.01818
0.01513,0.02000
0.01528,0.01689
0.01532,0.01958
0.01516,0.01970
0.01482,0.01519
0.01387,0.01983
0.01567,0.01745
0.01729,0.01616
0.01545,0.01797
0.01263,0.01784
0.01474,0.02159
0.01623,0.01907
0.01512,0.01728
0.01333,0.01965
0.01265,0.01761
0.01380,0.01705
0.01482,0.01643
0.01571,0.01708
0.01571,0.01976
0.01257,0.01888
0.01387,0.01710
0.01528,0.01632
0.01447,0.01766
0.01474,0.01975
0.01250,0.01693
0.01349,0.01647
0.01572,0.02001
0.01513,0.02144
0.01471,0.01796
0.01394,0.01842
0.01311,0.01902
0.01404,0.01858
0.01557,0.01952
0.01254,0.01668
0.01404,0.01737
0.01537,0.01927
0.01339,0.01824
0.01596,0.01733
0.01653,0.01612
0.01515,0.01828
0.01392,0.02070
0.01339,0.01843
0.01358,0.01619
0.01346,0.01649
0.01335,0.01833
0.01429,0.01860
0.01550,0.01665
0.01371,0.01786
0.01301,0.01921
0.01313,0.01942
0.01230,0.01883
0.01329,0.01667
0.01302,0.01969
0.01272,0.02003
0.01381,0.01696
0.01484,0.01837
0.01508,0.01762
0.01615,0.01905
0.01538,0.01939
0.01306,0.01691
0.01500,0.01921
0.01617,0.02032
0.01510,0.01828
0.01381,0.01590
0.01403,0.01628
0.01505,0.01915
0.01498,0.02010
0.01415,0.01812
0.01427,0.01650
0.01526,0.01801
0.01407,0.01932
0.01575,0.01900
0.01716,0.01619
0.01424,0.01437
0.01556,0.01987
0.01652,0.01838
0.01501,0.01683
0.01345,0.01937
0.01394,0.01736
0.01501,0.01913
0.01499,0.01999
0.01460,0.02004
0.01478,0.02077
0.01439,0.01716
0.01377,0.01799
0.01485,0.01942
0.01609,0.01847
0.01486,0.01809
0.01459,0.01564
0.01490,0.01662
0.01418,0.01840
0.01273,0.01729
0.01316,0.01739
0.01646,0.01758
0.01766,0.01917
0.01437,0.02041
0.01175,0.01856
0.01601,0.01718
0.01671,0.01727
0.01479,0.01793
0.01483,0.01908
0.01407,0.02033
0.01348,0.01752
0.01676,0.01855
0.01736,0.02104
0.01230,0.01867
0.01526,0.01843
0.01620,0.01542
0.01379,0.01707
0.01319,0.02096
0.01485,0.01572
0.01490,0.01729
0.01451,0.01778
0.01435,0.01679
0.01408,0.01934
0.01448,0.01881
0.01456,0.01491
0.01469,0.01522
0.01503,0.01887
0.01503,0.01884
0.01492,0.01952
0.01400,0.01718
0.01454,0.01665
0.01643,0.02027
0.01525,0.01981
0.01393,0.02002
0.01382,0.01858
0.01450,0.01707
0.01426,0.01872
0.01158,0.01738
0.01307,0.01953
0.01472,0.02043
0.01349,0.01749
0.01444,0.01839
0.01366,0.01830
0.01474,0.01799
0.01685,0.01687
0.01567,0.01530
0.01349,0.01891
0.01384,0.02097
0.01533,0.01822
0.01494,0.01584
0.01285,0.01842
0.01260,0.01816
0.01414,0.01890
0.01464,0.01800
0.01396,0.01538
0.01562,0.02111
0.01613,0.02032
0.01638,0.01901
0.01573,0.02031
0.01298,0.01756
0.01414,0.01852
0.01431,0.01894
0.01263,0.01739
