0.10149,0.18020
0.10090,0.17928
0.10105,0.17884
0.10095,0.17922
0.10093,0.18020
0.10165,0.18060
0.10124,0.17919
0.10086,0.17908
0.10101,0.17966
0.10110,0.17942
0.10116,0.18049
0.10119,0.18021
0.10096,0.17895
0.10068,0.17873
0.10077,0.17971
0.10106,0.18002
0.10102,0.18046
0.10074,0.18019
0.10069,0.17907
0.10100,0.17943
0.10120,0.18030
0.10117,0.18083
0.10079,0.18043
0.10032,0.17930
0.10057,0.17900
0.10021,0.17842
0.10015,0.17904
0.10064,0.18013
0.10003,0.17856
0.10008,0.17900
0.10030,0.17946
0.10057,0.17959
0.10091,0.18042
0.10012,0.17952
0.10009,0.17982
0.10057,0.18054
0.10067,0.18039
0.10074,0.18075
0.10103,0.18200
0.10077,0.18104
0.10047,0.18005
0.10078,0.18130
0.10096,0.18117
0.10126,0.18199
0.10119,0.18206
0.10085,0.18105
0.10093,0.18143
0.10101,0.18214
0.10108,0.18213
0.10143,0.18260
0.10177,0.18331
0.10137,0.18200
0.10123,0.18207
0.10143,0.18285
0.10161,0.18312
0.10166,0.18323
0.10168,0.18325
0.10158,0.18296
0.10150,0.18284
0.10152,0.18330
0.10157,0.18403
0.10185,0.18456
0.10167,0.18369
0.10141,0.18321
0.10168,0.18437
0.10170,0.18413
0.10195,0.18518
0.10183,0.18436
0.10130,0.18218
0.10142,0.18383
0.10173,0.18462
0.10176,0.18480
0.10150,0.18443
0.10116,0.18310
0.10093,0.18247
0.10111,0.18286
0.10132,0.18395
0.10114,0.18405
0.10073,0.18247
0.10064,0.18220
0.10069,0.18183
0.10072,0.18184
0.10076,0.18300
0.10076,0.18319
0.10058,0.18163
0.10047,0.18153
0.10053,0.18219
0.10069,0.18144
0.10094,0.18279
0.10060,0.18227
0.10021,0.18100
0.10034,0.18142
0.10064,0.18195
0.10098,0.18203
0.10068,0.18128
0.10007,0.18067
0.10000,0.18081
0.10019,0.18041
0.10032,0.18097
0.10057,0.18151
0.10061,0.18084
0.10004,0.17999
0.10021,0.18046
0.10036,0.18055
0.10020,0.18059
0.10032,0.18161
0.10073,0.18189
0.10041,0.18065
0.10007,0.18025
0.10023,0.18084
0.10038,0.18070
0.10053,0.18166
0.10060,0.18221
0.10029,0.18119
0.09993,0.18023
0.10022,0.18134
0.09998,0.18111
0.10019,0.18165
0.10046,0.18205
0.09970,0.18008
0.09961,0.18040
0.09980,0.18099
0.09991,0.18138
0.10002,0.18213
0.09999,0.18214
0.09947,0.18080
0.09932,0.18056
0.09959,0.18127
0.09994,0.18189
0.10077,0.18396
0.10038,0.18350
0.10013,0.18252
0.10076,0.18315
0.10084,0.18362
0.10092,0.18431
0.10101,0.18524
0.10090,0.18505
0.10065,0.18397
0.10060,0.18470
0.10103,0.18519
0.10154,0.18554
0.10139,0.18575
0.10065,0.18497
0.10055,0.18445
0.10059,0.18478
0.10065,0.18558
0.10095,0.18598
0.10098,0.18556
0.10025,0.18533
0.10010,0.18502
0.10042,0.18528
0.10035,0.18683
0.10113,0.18738
0.10064,0.18543
0.09984,0.18449
0.10012,0.18562
0.10030,0.18541
0.09998,0.18646
0.10040,0.18732
0.10063,0.18609
0.09968,0.18436
0.09984,0.18539
0.10008,0.18518
0.10018,0.18572
0.10024,0.18706
0.10001,0.18532
0.09999,0.18453
0.09996,0.18503
0.09993,0.18525
0.10005,0.18542
0.10006,0.18678
0.09970,0.18515
0.09963,0.18465
0.09988,0.18586
0.09994,0.18504
0.10044,0.18658
0.10023,0.18631
0.09968,0.18482
0.09964,0.18523
0.09977,0.18604
0.10011,0.18581
0.10036,0.18671
0.10025,0.18710
0.09995,0.18477
0.09986,0.18493
0.09962,0.18549
0.09977,0.18591
0.10014,0.18625
0.09967,0.18528
0.09983,0.18458
0.09977,0.18498
0.09934,0.18516
0.09949,0.18497
0.09993,0.18664
0.09970,0.18497
0.09944,0.18355
0.09958,0.18482
0.09956,0.18489
0.09985,0.18497
0.09966,0.18499
0.09925,0.18433
0.09919,0.18363
0.09893,0.18424
0.09926,0.18447
0.09992,0.18563
0.09991,0.18617
0.09913,0.18393
0.09908,0.18448
0.09901,0.18494
0.09905,0.18459
0.09948,0.18515
0.09945,0.18580
0.09902,0.18444
0.09886,0.18400
0.09899,0.18470
0.09905,0.18461
0.09919,0.18570
0.09869,0.18440
0.09850,0.18300
0.09893,0.18351
0.09886,0.18335
0.09939,0.18452
0.09932,0.18502
0.09854,0.18370
0.09832,0.18255
0.09865,0.18342
0.09879,0.18326
0.09895,0.18392
0.09909,0.18494
0.09870,0.18298
0.09844,0.18307
0.09854,0.18322
0.09878,0.18335
0.09908,0.18478
0.09948,0.18503
0.09894,0.18291
0.09838,0.18245
0.09844,0.18365
0.09864,0.18334
0.09896,0.18496
0.09858,0.18459
0.09814,0.18309
0.09837,0.18322
0.09866,0.18339
0.09899,0.18395
0.09912,0.18474
0.09879,0.18436
0.09833,0.18300
0.09858,0.18383
0.09894,0.18375
0.09913,0.18432
0.09905,0.18539
0.09848,0.18299
0.09800,0.18251
0.09808,0.18364
0.09847,0.18428
0.09864,0.18438
0.09857,0.18484
0.09834,0.18333
0.09813,0.18238
0.09805,0.18325
0.09816,0.18365
0.09844,0.18473
0.09831,0.18427
0.09803,0.18314
0.09806,0.18337
0.09811,0.18374
0.09826,0.18427
0.09838,0.18468
0.09829,0.18442
0.09816,0.18369
0.09836,0.18379
0.09830,0.18429
0.09849,0.18479
0.09882,0.18477
0.09802,0.18374
0.09798,0.18390
0.09840,0.18449
0.09864,0.18519
0.09880,0.18600
0.09862,0.18476
0.09824,0.18417
0.09821,0.18447
0.09852,0.18480
0.09862,0.18553
0.09868,0.18567
0.09834,0.18458
0.09813,0.18408
0.09858,0.18538
0.09889,0.18613
0.09963,0.18719
0.09938,0.18676
0.09855,0.18534
0.09927,0.18599
0.09922,0.18620
0.09943,0.18712
0.09972,0.18724
0.09927,0.18569
0.09915,0.18626
0.09953,0.18719
0.09998,0.18785
0.09992,0.18809
0.09948,0.18743
0.09983,0.18670
0.09950,0.18679
0.09920,0.18798
0.09983,0.18894
0.09993,0.18794
0.09966,0.18717
0.09965,0.18705
0.09976,0.18731
0.09967,0.18832
0.09986,0.18988
0.09964,0.18836
0.09948,0.18701
0.09981,0.18803
0.09994,0.18809
0.09986,0.18926
0.09963,0.18882
0.09955,0.18755
0.09971,0.18793
0.09977,0.18785
0.10023,0.18943
0.10016,0.18975
0.09955,0.18786
0.09967,0.18766
0.09968,0.18896
0.10000,0.18945
0.10015,0.18957
0.09973,0.18996
0.09976,0.18885
0.09990,0.18846
0.10003,0.18975
0.10012,0.19050
0.10003,0.18930
0.09985,0.18985
0.10014,0.19014
0.10054,0.18984
0.10055,0.19039
0.10045,0.19121
0.10043,0.19036
0.10046,0.19018
0.10041,0.19082
0.10047,0.19074
0.10097,0.19188
0.10068,0.19096
0.10026,0.19021
0.10039,0.19105
0.10039,0.19054
0.10087,0.19160
0.10081,0.19203
0.10001,0.19089
0.09958,0.19028
0.10004,0.19109
0.10049,0.19100
0.10047,0.19104
0.10011,0.19172
0.09975,0.19124
0.09978,0.19058
0.09995,0.19107
0.10021,0.19185
0.10037,0.19147
0.09986,0.19059
0.09968,0.19082
0.09962,0.19066
0.09973,0.19060
0.10021,0.19200
0.09971,0.19112
0.09958,0.19026
0.09969,0.19051
0.09955,0.19100
0.09998,0.19140
0.09978,0.19124
0.09948,0.19096
0.09944,0.19073
0.09927,0.19031
0.09929,0.19025
0.09970,0.19178
0.09967,0.19146
0.09917,0.18957
0.09919,0.19098
0.09885,0.19049
0.09889,0.19026
0.09899,0.19094
0.09846,0.19028
0.09835,0.18932
0.09861,0.18982
0.09875,0.19076
0.09857,0.19046
0.09845,0.18937
0.09878,0.18964
0.09854,0.18968
0.09822,0.18946
0.09854,0.19016
0.09849,0.19082
0.09831,0.18933
0.09837,0.18854
0.09846,0.18929
0.09829,0.18940
0.09830,0.18999
0.09790,0.18935
0.09776,0.18862
0.09829,0.18906
0.09840,0.18910
0.09840,0.19001
0.09817,0.18954
0.09775,0.18829
0.09770,0.18880
0.09830,0.18904
0.09864,0.18884
0.09857,0.18937
0.09827,0.18958
0.09780,0.18774
0.09800,0.18843
0.09821,0.18951
0.09837,0.18947
0.09858,0.18932
0.09796,0.18882
0.09792,0.18803
0.09829,0.18821
0.09844,0.18964
0.09845,0.19027
0.09816,0.18824
0.09803,0.18806
0.09808,0.18901
0.09816,0.18857
0.09846,0.18943
0.09852,0.19027
0.09813,0.18915
0.09794,0.18809
0.09842,0.18961
0.09842,0.18978
0.09877,0.19020
0.09874,0.19011
0.09797,0.18886
0.09803,0.18897
0.09810,0.18891
0.09835,0.18986
0.09872,0.19032
0.09852,0.18845
0.09786,0.18863
0.09746,0.18928
0.09785,0.18965
0.09839,0.19006
0.09818,0.19002
0.09841,0.18915
0.09818,0.18882
0.09764,0.18941
0.09800,0.19006
0.09864,0.19033
0.09817,0.19003
0.09791,0.18918
0.09822,0.18852
0.09772,0.18908
0.09781,0.19059
0.09794,0.18949
0.09778,0.18828
0.09779,0.18944
0.09807,0.18876
0.09792,0.18911
0.09786,0.19022
0.09789,0.18974
0.09747,0.18799
0.09742,0.18888
0.09765,0.18919
0.09789,0.18903
0.09779,0.18962
0.09731,0.18898
0.09775,0.18818
0.09764,0.18814
0.09734,0.18896
0.09805,0.18955
0.09746,0.18855
0.09706,0.18854
0.09728,0.18859
0.09755,0.18811
0.09765,0.18908
0.09728,0.18934
0.09720,0.18869
0.09740,0.18851
0.09735,0.18910
0.09744,0.18891
0.09768,0.18942
0.09740,0.18920
0.09703,0.18833
0.09750,0.18888
0.09745,0.18849
0.09749,0.18944
0.09727,0.18960
0.09644,0.18757
0.09653,0.18841
0.09735,0.18883
0.09772,0.18889
0.09719,0.18909
0.09667,0.18832
0.09710,0.18750
0.09696,0.18816
0.09686,0.18925
0.09767,0.18926
0.09754,0.18879
