0.34862,0.80270
0.34909,0.80314
0.34880,0.80510
0.34902,0.80728
0.35027,0.81058
0.35109,0.81348
0.34878,0.80628
0.34761,0.80067
0.34811,0.80111
0.34819,0.80265
0.34894,0.80494
0.34975,0.80861
0.34949,0.80910
0.34829,0.80375
0.34719,0.79722
0.34637,0.79696
0.34666,0.79769
0.34720,0.79841
0.34755,0.80177
0.34864,0.80524
0.34793,0.80257
0.34643,0.79752
0.34582,0.79493
0.34598,0.79477
0.34586,0.79528
0.34632,0.79737
0.34738,0.79970
0.34841,0.80284
0.34861,0.80635
0.34640,0.79752
0.34468,0.79074
0.34456,0.79110
0.34473,0.79157
0.34522,0.79463
0.34588,0.79751
0.34726,0.80193
0.34790,0.80397
0.34598,0.79710
0.34499,0.79264
0.34501,0.79281
0.34534,0.79439
0.34591,0.79586
0.34672,0.79925
0.34807,0.80436
0.34781,0.80435
0.34595,0.79834
0.34510,0.79378
0.34544,0.79409
0.34578,0.79593
0.34649,0.79853
0.34763,0.80227
0.34803,0.80616
0.34927,0.81201
0.34835,0.80670
0.34603,0.79549
0.34576,0.79459
0.34556,0.79580
0.34620,0.79803
0.34715,0.80095
0.34785,0.80414
0.34900,0.80825
0.34970,0.81120
0.34826,0.80505
0.34619,0.79699
0.34590,0.79751
0.34637,0.79877
0.34686,0.80058
0.34752,0.80369
0.34847,0.80776
0.34892,0.81021
0.34763,0.80557
0.34599,0.79882
0.34527,0.79605
0.34546,0.79768
0.34600,0.79954
0.34669,0.80104
0.34799,0.80561
0.34806,0.80712
0.34559,0.79892
0.34513,0.79564
0.34528,0.79644
0.34549,0.79784
0.34604,0.79976
0.34639,0.80336
0.34808,0.80790
0.34673,0.80270
0.34321,0.79243
0.34234,0.78994
0.34194,0.78911
0.34219,0.79079
0.34242,0.79254
0.34261,0.79418
0.34327,0.79730
0.34119,0.79030
0.33927,0.78317
0.33898,0.78233
0.33902,0.78354
0.33948,0.78482
0.34010,0.78697
0.34095,0.79054
0.34156,0.79328
0.34087,0.79119
0.33904,0.78433
0.33864,0.78161
0.33920,0.78299
0.33927,0.78424
0.33999,0.78764
0.34086,0.79067
0.34202,0.79512
0.34183,0.79490
0.33928,0.78488
0.33898,0.78244
0.33961,0.78427
0.33978,0.78639
0.34011,0.78903
0.34129,0.79185
0.34231,0.79590
0.34289,0.79876
0.34220,0.79550
0.34028,0.78741
0.33993,0.78591
0.34020,0.78716
0.34042,0.78899
0.34101,0.79201
0.34216,0.79532
0.34311,0.79878
0.34456,0.80426
0.34420,0.80299
0.34106,0.79196
0.34036,0.78945
0.34096,0.79022
0.34138,0.79154
0.34163,0.79431
0.34228,0.79741
0.34356,0.80015
0.34496,0.80548
0.34439,0.80442
0.34203,0.79439
0.34176,0.79261
0.34203,0.79398
0.34221,0.79567
0.34259,0.79851
0.34339,0.80221
0.34492,0.80502
0.34524,0.80646
0.34349,0.80193
0.34157,0.79412
0.34181,0.79431
0.34191,0.79504
0.34209,0.79590
0.34287,0.79862
0.34389,0.80246
0.34511,0.80594
0.34414,0.80334
0.34203,0.79674
0.34107,0.79236
0.34129,0.79233
0.34150,0.79358
0.34178,0.79525
0.34239,0.79739
0.34329,0.80065
0.34418,0.80484
0.34353,0.80138
0.34181,0.79437
0.34058,0.79092
0.34048,0.79071
0.34067,0.79111
0.34089,0.79263
0.34129,0.79456
0.34208,0.79725
0.34279,0.80136
0.34130,0.79505
0.33989,0.78815
0.33979,0.78785
0.33972,0.78818
0.34050,0.78919
0.34072,0.79147
0.34125,0.79507
0.34213,0.79659
0.34075,0.79159
0.33930,0.78580
0.33868,0.78318
0.33848,0.78312
0.33849,0.78397
0.33909,0.78659
0.33971,0.78855
0.34071,0.79264
0.34110,0.79465
0.33905,0.78547
0.33751,0.77929
0.33720,0.77844
0.33752,0.77913
0.33807,0.78015
0.33879,0.78314
0.33926,0.78605
0.34020,0.79062
0.34044,0.79226
0.33828,0.78407
0.33728,0.77792
0.33727,0.77719
0.33720,0.77813
0.33725,0.77883
0.33812,0.78204
0.33898,0.78469
0.34017,0.78905
0.34025,0.78962
0.33802,0.78053
0.33762,0.77732
0.33783,0.77818
0.33804,0.77994
0.33869,0.78236
0.33954,0.78532
0.34087,0.79063
0.34060,0.78952
0.33871,0.78204
0.33749,0.77770
0.33758,0.77752
0.33810,0.77825
0.33841,0.78049
0.33886,0.78408
0.34012,0.78691
0.34149,0.79217
0.34016,0.78723
0.33761,0.77697
0.33698,0.77537
0.33706,0.77648
0.33787,0.77802
0.33859,0.78030
0.33918,0.78412
0.34023,0.78781
0.33985,0.78547
0.33835,0.77960
0.33744,0.77604
0.33769,0.77671
0.33782,0.77822
0.33861,0.78071
0.33966,0.78412
0.34031,0.78736
0.34009,0.78725
0.33828,0.78020
0.33794,0.77790
0.33873,0.77995
0.33901,0.78107
0.33984,0.78479
0.34124,0.78980
0.34172,0.79112
0.34061,0.78665
0.33923,0.78109
0.33954,0.78184
0.34017,0.78386
0.34075,0.78598
0.34166,0.78973
0.34266,0.79380
0.34328,0.79577
0.34208,0.79055
0.34060,0.78420
0.34080,0.78464
0.34097,0.78614
0.34152,0.78856
0.34218,0.79060
0.34322,0.79460
0.34456,0.80041
0.34273,0.79229
0.34038,0.78412
0.33975,0.78359
0.34026,0.78535
0.34072,0.78664
0.34091,0.78853
0.34179,0.79246
0.34222,0.79353
0.34042,0.78714
0.33878,0.78198
0.33845,0.78025
0.33857,0.78051
0.33838,0.78159
0.33867,0.78405
0.33995,0.78858
0.33960,0.78596
0.33770,0.77818
0.33674,0.77590
0.33651,0.77697
0.33705,0.77794
0.33747,0.77970
0.33808,0.78420
0.33930,0.78730
0.33664,0.77806
0.33447,0.77066
0.33388,0.76903
0.33283,0.76727
0.33374,0.77117
0.33568,0.77614
0.33758,0.78065
0.33747,0.77978
0.33438,0.76962
0.33288,0.76534
0.33295,0.76484
0.33323,0.76535
0.33350,0.76741
0.33411,0.76931
0.33438,0.77115
0.33291,0.76629
0.33073,0.75859
0.33017,0.75816
0.33042,0.75805
0.33124,0.75997
0.33206,0.76346
0.33258,0.76595
0.33274,0.76607
0.33070,0.75906
0.32895,0.75353
0.32896,0.75352
0.32916,0.75405
0.32868,0.75409
0.32955,0.75717
0.32945,0.75672
0.32725,0.75002
0.32615,0.74565
0.32566,0.74429
0.32591,0.74561
0.32736,0.74956
0.32964,0.75572
0.33122,0.76118
0.33080,0.75815
0.33037,0.75465
0.33179,0.75816
0.33434,0.76475
0.33694,0.77207
0.33969,0.78023
0.34183,0.78614
0.34231,0.78621
0.34164,0.78274
0.34186,0.78350
0.34275,0.78690
0.34330,0.78931
0.34375,0.79199
0.34501,0.79659
0.34404,0.79279
0.34195,0.78552
0.34156,0.78460
0.34277,0.78839
0.34574,0.79671
0.34868,0.80566
0.35004,0.80982
0.34956,0.80700
0.34788,0.80136
0.34768,0.80055
0.34833,0.80342
0.34863,0.80566
0.34966,0.80828
0.35154,0.81406
0.35007,0.81007
0.34728,0.80132
0.34751,0.80125
0.34791,0.80256
0.34825,0.80434
0.34848,0.80683
0.34872,0.80901
0.34855,0.80761
0.34583,0.79867
0.34411,0.79407
0.34419,0.79516
0.34433,0.79584
0.34478,0.79821
0.34546,0.80223
0.34502,0.80134
0.34338,0.79472
0.34197,0.78930
0.34125,0.78794
0.34079,0.78838
0.34071,0.78877
0.34133,0.79066
0.34165,0.79374
0.33923,0.78635
0.33721,0.77919
0.33659,0.77775
0.33567,0.77637
0.33584,0.77732
0.33631,0.77961
0.33680,0.78204
0.33637,0.78020
0.33386,0.77112
0.33250,0.76705
0.33241,0.76665
0.33249,0.76687
0.33266,0.76869
0.33337,0.77148
0.33290,0.77046
0.33120,0.76468
0.32970,0.75918
0.32929,0.75854
0.32925,0.75816
0.32937,0.75924
0.33008,0.76265
0.33087,0.76494
0.33004,0.76184
0.32861,0.75706
0.32814,0.75451
0.32835,0.75448
0.32820,0.75523
0.32867,0.75695
0.32931,0.76083
0.32890,0.76038
0.32740,0.75357
0.32632,0.74993
0.32622,0.75016
0.32672,0.75134
0.32719,0.75259
0.32761,0.75541
0.32837,0.75860
0.32716,0.75257
0.32522,0.74557
0.32467,0.74534
0.32496,0.74529
0.32516,0.74652
0.32587,0.74971
0.32634,0.75074
0.32528,0.74649
0.32358,0.74153
0.32303,0.73933
0.32332,0.73971
0.32362,0.74101
0.32413,0.74310
0.32506,0.74683
0.32448,0.74444
0.32283,0.73813
0.32203,0.73558
0.32230,0.73630
0.32288,0.73792
0.32362,0.73994
0.32450,0.74359
0.32489,0.74685
0.32389,0.74213
0.32277,0.73666
0.32182,0.73415
0.32158,0.73479
0.32332,0.73982
0.32449,0.74355
0.32540,0.74655
0.32636,0.75006
0.32612,0.75049
0.32424,0.74368
0.32337,0.74040
0.32386,0.74093
0.32474,0.74221
0.32569,0.74629
0.32623,0.74910
0.32726,0.75299
0.32726,0.75304
0.32537,0.74639
0.32522,0.74536
0.32592,0.74676
0.32623,0.74855
0.32665,0.75132
0.32815,0.75515
0.32928,0.75911
0.32815,0.75549
0.32619,0.74883
0.32558,0.74726
0.32578,0.74742
0.32629,0.74891
0.32671,0.75097
0.32737,0.75429
0.32832,0.75782
0.32758,0.75437
0.32615,0.74972
0.32570,0.74816
0.32631,0.74881
0.32661,0.74996
0.32695,0.75187
0.32793,0.75632
0.32821,0.75748
0.32669,0.75119
0.32579,0.74874
0.32590,0.74906
0.32661,0.75062
0.32739,0.75322
0.32812,0.75643
0.32953,0.76104
0.32908,0.75929
0.32724,0.75309
0.32653,0.75069
0.32655,0.75123
0.32722,0.75339
0.32839,0.75633
0.32974,0.76062
0.33054,0.76459
0.32948,0.76044
0.32806,0.75520
0.32761,0.75367
0.32794,0.75440
0.32822,0.75598
0.32869,0.75805
0.32950,0.76190
0.32945,0.76255
0.32769,0.75547
0.32651,0.75129
0.32629,0.75080
0.32699,0.75299
