,sc,scp,cp,cvw,cv,isgood,keep
CF02_1-7-11,0.5062726069009801,0.0193853294469199,0.2732452110181717,0.3420319147858164,0.8233166102621203,0.0,1.0
CF02_1-8-31,0.1102217614737904,0.0152867304527776,0.3564663213660968,0.1755677123190027,1.025247169566933,0.0,1.0
CF02_2-11-31,0.6078182464057498,0.2121154826595297,0.6758661202375825,0.2245119653002554,2.5937906552754724,0.0,1.0
CF02_2-1-21,0.3450006642286858,0.028755056286595,0.540201167397934,0.1976784913578138,1.39715278712651,0.0,1.0
CF02_2-1-41,0.2044315428654316,0.0156006309279392,0.4624250676680313,0.0979342550746902,1.4656562620938494,0.0,0.0
CF02_2-15-41,0.924414611384008,0.0620879622187472,0.542257813948565,0.3610632839263488,1.1381173745696342,0.0,1.0
CF04_1-11-11,0.9709994355720086,1.1036490119960205,0.9364928357074542,0.158455361082731,1.0270743713579116,1.0,1.0
CF04_1-1-41,0.993162382205878,0.2726247574806938,0.348058883090023,0.4182732462661351,3.607970647803189,0.0,0.0
CF04_1-9-11,0.6590130037504346,0.3793473146880332,0.6028497452964593,0.5490765543284639,1.0517547669473997,0.0,1.0
CF04_2-13-41,0.1018820836732423,0.0111246046301542,0.3660885810644678,0.0604510619740283,1.3716591469145611,0.0,1.0
CF04_2-17-21,0.8862047897737252,0.4292232511708426,0.8951223850828047,0.3453923148442517,0.4636223018133119,1.0,1.0
CF04_2-4-41,0.171983759504675,0.0287384283671416,0.5194047151381841,0.4373448655383549,2.179580800599491,0.0,1.0
CF04_2-7-41,0.5370745810928994,0.0208244652967962,0.3622487443902073,0.1662535114284897,1.775189193613541,0.0,0.0
CF05_1-0-31,0.9778663494291354,4.487085641918755,0.9564561658390496,0.2106492876737349,0.9682647046783632,1.0,1.0
CF05_1-10-41,0.994995241124509,2.8056831400744766,0.9543691583045224,0.4853916207386586,0.5841641102427735,1.0,1.0
CF05_1-1-41,0.8706912739483554,1.2894131805008138,0.8021623603117158,0.1111352061672451,0.8692314225341261,1.0,1.0
CF05_1-14-11,0.0937979072350872,0.0205323288091955,0.3173998414617993,1.7081003057507913,4.044257595395866,0.0,0.0
CF05_1-15-31,0.9873739818021844,4.433721226477845,0.9264542608937834,0.4742487323126653,0.7226818128830722,1.0,1.0
CF05_1-16-11,0.7792965882802002,0.6327311734068637,0.7722086622876917,0.5941618967493789,1.3423063247427525,1.0,1.0
CF05_1-6-21,0.6997670526202864,1.1822228193133013,0.7611252166414229,0.3528859355745479,1.337065959690856,0.0,1.0
CF05_2-11-41,0.948309613479823,0.4870254983347371,0.922218085664859,0.6017402758850872,2.2241612159493416,1.0,1.0
CF05_2-14-21,-0.014887317756314,0.0266585339675975,0.2937108898784617,1.7561557975588595,3.999530439922556,0.0,0.0
CF05_2-5-11,0.9733796161032428,1.7730568964681082,0.9452889893844983,0.5405087997109675,0.8790317473380337,1.0,1.0
CF05_2-6-31,0.5944096342910611,0.3888452082965891,0.6999817928061781,0.3044587327969659,1.2839410382661114,0.0,1.0
CF05_2-7-11,0.4654532515478472,0.0995053070819958,0.568727916576755,0.3724624243269154,2.0345778481195493,0.0,0.0
CF06_1-1-11,0.8968056333154297,0.0519081691169776,0.4737029648302205,0.1646045381974366,2.366077299973336,0.0,1.0
CF06_1-13-21,0.0998854201149581,0.037081549412368,0.2372416317072042,0.2877126830295031,7.556641899720684,0.0,0.0
CF06_1-14-21,-0.0229481250313276,0.0255191032752949,0.3326214458990358,4.007342418777583,16.856443691667746,0.0,0.0
CF06_1-18-31,0.9836585730992776,1.454523817029266,0.9344568776784954,0.349289848143687,1.4189497981622328,1.0,1.0
CF06_1-2-41,0.9945891623348548,1.9740796448641391,0.971340891563046,0.3915267123122616,0.7666555226096425,1.0,0.0
CF06_1-4-31,0.1866887952037543,0.0170139719669328,0.2270549254327511,1.3770249567275563,8.173422315153653,0.0,0.0
CF06_2-11-21,0.2270379850913623,0.066880865160343,0.5707541192237477,0.7780588150553553,1.4453249192747537,0.0,1.0
CF06_2-16-41,0.1117634479802994,0.0499089555536028,0.3606753899904511,0.0461251215593991,1.620381733804378,0.0,1.0
CF06_2-17-11,0.5366057819057821,0.4399198657946783,0.6982366307758119,0.1354999691803025,1.139624189053966,0.0,1.0
CF06_2-2-21,0.9916521377578392,2.4666622452046667,0.9688416176653192,0.4247013567778641,1.693022775774245,1.0,1.0
CF06_2-5-21,0.9417484643456566,2.299731730961666,0.9665181538654332,0.0783406560661501,1.780899005971713,1.0,1.0
CF08_1-11-21,-0.0656396227650338,0.0103477310438894,0.2385486217519821,1.8070178914335384,6.214444564122427,0.0,1.0
CF08_1-1-41,0.2565150803547061,0.1089016758639147,0.4815047268863368,0.7701018848445833,3.0459879764234885,0.0,1.0
CF08_1-14-11,0.1592521890788271,0.1264224663300228,0.0866949415814833,14.448933498851662,16.96799824558539,0.0,0.0
CF08_1-14-41,-0.2399901348858189,0.060713463557638,0.6365349181604619,10.80828858879004,13.659864664336384,0.0,0.0
CF08_1-19-21,0.1122027355041357,0.0331856356350757,0.2636814975648263,1.5350562704772637,5.594210612440483,0.0,1.0
CF08_1-2-41,0.8900706289937071,0.4258378670963774,0.8935905395160507,0.0848549454574452,3.2383910196516905,1.0,1.0
CF08_1-3-11,0.8848067728881938,0.1993197099946192,0.8297140375377539,0.9660413753302524,1.6838356837152837,1.0,1.0
CF08_1-7-41,0.6598720368539057,0.2920744073791157,0.58052966463023,0.0259641140746014,2.298096835665165,0.0,0.0
CF08_2-17-11,0.5729868146679904,0.0468619304267473,0.2616628787070347,1.7070418060293695,18.205823413131814,0.0,0.0
CF09_1-0-31,0.7988732960038071,0.4182665073326316,0.7783397923063307,0.0668572882473066,1.1196623452242218,1.0,1.0
CF09_1-1-21,0.3710316020673345,0.0798782198832556,0.6730565359791336,2.294542602022524,4.223101258136525,0.0,1.0
CF09_1-12-31,0.9955194707330536,1.6743896913907383,0.8881770092560362,2.0714673161215167,12.113125797430522,0.0,1.0
CF09_1-14-21,0.2031353587043925,0.0133187220495202,0.4482473888009221,0.5093790127520128,4.731930554949384,0.0,1.0
CF09_1-15-31,0.990991564563994,1.8023187557012468,0.8921776282538995,1.466095740557872,5.180177128535888,1.0,1.0
CF09_1-8-41,0.0503201190405903,0.0189246361496276,0.3883904318059228,2.5565190904906583,6.923367785322185,0.0,1.0
CF09_1-9-31,0.0573710540311858,0.0163890443351632,0.4605833901070408,0.0725385174161341,2.1919437283991927,0.0,0.0
CF09_2-0-11,0.6741573129026113,0.0753011015966124,0.459737768690392,3.5834380481478,6.826879741128924,0.0,1.0
CF09_2-11-11,0.9848438696531376,0.2854357832392585,0.6958930458857403,0.0266098018235774,3.8740330600386432,1.0,1.0
CF09_2-19-11,0.9936145508374292,0.2663910044445476,0.6910679159013531,0.5942970075765106,2.1598093245506367,1.0,1.0
CF09_2-5-41,0.983557032040398,0.4085400047757604,0.6625820045723095,1.047029899681518,2.05753427941126,1.0,1.0
CF09_2-9-41,-0.1668191890608034,0.0519631727359779,0.5098626683783619,0.8969128735098404,2.2041973269390747,0.0,0.0
CF10_1-13-21,0.1805555811952163,0.0166679136794659,0.1910387642781948,0.7252720740883474,2.737627120264259,0.0,0.0
CF10_1-16-11,0.7141997796379463,0.1046319370680168,0.385518278564732,0.3010947195234883,3.604126087923949,0.0,0.0
CF10_1-16-21,0.8378839507789002,0.1994439039375479,0.3739722656211303,0.4263218832083708,2.177433544652331,0.0,1.0
CF10_1-19-41,0.0456452450261557,0.0394103524276641,0.3820718422448758,1.0289109556861749,2.6844190531247154,0.0,0.0
CF10_1-3-11,0.6326924489617224,1.0213923880161224,0.7409487622771553,0.004785267370025,0.9671470423590384,0.0,1.0
CF10_1-8-31,0.5988281033506349,0.0700244942436068,0.2393463102144765,1.0089434319126165,9.638757148327274,0.0,1.0
CF10_1-9-31,0.9834177205224832,0.0934765144748084,0.2880277433037647,2.137424536013832,4.950211795037759,0.0,0.0
CF10_2-6-21,0.2143573445619814,0.015956763859542,0.4755164077477674,0.5328390356470716,3.305945928442274,0.0,1.0
CF11_1-0-11,0.3099815991777775,0.0386046137969895,0.441133222216138,0.4483972343653111,2.5035028614560506,0.0,1.0
CF11_1-1-21,0.9339527338750688,0.2266078555173488,0.3160811005641155,0.049135822623614,1.216092617190848,0.0,1.0
CF11_1-13-21,0.0526003914820519,0.0207548328587982,0.2852128619614115,0.255213705084941,11.117724203810775,0.0,0.0
CF11_1-16-21,0.9593473387804922,0.1901616507637002,0.771076138846778,0.0665582138810134,1.0749911326012584,1.0,1.0
CF11_1-6-21,-0.0012450770666771,0.0082372541028069,0.414282956922025,1.0819121899067223,11.691527008740282,0.0,0.0
CF11_1-6-41,-0.0075402038774795,0.011983303974793,0.3333092768204755,0.7966749213885986,12.5487915309788,0.0,0.0
CF11_2-14-11,0.0067625658967843,0.0110069471955076,0.4332094835646097,0.286325268426518,10.75567270314496,0.0,0.0
CF11_2-17-31,-0.0057822829665544,0.0209562140257321,0.3396128041196121,0.5031155458347367,10.75868090566578,0.0,0.0
CF11_2-19-31,-0.0308188811090233,0.0208768475849447,0.4067068583431522,0.5185305735530346,15.891711695039664,0.0,0.0
CF11_2-2-41,0.981570284261739,0.2255275510408376,0.3394973636927016,0.5112126263668786,1.6026126386153925,0.0,1.0
CF11_2-3-41,0.967713496363131,0.1322911393864347,0.3837757181345013,0.638209619402013,1.0380037947669454,0.0,1.0
CF11_2-4-21,-0.0353061173911347,0.010818937177444,0.3058965653998984,1.830408931884124,13.753581708986864,0.0,0.0
CF12_1-12-31,0.9997231277362124,2.2121173837343027,0.9766633289384888,0.779053159320632,1.127544431118956,1.0,1.0
CF12_1-14-41,-0.1196427252260702,0.0237153744792864,0.3502952502778675,3.820225486640421,12.971116665653543,0.0,0.0
CF12_1-15-21,0.9981988504908792,3.1038364497146578,0.9760329282203444,0.3077552753155271,0.5881823554255652,1.0,1.0
CF12_1-8-21,0.0965721316865549,0.015770586620619,0.4026908290569097,0.4040527838389884,25.387694105466384,0.0,0.0
CF12_2-0-21,0.3518878267935342,0.0127945951740122,0.2319661146798449,2.089183330211517,5.93346515319572,0.0,0.0
CF12_2-1-31,0.1495911663346764,0.0193152770105461,0.3147389332188083,8.319797393441998,20.57093632130374,0.0,1.0
CF12_2-2-21,0.883268316546127,0.0812503126353428,0.5616715871797578,1.3765191911770858,6.100412034634924,0.0,0.0
CF12_2-3-21,0.9957885363612864,0.978171610711885,0.9496999908898518,0.7631020828893158,2.8733573478695584,1.0,1.0
CF14_1-1-11,0.8729002187944317,0.9277836848018172,0.7477743148907684,0.0080193936583272,0.6635688058111652,1.0,1.0
CF14_1-11-31,0.0751536544328943,0.012344763984978,0.547696900628825,0.1730585508798496,1.9078026542171949,0.0,1.0
CF14_1-1-41,0.9057334532597248,0.3114376035039963,0.6250220886110631,0.0421847170656508,1.0495479035951782,1.0,1.0
CF14_1-2-41,-0.094702130290355,0.0107879512743248,0.35525494440758,2.908082893289299,7.320285735019233,0.0,0.0
CF14_1-4-11,-0.1234753575781308,0.0086419679852188,0.4027627502605166,3.7994785569657497,7.725488689788594,0.0,0.0
CF14_2-16-11,0.9962768932865856,0.1952862198801637,0.3605834188500806,0.4208351947342299,2.957026985443648,0.0,0.0
CF14_2-7-21,0.9480187812428564,0.2025707029671396,0.1181987548432668,1.4400300419539531,18.85876999692401,0.0,1.0
CF14_2-8-31,0.1669117502522784,0.0151187345639728,0.4919111257700781,0.2876387993042746,2.8987263955542413,0.0,0.0
CM01_1-0-21,0.7100466762456192,0.0401095190444698,0.5254929030342457,2.454538221929116,3.334412312653664,0.0,1.0
CM01_1-0-31,0.9439009963992938,0.0864397819474666,0.5099692182581634,1.490079291159442,5.921605346342659,0.0,1.0
CM01_1-15-41,0.990392186490932,0.8156061431543314,0.936116010731776,1.3383105735928642,1.0769353066370182,1.0,1.0
CM01_1-6-41,0.0160098460890574,0.0195073155022344,0.4139982085031206,0.4698866990633221,2.82182993571931,0.0,0.0
CM02_2-1-41,0.8798175858616604,0.4238417201511676,0.77899026661432,0.1101603821303953,1.3914684699606032,1.0,1.0
CM02_2-15-31,0.9984994146450242,0.7844128103096029,0.9715157784088662,1.3966996804310612,3.214599375227975,1.0,1.0
CM02_2-17-31,0.9824262765551264,0.5729468809706704,0.8893049237249151,1.643501535237447,2.72482696464683,1.0,1.0
CM02_2-18-31,0.9980808707710742,0.743647681247806,0.9586127077341005,1.0849044129864978,2.260714085229571,1.0,1.0
CM02_2-7-21,0.9691483988648356,0.2538686432344066,0.1367422516385756,0.3512000707287002,3.9874367311144376,0.0,1.0
CM03_2-11-21,-0.1092060083620106,0.0172335670235762,0.3414348315788423,3.4360891464829963,10.214421501393913,0.0,0.0
CM03_2-14-11,-0.0947940494684239,0.0113528784196411,0.4224740728655849,2.277308199429058,9.543560992307926,0.0,0.0
CM03_2-5-11,0.083737911146652,0.0059643949027695,0.4361623985364589,0.5823075735233125,3.615738928523693,0.0,0.0
CM04_1-13-31,0.2200780591938766,0.0182192343463277,0.3952493382875894,0.3283192428812973,3.9229485813584097,0.0,0.0
CM04_1-15-11,0.9939443483443884,1.0858141762153446,0.7705479943356912,0.5172408866582359,1.3782304235763403,1.0,1.0
CM04_1-6-41,0.0260487820075189,0.0147408704513289,0.4380013675166418,2.24387995091956,8.631774672550796,0.0,0.0
CM04_1-7-11,-0.0903029997047805,0.0479872049992626,0.5109229078395607,0.0117788423887184,2.3856318810076,0.0,1.0
CM04_2-0-21,-0.0495283425043828,0.0114064452884207,0.5186467037885503,0.204410554682628,3.617751990791077,0.0,0.0
CM04_2-10-21,0.7299174306850624,0.5251286036567775,0.7489480601865655,1.3326268167561754,1.26941433583962,1.0,1.0
CM04_2-10-31,0.716059812869585,0.2037640477362787,0.6794040254454524,0.639140728455553,1.15896237927641,1.0,1.0
CM04_2-12-31,0.9451963828000596,0.1887808349448816,0.7087958697876032,0.940350311390042,0.8594937690208228,1.0,1.0
CM04_2-13-21,-0.085149574640542,0.0350743437564461,0.3858853762935548,1.4994513596062484,5.14693761144214,0.0,0.0
CM04_2-3-41,0.9185581147639088,0.3213772580264593,0.240560295053495,0.0007930360681061,3.1232211427332324,0.0,1.0
CM04_2-5-21,0.484845376484863,0.1904873092108117,0.633710575907306,1.0951732441862654,2.3677725023644216,0.0,1.0
CM04_2-5-31,0.4451137313538429,0.1121615267856596,0.6523975581433827,0.4674218149306859,1.4153018521948997,0.0,1.0
CM05_2-11-21,-0.12841036405342,0.0260964165981244,0.2649149172294987,0.862379506125647,8.550626814152524,0.0,0.0
CM05_2-13-11,-0.165869475627737,0.0144282436930461,0.5217582842064286,0.5366074390574624,11.834963391399748,0.0,0.0
CM05_2-19-41,0.1927499272195471,0.1471285206561832,0.4797335396586354,0.1466987946920048,1.5439766980321097,0.0,1.0
CM05_2-5-41,-0.1025951625435607,0.0197192906760407,0.3100210955683117,0.1041545519162312,1.7594984526665658,0.0,1.0
CM05_2-6-11,-0.0615456623087307,0.0279557222051633,0.421460663298964,2.9447275975876224,12.71186833749005,0.0,0.0
CM05_2-7-41,-0.0413381403593276,0.0133091208864538,0.3135208488389568,3.7824131300260166,8.744991302684484,0.0,0.0
CM06_2-15-31,0.9832621303334094,0.7154863622983225,0.9670733702459746,0.2160323927086159,0.6423428961746354,1.0,1.0
CM06_2-17-11,0.5490444352841073,0.2605472766356601,0.6206953350648793,0.4048587260331728,1.4886526209013944,0.0,1.0
CM06_2-17-21,0.3523961331790222,0.4885434802366579,0.5988957803237555,0.323749985340618,1.0253719651882864,0.0,1.0
CM06_2-18-11,0.9967688474223068,0.9869396579367624,0.9391298093800308,0.4207501024363544,1.0416054917205526,1.0,1.0
CM06_2-2-31,0.9908367063582896,0.7775087775917078,0.9763927342270836,0.2386501471961067,0.9576816924978984,1.0,1.0
CM06_2-8-31,0.127339330160989,0.0415891424672815,0.3947441204259397,0.5248344648704042,2.6524743875453725,0.0,0.0
CM06_2-9-31,0.1845378243894299,0.0308528854413586,0.4487453641711999,0.0226334052085885,1.097371258776279,0.0,1.0
CM09_1-10-31,0.8691286349812977,0.3309039140443019,0.6239892970426058,1.9586846896893868,2.535919476610856,1.0,1.0
CM09_1-13-21,0.1000512934860787,0.017778835345151,0.4252901343809563,0.9944929280777188,12.691525588155825,0.0,0.0
CM09_1-17-31,0.1494211374903706,0.0060359829256224,0.3265708629599755,0.5347985267562914,4.692723781487992,0.0,1.0
CM09_1-3-11,0.9945739923443688,0.3558063291047357,0.8229033545752918,0.7021500242755598,2.215196157590716,1.0,1.0
CM09_1-3-21,0.9936766332234136,0.1799351432638714,0.7294880614548359,1.061142642370279,2.7833524356560546,1.0,1.0
CM09_2-1-41,0.5184661022704019,0.1005540390651419,0.3661932383802331,0.7582845396457845,1.9354119201734328,0.0,1.0
CM12_2-10-31,0.9908664682615306,0.6506217539271645,0.9146790976886086,1.0151558608555515,1.0394170211744491,1.0,1.0
CM12_2-1-21,0.2657138904017141,0.0298973810846586,0.3485052886522222,0.0660269733013967,1.6397373723037294,0.0,1.0
CM12_2-16-11,0.9960396616357412,0.1791337514744949,0.2259774453794104,0.4864288604333842,7.498871583407628,0.0,1.0
CM12_2-17-21,0.2009207939707288,0.0150779586379433,0.3820273247925356,1.913976869453971,4.721141324508407,0.0,1.0
CM12_2-5-11,0.5873594677982358,0.2266433031797415,0.5931457372994721,2.770253915999496,1.323469665642543,0.0,1.0
CM12_2-5-41,-0.0355498840777058,0.0114603289171302,0.4952410812879627,0.4486612785390711,0.6697474746890468,0.0,0.0
CM12_2-6-41,-0.0324107490039865,0.016415640433257,0.4664722647649342,0.0837427345682009,10.789578865335605,0.0,0.0
CM12_2-8-41,-0.0094715766532518,0.0108364645804011,0.4345642138505557,1.543302855599488,7.9259188563840945,0.0,0.0
CM12_2-9-41,0.0031191395032331,0.0165932669761967,0.4789350317102856,0.1829398263514825,5.299887353629172,0.0,0.0
CM13_1-10-31,0.9611408579047104,1.9130971919480868,0.9562793551495234,0.4184801855920503,1.8810586578181676,1.0,1.0
CM13_1-13-21,0.3674530220700792,0.0115228673428011,0.3031536075912489,3.1541762601965884,6.321716961617863,0.0,0.0
CM13_1-14-41,0.7843830564957003,0.0871245373276046,0.6063163780267103,0.1899970876133268,1.9210492774991643,0.0,1.0
CM14_1-12-11,0.9871278833072412,0.6125478444462663,0.9556524750771804,0.976791763653325,2.1050732313320477,1.0,1.0
CM14_1-19-31,0.8179282846274375,1.4094697720154787,0.8327746639873165,0.9191102468994958,1.2004212297098165,1.0,1.0
CM14_1-2-21,0.425259870922498,0.0773771696132171,0.5940389605515487,0.9611295175463536,2.4365987013068224,0.0,1.0
CM14_1-3-11,0.338875252526876,0.0176545984866053,0.4207084472975046,0.2360414913997517,3.231236076405454,0.0,0.0
CM14_1-3-21,0.1332427573008876,0.0270392131813102,0.4966210701291168,0.7332464715759626,4.093741037662759,0.0,0.0
CM14_1-6-21,-0.0862135034799867,0.0120260603813159,0.3482759597441134,0.2614839993887461,12.150285185776246,0.0,0.0
CM14_2-1-21,0.133693985714485,0.0151620789037395,0.4987198594900817,1.757843408817827,11.965312754184302,0.0,0.0
CM14_2-12-11,0.9621853891669284,0.2720408570364228,0.6110373688547455,1.2888318451544554,3.4073316115244494,1.0,1.0
CM14_2-3-31,0.3698098658692005,0.0667485698216971,0.2147575029168112,0.2992413926915303,6.276294180070076,0.0,1.0
CM14_2-7-31,-0.057106240702152,0.0148810627142962,0.4807584398511494,1.5785523197362217,14.388635832657496,0.0,0.0
CM14_2-7-41,0.0670323469720118,0.017909361454439,0.4831496301952959,0.3816929132886262,15.444142936900432,0.0,0.0
CM15_2-1-21,0.568491679646116,0.0605875202278545,0.3056693598735669,1.6739807473288844,5.655104609846462,0.0,1.0
CM15_2-17-21,-0.0982053358839973,0.0109533519008971,0.4308635246664336,0.3545261393544088,19.862541492783464,0.0,0.0
CM15_2-4-21,0.0456768766471723,0.0322393698418966,0.4846520858050047,1.039213746658005,14.832975605973049,0.0,0.0
CM15_2-7-11,0.1398870426349754,0.0283338115042004,0.3300177538935436,0.8783313569291464,1.7785832020997736,0.0,1.0
CM15_2-8-21,0.1404498334306176,0.0061142572666713,0.4554660622011959,0.8282648086564235,6.14212180176856,0.0,0.0
CM16_1-1-21,0.7234955709193145,0.6239221471422065,0.6843383994770618,0.0462237096195417,0.6661000812834088,1.0,1.0
CM16_1-13-21,0.8283885038270523,1.7873110457336423,0.8572463315501947,0.9195129860522488,5.064482114523801,1.0,1.0
CM16_1-16-41,0.3021173405688218,0.3256699843714741,0.6710293245653598,0.1324516415849149,0.6325959771150989,0.0,1.0
CM16_1-17-21,0.6168685387623982,1.3227342809534208,0.6919418482468053,0.0089726296531893,0.6947883727578014,0.0,1.0
CM16_1-3-11,0.3895790867857988,0.2369398470640847,0.5242585776496257,0.5636069972022661,2.0801079183491336,0.0,0.0
CM16_1-5-41,0.2768068323830536,0.9574122974472326,0.8299894651861427,0.1208600100424692,1.1482273579219784,0.0,1.0
CM16_1-7-11,0.8367688928267679,1.3358086975977046,0.8426034171463304,0.0257294587505503,0.6324579018691303,1.0,1.0
CM16_1-8-21,0.5955746903553645,0.6143444445858988,0.794487276954332,0.2342986817876049,2.089281164625117,0.0,1.0
CM16_2-19-11,0.8618036194840901,0.025150488423226,0.3779100296208106,83.63813848051684,160.81091181043806,0.0,0.0
CM16_2-6-31,-0.0586627156887957,0.0081778785018928,0.4479258894587564,2.7471915409687124,12.548942666802162,0.0,0.0
CM17_1-13-31,0.3116788422531155,0.0964218148388587,0.5536830236011627,7.313093760741079,14.586208152422577,0.0,0.0
CM17_2-15-11,0.9380578726721784,0.380199591726885,0.3196998987943885,0.0047470493533441,3.159611207905988,0.0,0.0
CM17_2-18-11,0.9818600922102276,0.4990665187135458,0.3514370300413796,0.2922885599916585,2.38979529733051,0.0,1.0
CM17_2-2-31,0.9711943082779304,0.1100711187327657,0.5858750131445934,0.0869675205053202,8.229048281087211,0.0,1.0
CM17_2-3-31,0.9906250593608116,0.3046413719573633,0.510096872922902,1.4969429906094271,7.983200108097779,0.0,1.0
CM17_2-5-41,0.972995897806912,0.2225494710718485,0.4653923159643247,2.4339518473177417,7.104460947744649,0.0,1.0
CM17_2-9-41,0.1640673496099471,0.0867012219323807,0.3311005247529714,3.023675854495619,9.28651575657719,0.0,0.0
CM18_1-1-11,0.5301336264923576,0.8782074643681707,0.7976874240498539,0.1551544269927927,0.8171209812035577,0.0,1.0
CM18_1-11-21,0.024417797445991,0.0131349121320728,0.3222034922512574,0.4305656612003861,2.406649287367866,0.0,0.0
CM18_1-1-21,0.6410549994012592,0.7782862710690315,0.7311777779675017,0.2373788584526409,0.9036749250866332,0.0,1.0
CM18_1-12-21,0.9962413559602324,1.233755416847517,0.9523612529113766,1.7876075706801624,1.49666078716081,1.0,1.0
CM18_2-0-41,0.9744460327234234,1.193385658934681,0.77982261637878,0.8951023289724107,1.198191238069104,1.0,1.0
CM18_2-15-31,0.991668879073465,0.6995052460162661,0.8734696769998117,1.290277266261176,1.3475861312997872,1.0,1.0
CM18_2-4-41,0.1635582042578,0.0099855271102239,0.558832067329107,0.5058291059354652,2.768276409847108,0.0,0.0
CM19_1-16-11,-0.0368271942279425,0.1538664075458795,0.5273476429499102,0.4583084731765052,2.2905665757007454,0.0,1.0
CM19_1-19-21,0.9602687903689264,0.1177551918455375,0.6629395375289379,0.4241942159959699,2.993673081939097,1.0,1.0
CM19_1-3-11,0.9985818596197688,1.6993367761453757,0.984042982316692,0.3393897773460279,0.8128585142400109,1.0,1.0
CM19_1-9-21,0.1492118212385426,0.0513271536778542,0.5067673091526933,0.3771908832222839,2.9666734472291547,0.0,1.0
CM19_2-10-21,0.9912514956618602,0.7563708674758229,0.9007208883069896,0.9547258726751112,1.9409454479771784,1.0,1.0
CM19_2-11-21,0.7346845501803503,0.3919174951358845,0.8779033562075357,1.3971702647933335,2.9014912842968568,1.0,1.0
CM19_2-12-11,0.9995275065609658,1.536115902662357,0.9568724549295388,0.7569457643361588,2.3337974964150625,1.0,1.0
CM19_2-17-31,0.3452285121714926,0.0302052783439397,0.4536923969702854,0.1811231315276724,2.091453153378076,0.0,1.0
CM19_2-3-11,0.9977992363713778,1.5484207642611216,0.9415911755672286,0.3489066990880035,0.8913295318186557,1.0,1.0
CM19_2-4-11,0.1071119953462112,0.0288379763737591,0.5266224016499789,2.4502813867452837,11.855012860943136,0.0,0.0
CM19_2-8-31,-0.0108778539499746,0.0437693682708414,0.3182151957247672,1.22330956238407,2.35075332691937,0.0,1.0
F01_1-10-11,0.9904420306890868,0.081968078954411,0.4731305597701595,1.402214868513405,2.630537041174186,0.0,1.0
F01_1-11-11,0.5579299089242931,0.0347665255437347,0.4013929881245102,0.3113571253458693,2.7615985917565142,0.0,1.0
F01_1-14-41,0.0511846087463892,0.0300077436896492,0.4566873091042255,1.4905166569369772,10.09000198102168,0.0,0.0
F01_1-4-21,0.1077514903882444,0.0125367033690183,0.3391009166321651,0.2528969268798029,6.3402085486444655,0.0,0.0
F01_2-0-31,0.2011215272761156,0.0747129442538298,0.4649408513441903,0.3308304484017262,0.9356276376731064,0.0,1.0
F01_2-15-21,0.9464953067852088,0.2244727027230244,0.6936292541727315,1.394490985134729,4.262183365698246,1.0,1.0
F01_2-16-41,0.9583704576776516,0.111393613723021,0.3992970037834953,0.2965701382238386,2.60679959558278,0.0,1.0
F01_2-18-31,0.9862199487233524,1.1334232708956833,0.8772778863228284,0.7756882730283856,1.0874140150967575,1.0,1.0
F02_1-0-11,0.8767583833118364,0.0706256176310685,0.3310889400148066,0.4210831745220815,2.4304451004356524,0.0,1.0
F02_1-0-21,0.7987838629693153,0.1098762660331026,0.4604765889615687,0.6098644466311463,3.056347995730168,0.0,1.0
F02_1-10-11,0.9614217807726132,1.9096698295781624,0.8986692058305016,0.4124384247019179,1.8836644002859737,1.0,1.0
F02_1-14-11,0.2072584845757792,0.0156156383061912,0.3513447983183671,0.6394894321724709,2.6352839432227486,0.0,1.0
F02_1-14-31,0.1501907746093178,0.0121817018706941,0.3373298307232813,0.022024347386341,6.37453151356889,0.0,0.0
F02_1-4-21,0.1507116384352162,0.0269773707144587,0.5357329948207054,1.0880371972247422,6.363016081717179,0.0,0.0
F02_1-9-11,0.989255684662419,0.1889175058141602,0.2302051911159691,0.107235764851544,2.2274038146453066,0.0,1.0
F02_1-9-21,0.9889191407985272,0.123989888618342,0.3671055074082905,0.4393277313772739,4.44025420323434,0.0,1.0
F02_2-15-11,0.6615834462525494,0.2177539163804169,0.8152537104739993,1.648579997888886,1.9586368224987616,0.0,1.0
F02_2-3-11,0.9900816203522156,0.4911436606238314,0.8543962843209547,1.5826709229391058,6.571138256562963,1.0,1.0
F02_2-8-31,0.3607458139903819,0.0326488507061076,0.1810900006120811,0.800772513471411,2.93953390350992,0.0,1.0
F04_1-0-31,0.7993346347046107,0.1558927737497911,0.8629046691716418,0.986782134793907,3.488298619337076,1.0,1.0
F04_1-15-11,0.9968139139853924,5.131116598327546,0.9677198471178456,0.2149650876629234,0.7119960394934122,1.0,1.0
F04_1-16-11,0.8672819811952868,0.6783726391680306,0.6781248692870561,0.0123572058050031,0.6570535723156058,1.0,1.0
F04_1-7-41,0.0083234494520451,0.0091169068910875,0.3264137315222069,0.5178533912910228,2.362005889416972,0.0,1.0
F04_1-9-41,0.9910465860125132,0.1454898459383294,0.4068813376378498,0.512628166356774,4.514923487228325,0.0,1.0
F04_2-14-11,0.0123379053640297,0.0528467750405766,0.4754477485794703,0.3893126013654244,2.6958020422325486,0.0,0.0
F04_2-15-31,0.9919782407292452,0.9568904985463292,0.9717669372281198,0.4050646277818218,0.6804418830276376,1.0,1.0
F04_2-17-41,0.8576787610241098,0.0541428240367347,0.5688585924464129,0.4512757301373886,2.304585294870622,0.0,1.0
F05_1-14-41,0.240029400199748,0.0590189507920362,0.3057562676154095,2.1326229850251783,4.028269448014997,0.0,0.0
F05_1-19-31,0.97831850548502,0.4494414235143532,0.9359472691217118,0.3893873749192151,0.7393183441557714,1.0,1.0
F05_1-4-11,0.2437189335208031,0.0949465219102339,0.5722043058633863,0.0489492440889782,2.07805261690048,0.0,1.0
F05_1-9-41,0.891180163818789,0.451999949732486,0.7747563740756864,0.0573918491632152,2.555862468101364,1.0,1.0
F05_2-0-21,0.922650330453586,1.3938873237685456,0.941466922729693,0.1744795480271975,0.641178948080555,1.0,1.0
F05_2-10-21,0.9684287103960936,1.0436563359177116,0.9364293490129822,0.1102827229120744,2.133864494847949,1.0,1.0
F05_2-3-11,0.9951172208169116,1.1257905576365828,0.9100573122520904,0.2052978713579756,1.694675279984346,1.0,1.0
F05_2-6-21,0.7385472635350933,1.0415628640975627,0.8512742806259771,0.3796642883533065,1.263264539846056,1.0,1.0
F06_1-11-41,0.8745897826106402,1.1823786021688971,0.909615961638756,0.5145213359549845,1.1751693490802508,1.0,1.0
F06_1-12-31,0.9943143807567548,1.276462091246513,0.9496533751429028,0.2689336439513844,0.5034038616894034,1.0,1.0
F06_1-13-21,0.0748083434088504,0.0112692488282813,0.4815076204573883,1.6714419729986032,6.408185889928473,0.0,0.0
F06_1-17-21,0.2866632163154305,0.1060610150655048,0.4265535429962375,0.4740598549947896,0.9717048666071436,0.0,1.0
F06_1-18-21,0.9944383562692536,1.883253588446868,0.8895642799361189,0.383475959108981,0.5505585394273882,1.0,1.0
F06_1-19-41,0.9298834657394184,1.2439330498905892,0.916492098573024,0.6483169801112971,0.6883397530882305,1.0,1.0
F06_1-3-41,0.983526160985746,1.1720859766122236,0.902661320245056,0.4195909958343464,0.5295088421785132,1.0,1.0
F06_1-4-11,-0.0827510596108301,0.0164714189544744,0.4502547599495792,1.3258141975414262,11.503264500417954,0.0,0.0
F06_1-7-11,0.1861663146691264,0.0129972288103769,0.4380248239855665,0.1534087096577341,2.899995954577572,0.0,0.0
F06_2-13-11,-0.0325665530776588,0.0087813983403232,0.4268128425276032,1.9732980677577183,6.353273693586502,0.0,0.0
F06_2-14-21,-0.085679372811645,0.0242690802387369,0.4544041243631103,0.3822826663247074,8.573445597361625,0.0,0.0
F06_2-15-11,0.986508611357776,1.110139921523806,0.9276476303732116,0.8308705768064778,0.8572190892967239,1.0,1.0
F06_2-18-41,0.9882008611211588,0.9258791656274336,0.5484459066799161,0.7279104181740987,0.6333949940711574,1.0,1.0
F06_2-4-11,-0.1561417233820958,0.0217382042567976,0.4046914029423136,1.0161378443079734,10.2940791413786,0.0,0.0
F07_1-10-21,0.1707818880136832,0.0405922984049752,0.3478120508635532,0.0425871052817377,3.698209157340661,0.0,1.0
F07_1-13-31,0.0740611592198131,0.009906113124771,0.5649774956743049,0.9573568709403588,5.658044328703634,0.0,0.0
F07_1-19-41,0.66313741540493,0.3257894450504724,0.7768164193239335,0.7834128998967804,1.0756640121047925,0.0,1.0
F07_1-2-31,-0.0878496628409171,0.0126042600752315,0.4689956274807649,3.285556754000818,7.550396961924416,0.0,0.0
F07_1-3-31,-0.0171432078015958,0.0120905093931853,0.4283066561297042,0.3010940709429057,9.433980365267212,0.0,0.0
F07_2-10-21,0.1864479385407454,0.131674672118027,0.3451303000284209,0.2804501272649715,2.6738895921715287,0.0,1.0
F07_2-1-11,0.9964519948239356,0.0880799862313644,0.3566258442420391,0.3948793854317181,13.986911082578178,0.0,0.0
F07_2-11-31,0.053512836960461,0.0261816609002413,0.5569827831731238,1.9048083747690123,7.68534424928031,0.0,0.0
F07_2-1-21,0.9745575242713734,0.105495933846446,0.3071341152575869,0.6021442419339742,8.23976469143371,0.0,1.0
F09_1-15-11,0.95399181266664,0.555151255835385,0.857556143402409,0.7033036556579466,3.6996673072040975,1.0,1.0
F09_1-7-11,0.6048106780273089,0.0232441406462329,0.4196057110362447,1.1265554663245556,9.902553420850271,0.0,1.0
F09_1-8-31,0.1762820758613294,0.0118376905103605,0.3285047707244097,1.00751582914378,2.4284420013335906,0.0,0.0
F09_1-9-41,0.3443112734111972,0.0894567311385938,0.4861080609508119,0.2569554982140314,1.2501405241685852,0.0,1.0
F09_2-0-11,0.9126707569224276,0.1401050408412699,0.2800684117555577,1.4954694387848346,4.844958481270087,0.0,0.0
F09_2-14-21,-0.0377232025299624,0.0195421650492738,0.3394520429837502,1.8812897073225847,10.175356229059206,0.0,0.0
F09_2-16-21,0.9896193623409484,0.3840767392580074,0.2748292003859723,0.5211397726242408,7.988239704085497,0.0,0.0
F09_2-19-31,0.6372131181781103,0.5229568142415123,0.7080329863736351,0.8827161394495562,1.2628155602762536,0.0,1.0
F15_1-19-41,0.9931346332116232,0.9864852135566592,0.9606908843444714,0.4434520897962828,0.8297612695977068,1.0,1.0
F15_1-8-31,0.107962338595318,0.0225425068305887,0.3611041131602465,0.2894894740282208,3.45254196189193,0.0,1.0
F15_2-7-31,-0.1162991641243364,0.0511295714473264,0.6072526160389025,0.1183690482392046,0.8990108221841767,0.0,1.0
F23_1-10-11,0.988405288645766,0.6965718861326381,0.9649818472959716,0.2155279465873225,1.2975850171086896,1.0,1.0
F23_1-15-31,0.9975609361458636,1.1987876196875331,0.9652894566938452,0.1348199630403554,0.6440373230918522,1.0,1.0
F23_1-16-41,0.7321196464468789,0.3119063777548494,0.7246191336005174,0.3130304883343822,0.9813370752433868,1.0,1.0
F23_1-2-21,0.9680205159631964,0.0444335252724059,0.8111269363199323,1.676415627222754,1.5525439912313688,0.0,1.0
F23_1-3-41,0.9513308394337354,0.6861871264391597,0.8706526156606307,0.1961926509820188,1.1829272304295295,1.0,1.0
F23_2-1-21,-0.0504248051646957,0.0250058420354504,0.2926944789774348,0.4110662509068781,1.9784171404608408,0.0,1.0
F23_2-12-31,0.9971557203680246,1.395920183271481,0.9671247358662268,0.2481010280120604,0.7470043154608386,1.0,1.0
F27_1-10-11,0.749559292985267,1.0568365860838038,0.7990587699199874,0.3169868779810586,0.987642718678739,1.0,1.0
F27_1-10-21,0.6991426586804861,1.7945358730852845,0.7664359001636666,0.0984797567736339,0.8176714132402781,0.0,1.0
F27_1-11-21,0.1132803501956119,0.0211401587500843,0.46714823875689,1.034714205337847,2.7404532464185776,0.0,0.0
F27_1-13-41,0.0262229316886203,0.014563762310487,0.4182397146680236,1.026873627056979,4.885257273792031,0.0,0.0
F27_1-15-21,0.63810158878785,1.0272595264390183,0.7345626520009232,0.0342636842300146,0.670614241620193,0.0,1.0
F27_1-15-41,0.6006439196771332,0.4137810475678627,0.7022376710692976,0.6280298010012906,1.4475463497208751,0.0,1.0
F27_1-17-31,0.1704272261135369,0.026658380803537,0.4534152062679629,0.2445654989909398,2.4953898664894663,0.0,1.0
F27_1-4-41,-0.0073398789297385,0.0124366216732034,0.4447281915849328,0.6969154893955256,9.079899042830052,0.0,0.0
F27_2-11-31,0.0205221155153141,0.0145149274384859,0.3509463475547532,0.0368197410840878,4.295330422640825,0.0,0.0
F27_2-2-21,0.321697836990339,0.2665660674678468,0.6174201204700298,0.5974195634277677,1.5649165591723782,0.0,1.0
F27_2-3-31,0.6291191936439737,0.1400306781555984,0.741500371637718,0.3550068317436849,3.0267008357326306,0.0,1.0
F27_2-6-21,0.0526990232587384,0.007170180214063,0.3039867936422201,1.4116538016810187,7.29823334606823,0.0,0.0
F30_1-12-31,0.7994005364756227,1.287115027446878,0.8246426780628843,0.6186782949299394,1.1225085649991864,1.0,1.0
F30_1-14-41,-0.058841415179688,0.0337839862998779,0.4195642259469354,0.1843634920251631,6.102280046566955,0.0,0.0
F30_1-19-31,0.766333690874469,1.0688714408582511,0.76722559600519,0.3262179562622085,0.9516944257181988,1.0,1.0
F30_1-2-41,0.3862152332330729,0.060008240402175,0.6054435288110762,0.3278749868010502,1.566638488733711,0.0,1.0
F30_1-5-41,0.4666293759337774,0.1487385012724714,0.7375250403626373,0.5201432017033258,1.482519150467032,0.0,1.0
F30_1-6-31,0.2170967999178321,0.0239873626169133,0.3993470267756068,0.3454932179391377,2.402889314153593,0.0,0.0
F30_1-9-21,0.9718492567377252,0.1462542532171322,0.5116099720412332,0.0536666037408559,1.2932913617476582,1.0,1.0
F30_2-13-41,-0.0455643967689393,0.0465918526233688,0.3267230200025788,0.9445072011355782,4.181703927448408,0.0,0.0
F30_2-17-41,0.7786706330279263,0.0771283103219024,0.4871071170993034,0.4520594110967071,3.352045226640984,0.0,1.0
F35_1-0-41,0.8825763459612441,1.0564083927542374,0.5625330445964987,0.6308132364119889,3.14952868477124,1.0,1.0
F35_1-1-21,0.1061203447194841,0.0751516391711037,0.4240691908806632,1.160076101937548,2.45671576487537,0.0,1.0
F35_1-12-41,0.717881817826526,2.4270711879669014,0.8497593319605196,0.2661180893335375,2.420265195435792,1.0,1.0
F35_1-13-31,0.2391200640781027,0.1296507060850923,0.3478349806501279,0.1121942341846757,0.620699878946964,0.0,1.0
F35_1-15-41,0.9038648570576888,2.9747458527057207,0.8659211387193927,0.3836237925573071,1.5388040725238123,1.0,1.0
F35_2-0-31,0.869263433449345,0.6140407712027529,0.8777869703786721,0.2184893008625359,0.6772234521955868,1.0,1.0
F35_2-17-21,0.7991547441555295,0.1417617710767973,0.6676920861286981,0.635949437216154,3.3050277014971834,1.0,1.0
F35_2-4-21,0.1956377924887507,0.0085357100979127,0.3883915194959091,7.244220145062775,19.300240870808903,0.0,0.0
F35_2-4-31,-0.0337304014538874,0.0102370957742833,0.422560986920886,4.092981026102713,14.060894586059751,0.0,0.0
F43_1-14-11,-0.0577775229451781,0.0329105548802871,0.3856348955255547,2.031895674485636,11.827245165990911,0.0,0.0
F43_1-9-41,0.011363923686727,0.0689803549033761,0.4626167087242436,0.3714100356228001,0.7943656578843553,0.0,1.0
F43_2-12-21,0.9600429526324178,2.3017333022301285,0.967169286995326,0.4470556245365288,0.8723536953780345,1.0,1.0
F43_2-18-11,0.99749064737925,2.162454758067214,0.9633934838657778,0.4718388611129773,1.117855278866837,1.0,1.0
F43_2-2-31,0.1279759138436346,0.0510677580455355,0.4777010094021937,0.1784174887383557,1.1412858557606091,0.0,1.0
F43_2-5-41,0.259410449020761,0.0560044417306394,0.434483625637915,0.3711045629946321,1.5577988456369387,0.0,1.0
F46_1-10-21,0.9965031068161482,1.402509147593491,0.8732595729238279,0.3238557656226611,0.8983599192730461,1.0,1.0
F46_1-1-21,-0.0092974552233154,0.0120966047612096,0.597551368081474,0.609359780846475,12.871085801823172,0.0,0.0
F46_1-3-31,0.8267183203001283,1.7655618803362074,0.9062761396535508,0.3849276771241704,0.6419760361987387,1.0,1.0
F46_1-4-31,-0.1084426958557629,0.0079807396580106,0.5058577009509884,0.8852097977740954,13.90249380028244,0.0,0.0
F46_1-5-21,0.9911360337981292,1.385737285299102,0.8593074232893471,0.3958910824870828,0.583202880122332,1.0,1.0
F46_2-15-11,-0.0228184545025153,0.0118792486692171,0.5177865003480655,0.0511413275694105,1.2146287245850154,0.0,1.0
F46_2-16-31,0.9950006339712696,0.2056873128747549,0.7290295555242126,0.0658738868646413,1.80671742446548,1.0,1.0
F46_2-19-31,0.0107852431884621,0.0110790689747084,0.4113197017891722,4.942245176006921,9.321261988051743,0.0,0.0
F46_2-2-11,-0.0471912366948567,0.0098617502279885,0.5083618982884616,0.6208797719297339,7.117604815627146,0.0,0.0
F46_2-6-11,0.0445014076237251,0.0196999564634288,0.4116906653348041,1.441492915116815,4.100836364441946,0.0,0.0
F46_2-6-41,0.0091394505237572,0.0092114015690853,0.5902761094752532,1.109749180338233,5.170888607234373,0.0,1.0
F46_2-8-31,0.91482033081834,0.1271129816865769,0.641296302433061,0.0321100399523672,0.953974433609162,1.0,0.0
F52_1-10-31,-0.0690601051604391,0.0146203614056884,0.4051994426666356,1.252007042452064,51.156006850443504,0.0,0.0
F52_1-15-21,0.0348054608721039,0.0355452732153215,0.2647509220318208,1.54731694471473,47.70439739944946,0.0,0.0
F52_1-17-11,0.7484829958987906,0.1096247333497174,0.3467350973908191,0.0757716404698938,0.6016427424438388,0.0,0.0
F52_1-17-21,0.5520552062339935,0.2502429907960155,0.2966243532978528,0.0059148461677666,0.1454359147195281,0.0,1.0
F52_1-2-21,0.0074760828244575,0.0110459929076287,0.3685229675730589,0.1561542129520603,5.235851778827309,0.0,0.0
F52_1-2-41,-0.0094927940092136,0.0139342883056821,0.3655172294666306,1.4147743123073253,6.478785054973889,0.0,0.0
F52_1-4-11,-0.0909873683084238,0.0149044415980365,0.3631915846226606,0.1286661657391761,7.755604271556138,0.0,0.0
F52_2-17-31,0.8937437435831012,0.1482958707267511,0.276461118647162,0.0595399801606616,0.9781619984150632,0.0,1.0
F75_1-18-11,0.9964752209330218,3.7377542471270617,0.9661017966849098,0.4490366974850971,1.0322396891347905,1.0,1.0
F75_1-18-21,0.9960217000867576,3.4097675642464784,0.9623695118682556,0.2702541133152788,0.6643418056819863,1.0,1.0
F75_1-7-31,0.0578908031412939,0.0121248494745924,0.3488216024810203,0.349762476670751,1.5183418761511478,0.0,1.0
F75_2-3-11,0.9750361934142538,0.8087869249799992,0.826274102526917,0.384992726004757,1.273386968576374,1.0,1.0
F76_1-10-41,0.3440123115635218,0.0382007452437731,0.4575034013795978,0.1768061111389551,2.054206035594288,0.0,0.0
F76_1-19-21,-0.1010172655478929,0.0177650445485228,0.4517516412685033,2.7009250580943087,7.766526514079143,0.0,0.0
F76_1-6-31,-0.0078076564015027,0.0101204726843036,0.56819205937334,0.1632809388974241,9.754677552847658,0.0,0.0
F76_2-12-31,0.4183120508820662,0.0760042426171025,0.2448733641043008,0.4855006495571969,1.7074998458242496,0.0,1.0
F76_2-1-31,0.0886430577537954,0.0084730405893721,0.3238461967095767,0.5246616048211994,10.967865065873424,0.0,0.0
F76_2-6-11,-0.0215251733164802,0.017754720466305,0.5601267778318182,0.5074831513436955,9.659740323836768,0.0,0.0
F76_2-7-31,0.0150298689894773,0.0070124396184507,0.4086168783821092,1.5354969034594177,9.630062668763104,0.0,0.0
F76_2-8-41,-0.017653696183064,0.0175559854405398,0.4683042514216838,0.5628213029668014,9.530369950596569,0.0,0.0
F77_1-1-31,0.9293109970807214,0.2032389625219808,0.3649343851374075,2.165649683141682,5.574123568475079,0.0,1.0
F77_1-15-41,0.7630345050507973,0.3802024268502984,0.6214839718669963,0.6736326864777054,1.9785469556899251,1.0,1.0
F77_1-2-41,-0.0422119928139477,0.0841691369081888,0.387630160006894,1.7727949084100718,14.416162102069183,0.0,0.0
F77_1-5-21,0.9761471898218048,0.1366593035713417,0.3302962455670323,0.7286615614080993,3.8827356530434303,0.0,1.0
F77_1-9-41,0.7728207269391171,0.1186887109620258,0.3520608820887188,1.5402988560110558,8.393569371712044,0.0,1.0
F77_2-12-41,0.8507955289936769,0.370504522814618,0.8235689558192425,0.7227295996298788,1.5005273526363605,1.0,1.0
F77_2-4-21,-0.0236995692037634,0.0087193583066399,0.4046443364417678,13.1023812720493,25.67288962708332,0.0,0.0
F77_2-7-11,0.990935923659075,0.0803176661293964,0.4134551070631696,20.749464774255816,25.3725818997035,0.0,0.0
F78_1-14-31,-0.0085676122972073,0.013175301662742,0.4453447368845741,3.244451517658333,7.590750857930599,0.0,0.0
F78_1-6-41,0.201434741697485,0.0311269021204512,0.4335502374033756,0.9958132312065056,2.866394401540446,0.0,0.0
F78_2-10-11,0.01944202883998,0.1287505037618886,0.6113816837019354,2.905019385654187,4.81576026097588,0.0,0.0
F78_2-11-21,0.0333669389577424,0.0159588805560892,0.3955437597497865,0.6546310135023297,1.9776845388772688,0.0,1.0
F78_2-15-11,0.7790164753847802,0.4395891384791933,0.8172008716462118,0.3775682803293159,1.0604395414666556,1.0,1.0
F78_2-15-21,0.7406197599601294,0.443953340458264,0.8239217428728396,0.0475916047625343,0.7467521531291705,1.0,1.0
F78_2-16-21,0.9237429986056636,0.1132142133465333,0.7328633200082411,0.1267504318136154,0.7732211061951434,1.0,1.0
F78_2-4-11,-0.020379707963397,0.0136193156108034,0.5004062357910344,2.6178110664744687,4.741827335833623,0.0,0.0
F78_2-8-11,-0.1551055729297714,0.0193356683651987,0.4785194821238623,0.0101384570473848,1.5067705098942743,0.0,0.0
F78_2-8-41,0.1486676564046311,0.0086932297480634,0.3469463376687752,0.8512836341277601,4.218381153563406,0.0,1.0
F79_1-1-41,0.9522878351497484,0.9029214877076884,0.9303295110274408,0.1772009848572013,0.3082180755634132,1.0,1.0
F79_1-2-21,0.9825625308731604,3.0492146157754965,0.9403358576205072,0.9217620221831608,0.7714627486712022,1.0,0.0
F79_1-3-41,0.9827196107990552,0.735889115957995,0.920740575374853,0.2273554468498215,1.1567247911381018,1.0,1.0
F79_1-5-11,0.988521156389377,2.010682501417578,0.9492675730776132,0.3989951040159434,0.9542783780479775,1.0,1.0
F79_2-15-41,0.9905581098757894,1.2050911780414086,0.5352805516648865,0.6557620585751783,1.358902518259291,1.0,1.0
F79_2-19-11,0.9207592868403034,0.4802975759045179,0.8970558753242237,2.7058662187052507,3.289544216524304,1.0,1.0
F79_2-6-11,0.7770806444820654,0.4837684174041249,0.8639767215214942,0.6796788480819287,1.2144654424733323,1.0,1.0
F79_2-9-21,0.5984648599364716,0.064866456283748,0.5030121571478461,0.2573487555191794,0.7926752292105111,0.0,1.0
F80_1-16-11,0.9571461641132528,0.4126209731283189,0.7055206807131708,0.0781229737841051,0.749934097889494,1.0,1.0
F80_1-16-31,0.984444391703746,0.104580659702075,0.4232522490786314,0.0701860987844191,0.9000480924555205,0.0,1.0
F80_1-3-21,0.9809660814742084,0.2229660388007534,0.9228226227515274,0.8690690650058821,7.839287921309385,0.0,1.0
F80_1-3-41,0.9901099666555137,1.1536226227357855,0.9291717245645152,0.385923128557575,1.5946837609775697,1.0,1.0
F80_2-1-11,0.998464478746062,0.3621689950388992,0.3010231973780469,0.6155244814518337,7.726298639517955,0.0,1.0
F80_2-12-41,0.8271875813636189,0.5567880092425976,0.7162246644642878,0.9909014371666148,2.16732659956808,1.0,1.0
F80_2-1-41,0.9854289080393606,0.1839764916256691,0.2147056313480631,0.0927489020324414,3.5137360081438223,0.0,0.0
F80_2-14-21,0.0536140088178827,0.0095684702825356,0.3451338946511429,0.692364997160805,7.316488145377687,0.0,0.0
F80_2-19-31,-0.0692908060606307,0.0270622324193791,0.369470282078549,2.932420143696648,7.396641992396012,0.0,0.0
F80_2-4-31,0.4827544234248923,0.0980081751388198,0.3449135877520061,0.2298243648274458,3.23077771238175,0.0,0.0
F82_1-10-11,0.9594152294168844,1.0775541008081149,0.8731442843861985,1.0111923396600788,1.2998277030413272,1.0,1.0
F82_1-17-21,0.9239402411372736,0.2284448525936331,0.4376800556545002,0.0913655987661163,2.276204261814589,0.0,1.0
F82_1-4-31,0.0735124441439802,0.0074549426586542,0.4792937692540223,4.210033118218488,6.663400134808945,0.0,0.0
F82_1-8-41,0.0007200483411299,0.0228947295450652,0.4989176890768778,0.7770717611090969,3.626777313068243,0.0,1.0
F82_2-3-31,0.9707242963726256,0.8485998458599759,0.8855406196015864,0.5870517050582078,0.8154946192190788,1.0,1.0
F82_2-3-41,0.9735383889226094,1.137948394710577,0.946888184466391,0.2221673557471143,0.840473362700762,1.0,1.0
F82_2-7-21,0.9419377849284146,0.1972440611047975,0.4094799691252033,0.4512864359602355,4.909633398367269,0.0,1.0
F83_1-12-21,0.8521269986803648,0.6565927104055748,0.7488443473030716,0.453094195755505,1.4350663280147895,1.0,1.0
F83_1-15-31,0.9815456674461456,0.1883126137915167,0.9099073563035198,0.2981076113653023,2.2657209230673154,1.0,1.0
F83_1-16-11,0.8249261566921423,0.566266468195953,0.8240229862832598,0.1426339624626056,1.386109683466856,1.0,1.0
F83_1-18-21,0.8942967569370578,0.8558500908810087,0.8501760439773541,0.5448744414092056,0.971883853366014,1.0,1.0
F83_1-2-11,0.7756697339731108,0.9996203732972996,0.8268947872960186,0.0986830525246957,1.1346496659406606,1.0,1.0
F83_1-4-21,0.027372446151076,0.0227258641046033,0.5427749839869801,2.7990052946631927,10.550445955470074,0.0,0.0
F83_2-1-21,0.0202024235798289,0.023391652003209,0.5289210017147337,0.6106240678416999,2.265521895918613,0.0,1.0
F83_2-12-31,0.8927730228518116,1.015862637811996,0.9009566538921012,0.3645850233059926,0.8456170244730872,1.0,1.0
F83_2-15-11,0.9762484996104476,0.2152433363084909,0.8274736654840106,0.3732804092485522,3.3255114562411734,1.0,1.0
F83_2-9-41,0.9221421307558392,0.738790778483333,0.9438491469641596,0.2145749734514046,3.5019885673002857,1.0,1.0
F84_2-13-31,0.3503787390635747,0.1449954312181197,0.6600638064139576,1.827543366408008,2.598264181974606,0.0,1.0
F84_2-18-41,0.95044781911274,0.6345987609598199,0.923616040978639,0.4844870525235933,0.9897893139795144,1.0,1.0
F84_2-19-41,0.9941357785418624,0.7113880609687266,0.9387053067676748,0.6461288331188058,1.1903377669723842,1.0,1.0
F84_2-5-11,0.541344556519783,0.583525228442019,0.7743412817227133,0.4373228926506598,1.034013046038392,0.0,1.0
F84_2-7-31,0.6740187804164584,0.1786526430020952,0.7299662917182979,0.3875979299076927,0.7311327365920318,0.0,1.0
F84_2-9-11,0.3949867916213369,0.2874474638535885,0.51456449888009,0.6885263444927865,1.3728420646942003,0.0,1.0
F85_1-13-11,0.0482635208106976,0.0255802011356424,0.3554576077172928,0.7217574134681257,3.273393288558386,0.0,0.0
F85_1-15-11,0.8543671350973873,2.342259496542098,0.8054849000715439,0.0121444872186861,0.8500015988094309,1.0,1.0
F85_1-16-21,0.9939288326904928,0.2364381381787247,0.2194560120028597,0.255619646358654,4.696730817064358,0.0,1.0
F85_1-5-31,0.4502112236454473,0.1670041854416558,0.5933917874266315,0.1518516325377628,2.2226958166133217,0.0,1.0
F85_2-15-11,0.8604667592347748,0.3792167292188233,0.7584162791164244,1.7661146141855433,3.4298776763961003,1.0,1.0
F85_2-16-31,0.9866759233521768,0.0435483759103233,0.3715960239491129,0.4605253640205253,8.16184763889661,0.0,1.0
F85_2-18-11,0.927003847855258,0.3235838061119515,0.7403165417305556,1.6929693116184388,2.0724623318824245,1.0,1.0
F85_2-18-21,0.8825885651297206,0.1301840523832961,0.8031842506274429,0.2706856717633337,3.2559362884076197,1.0,1.0
F85_2-19-21,0.4625751735200628,0.0398486481405384,0.4606843187505909,0.1114986391345862,3.437147986692678,0.0,1.0
